1 AO QO JC 5C 5P 2
2 QO JC TC 5C 5O 2
6 KC JC TC 5C 2C 6
W KC JC TC 5C 2C 6 6

1 0.00E+00
2 0.00E+00
3 0.00E+00
4 0.00E+00
5 0.00E+00
6 1.00E+00
7 0.00E+00
8 0.00E+00
9 0.00E+00
10 0.00E+00

6 1.00
1 0.00
2 0.00
3 0.00
4 0.00
5 0.00
7 0.00
8 0.00
