KC QC JC 9E 8O 1
AE KE TE 8C 8P 2
QE JE TC 6O 6P 2
AO JO 7E 5O 5P 2
9P 7P 6E 2E 2O 2
AP KO QO TO 7O 1
AC QP JP 5C 5E 2

-1 0.00E+00
1 2.86E-01
2 7.14E-01
3 0.00E+00
4 0.00E+00
5 0.00E+00
6 0.00E+00
7 0.00E+00
8 0.00E+00
9 0.00E+00
10 0.00E+00
