1 JC JE TC 6O 6P 3
2 QC JE 6C 6O 6P 4
W QC JE 6C 6O 6P 4 2

1 0.00E+00
2 0.00E+00
3 0.00E+00
4 1.00E+00
5 0.00E+00
6 0.00E+00
7 0.00E+00
8 0.00E+00
9 0.00E+00
10 0.00E+00

2 1.00
1 0.00
3 0.00
4 0.00
5 0.00
6 0.00
7 0.00
8 0.00
