AO TE 9C 5E 5P 2 TE 9C 5E 5O 4E 2 1
AE KC TC 9O 8O 1 TC 7C 5C 4C 2C 6 2
AC 6O 6P 2E 2P 3 AC JC JE 6O 6P 3 2
KE KO QC TO 9P 2 KE QC QE TO 9P 2 1
QP JP TP 4P 3P 6 AP QP JP TP 8P 6 2

-1 0.00E+00
1 1.00E-01
2 4.00E-01
3 2.00E-01
4 0.00E+00
5 0.00E+00
6 3.00E-01
7 0.00E+00
8 0.00E+00
9 0.00E+00
10 0.00E+00

0 0
1 2
2 3
