1 9O 8P 7P 6C 5E 5
W 9O 8P 7P 6C 5E 5 1

1 TC 9P 7C 7E 6C 2
2 TC TE 9O 9P 7C 3
3 TC TP 9P 7C 7P 3
W TC TE 9O 9P 7C 3 2

2 QC QE JE 8E 8O 3
W QC QE JE 8E 8O 3 2

1 KC QC QP TO 9O 2
3 TO 9O 8P 7C 6C 5
W TO 9O 8P 7C 6C 5 3

1 TC TO 9C 7E 6O 2
2 AE TC TO 9C 7E 2
3 TC TO TP 9C 7E 4
4 QC QP TC TO 9C 3
5 TC TO 9C 9P 7E 3
6 AC TC TO 6C 6O 3
7 TC TO 9C 7C 7E 3
8 TC 9C 8C 7E 6O 5
W TC 9C 8C 7E 6O 5 8

2 9P 8P 7E 6E 5P 5
W 9P 8P 7E 6E 5P 5 2

1 AC AO 6C 6O 6P 7
3 AC TE 6C 6O 6P 4
4 7C 7P 6C 6O 6P 7
W AC AO 6C 6O 6P 7 1

1 AC AE 9E 2C 2O 3
3 AC 8C 6C 4C 2C 6
5 AC QC 6C 4C 3C 6
W AC QC 6C 4C 3C 6 5

2 QC QP 3C 3E 3P 7
W QC QP 3C 3E 3P 7 2

1 KO JC 8O 7C 6C 1
6 KO 8O 6C 3O 3P 2
7 KO QO 8O 4C 4E 2
8 KO 8C 8O 3E 3P 3
W KO 8C 8O 3E 3P 3 8

1 KE TO TP 8E 5P 2
2 KE JO JP TO TP 3
3 AO TO TP 5C 5P 3
W KE JO JP TO TP 3 2

2 KC KE 7P 6E 6O 3
4 KE 6E 6O 5C 5O 3
W KC KE 7P 6E 6O 3 2

1 AP KO TE 4C 4E 2
5 AP KO TO 9P 8C 1
W AP KO TE 4C 4E 2 1

1 AO QO JO 2C 2E 2
4 AO QO JO 3O 2O 6
W AO QO JO 3O 2O 6 4

2 AP QE QO 9E 8C 2
6 QE JE TE 9E 8C 5
7 QE QO 9E 7C 7O 3
8 QE QO JO 8C 8E 3
W QE JE TE 9E 8C 5 6

1 JC TC 6P 4C 4P 2
2 TC TO 4C 4E 4P 7
3 QE JE TC 4C 4P 2
4 6P 5P 4C 3C 2C 5
W TC TO 4C 4E 4P 7 2

1 AP KO 9O 5E 5P 2
3 AP 5E 5P 2C 2E 3
7 AE AO AP 5E 5P 7
W AE AO AP 5E 5P 7 7

5 JE TE 9E 8C 8O 2
W JE TE 9E 8C 8O 2 5

1 QP JO TO 6E 6P 2
2 QP JO JP TO 8O 2
4 JO TO 9O 8O 2O 6
W JO TO 9O 8O 2O 6 4

1 AO KC QE JE 8O 1
6 AO KC JE TP 8O 1
8 AO KC JE JP 8O 2
W AO KC JE JP 8O 2 8

2 AO JO 7E 4O 4P 2
4 7E 6E 5P 4O 3O 5
W 7E 6E 5P 4O 3O 5 4

1 9E 8E 6E 4E 2E 6
2 KC JO 9P 8E 8O 2
3 9P 8E 8O 7E 7O 3
7 JE 9P 8E 8O 6C 2
W 9E 8E 6E 4E 2E 6 1

1 AE QE JO 6E 6O 2
5 AE QE JC JO 9O 2
W AE QE JC JO 9O 2 5

2 AC TO 6E 2C 2P 2
3 8O 6E 6P 2C 2P 3
W 8O 6E 6P 2C 2P 3 3

1 AP KE JO TP 6P 1
2 AP KE TO 2E 2P 2
3 AP 6P 5P 4P 3P 6
6 AC AP KE QO 6P 2
8 AP KE QE 7C 6P 1
W AP 6P 5P 4P 3P 6 3

1 KE 6E 6P 3E 3O 3
4 8E 6E 6P 2E 2P 3
W KE 6E 6P 3E 3O 3 1

2 AP KO QE 9E 9P 2
3 AP 9E 9O 7E 7O 3
7 AP KO QE 7C 7E 2
W AP 9E 9O 7E 7O 3 3

1 AC AE JO TE 9P 2
2 AC AE JO 4C 4E 3
4 AC AE AP KC JO 4
5 AC AE JO TO 9P 2
W AC AE AP KC JO 4 4

1 AE JC JE TE 7P 2
W AE JC JE TE 7P 2 1

2 AC TO TP 3C 3P 3
3 JP TO 3C 3O 3P 4
6 JO TO 8C 3C 3P 2
8 TO 8C 7C 3C 3P 2
W JP TO 3C 3O 3P 4 3

1 KC JO 9P 7O 6C 1
2 JP 9P 7O 3E 3P 2
5 7O 6C 5O 4E 3E 5
W 7O 6C 5O 4E 3E 5 5

1 AE KC TO 9C 7C 1
4 AC AE AP TO 7C 4
7 AE AO TO 6C 6E 3
W AC AE AP TO 7C 4 4

2 QE 6E 6P 5E 5P 3
3 QC QE JC 5E 5P 3
W QC QE JC 5E 5P 3 3

1 QO TC TP 8C 6C 2
2 QO TC TP 8P 7C 2
W QO TC TP 8P 7C 2 2

1 QO 9C 9O 3C 3O 3
6 QE TC 9O 3C 3O 2
8 AC TC 9O 3C 3O 2
W QO 9C 9O 3C 3O 3 1

2 JC 9C 9P 4O 4P 3
3 KE JC JO 4O 4P 3
5 JC TO 9P 4O 4P 2
W KE JC JO 4O 4P 3 3

1 KC 9C 9O 8E 7E 2
2 AP KC 9C 9O 8E 2
3 KC KO QO 9C 9O 3
4 KC JC 9C 9O 8E 2
5 9C 9O 8E 8O 8P 7
7 AO KC 9C 9O 8E 2
W 9C 9O 8E 8O 8P 7 5

1 KO QC JE TC TE 2
W KO QC JE TC TE 2 1

1 9E 8C 7P 6O 5O 5
2 QC JC TC 6O 6P 2
3 QC 9E 9P 7C 7P 3
6 AP QC TO 6O 6P 2
8 QC 9E 7P 6O 6P 2
W 9E 8C 7P 6O 5O 5 1

1 AP QE QO 3C 3P 3
2 AP KO JO 3C 3P 2
3 AC AP KO 3C 3P 3
W AC AP KO 3C 3P 3 3

4 QE JC 7C 6O 5C 1
7 QE JC 8P 6O 5C 1
W QE JC 8P 6O 5C 1 7

1 AP KO TE 8C 8E 2
3 AP 8C 8P 4E 4P 3
5 AP KO QP TC TE 2
W AP 8C 8P 4E 4P 3 3

1 QP TO TP 9O 8C 2
4 QP TO 5C 5E 5O 4
5 QP JP TO 9O 8C 5
W QP JP TO 9O 8C 5 5

2 JP TE 6E 6P 5C 2
6 JP TC TE 6C 5C 2
8 AC JP TE 7P 5C 1
W JP TC TE 6C 5C 2 6

1 AE QC QE 9E 9O 3
2 AE QC QE JE 8P 2
3 AE QC QE JE JO 3
5 AE QE JE TE 8E 6
W AE QE JE TE 8E 6 5

1 JC 9O 6C 6E 6O 4
7 JC 9O 8O 6E 6O 2
W JC 9O 6C 6E 6O 4 1

2 QC TP 7C 5E 5O 2
3 QC QO 7C 7E 6P 3
5 8C 7C 6P 5O 4C 5
W 8C 7C 6P 5O 4C 5 5

1 8O 7E 6E 5E 4E 5
2 AE 7E 6E 5E 4E 6
3 8E 7E 6E 5E 4E 9
4 JE 7E 6E 5E 4E 6
6 TE 7E 6E 5E 4E 6
7 7E 6E 5E 4E 3E 9
W 8E 7E 6E 5E 4E 9 3

1 AC QO JO 9E 9P 2
4 QO JO TO 6O 5O 6
5 KE QE JO TO 9E 5
7 QO JO TO 9O 8O 9
8 AO QO JO TO 3O 6
W QO JO TO 9O 8O 9 7

2 AC AO 8E 7P 5P 2
W AC AO 8E 7P 5P 2 2

1 KO 8C 7C 6C 6E 2
2 JE 8C 7C 6C 6E 2
3 AC 7C 7P 6C 6E 3
W AC 7C 7P 6C 6E 3 3

1 QE TE 5C 3E 3P 2
4 6C 5C 4P 3P 2O 5
5 6E 5C 4P 3P 2O 5
W 6C 5C 4P 3P 2O 5 4 5

2 JO 9C 9O 8C 7E 2
4 9C 9O 2C 2E 2O 7
6 TP 9C 9O 8C 6C 2
W 9C 9O 2C 2E 2O 7 4

1 KO JE JO JP TO 4
2 AC JE JO JP 9O 4
3 JE JO JP TP 8P 4
5 JE JO JP 8O 8P 7
8 JE JO JP 9E 8P 4
W JE JO JP 8O 8P 7 5

1 AO 9P 8E 6E 6P 2
3 9P 8E 7C 6E 5C 5
5 9C 8E 7O 6E 5C 5
7 9P 8E 6E 2E 2P 2
W 9P 8E 7C 6E 5C 5 3 5

2 KC JC 9C 9O 8O 2
W KC JC 9C 9O 8O 2 2

1 QC JC TO 5O 5P 2
2 TC TO 9P 5O 5P 3
W TC TO 9P 5O 5P 3 2

1 KC QC JO 9E 7P 1
3 JO TC 9E 8P 7P 5
6 KC JO 9E 4E 4P 2
W JO TC 9E 8P 7P 5 3

2 9C 8C 7C 6C 5E 5
3 9C 8C 7C 6C 5E 5
4 9C 8C 7C 6C 5E 5
5 AC 9C 8C 7C 6C 6
6 9C 8C 7C 6C 4C 6
7 9C 8C 7C 6C 5C 9
8 9C 8C 7C 6C 5E 5
W 9C 8C 7C 6C 5C 9 7

1 QE 9E 8E 2C 2O 2
W QE 9E 8E 2C 2O 2 1

1 AE QC TC 7O 6C 1
2 QC JC TC 6C 5C 6
3 AC QC TC 6C 5C 6
5 QC TC 6C 5C 3C 6
6 QC TC 7C 6C 5C 6
W AC QC TC 6C 5C 6 3

2 AE JC TC 4C 4P 2
5 QO JC TC 9O 8C 5
W QO JC TC 9O 8C 5 5

1 AC KC QC 8C 6C 6
6 KC QC JC TC 6C 6
W AC KC QC 8C 6C 6 1

1 QO 9P 7O 7P 6P 2
2 QO TP 7O 7P 6P 2
4 QO QP 7O 7P 6P 3
5 8E 7O 6P 5O 4O 5
7 QO JO 9E 7O 7P 2
8 7E 7O 7P 4O 4P 7
W 7E 7O 7P 4O 4P 7 8

2 QP TE 9O 7C 7P 2
3 QC QP TE 9C 9O 3
W QC QP TE 9C 9O 3 3

1 AC TC 7O 2C 2E 2
6 AC AE 2C 2E 2O 7
W AC AE 2C 2E 2O 7 6

1 AO QO TO 8O 7E 1
2 AO 8O 7E 3O 3P 2
3 AO AP 8O 5C 5O 3
W AO AP 8O 5C 5O 3 3

2 QC QO JC TC 9O 2
3 QC QO TC 2C 2E 3
6 QC QO 9C 9O 9P 7
W QC QO 9C 9O 9P 7 6

1 KC JP TO 6E 6O 2
4 KC JO 6C 6E 6O 4
5 KC QC TO 6E 6O 2
7 KC 8C 8O 6E 6O 3
8 TO 9C 8O 7O 6E 5
W TO 9C 8O 7O 6E 5 8

1 JO 9P 8P 4E 4O 2
2 AC KE JO 4E 4O 2
3 JO TP 4E 4O 4P 4
4 QP JO TC 9P 8P 5
W QP JO TC 9P 8P 5 4

1 JO TE TP 7C 6C 2
2 AC JO TC TE TP 4
W AC JO TC TE TP 4 2

1 QC 8O 7O 5C 5E 2
2 8O 7O 6E 3C 3P 2
5 9E 8O 7O 6E 5C 5
6 AE 8C 8O 7O 6E 2
W 9E 8O 7O 6E 5C 5 5

7 QP JC JP TE 7E 2
8 KC QP JC TE 4C 1
W QP JC JP TE 7E 2 7

1 JC TP 9O 6E 4E 1
2 JC 6E 6O 3E 3P 3
3 JC JP 9C 6E 4E 2
4 JE 6E 4E 3E 2E 6
6 6E 5E 4E 3E 2E 9
W 6E 5E 4E 3E 2E 9 6

1 JC TC 8E 3O 3P 2
2 JC TC 9E 8C 8E 2
5 JC TC 9C 8E 7O 5
W JC TC 9C 8E 7O 5 5

4 5E 4E 3P 2E AP 5
W 5E 4E 3P 2E AP 5 4

1 KC 8O 8P 7O 7P 3
2 KC QC 8O 8P 7P 2
W KC 8O 8P 7O 7P 3 1

1 AC QC TP 3C 3E 2
2 AC QC TE TP 7E 2
7 AC QC TC TO TP 4
8 AC QC QE TP 7E 2
W AC QC TC TO TP 4 7

3 QC 5C 5P 3C 3E 3
5 5C 5P 3C 3E 3O 7
6 AP 5C 5P 3C 3E 3
7 5C 5P 3C 3E 3P 7
W 5C 5P 3C 3E 3O 7 5 7

1 5C 4O 3C 2P AO 5
2 AC 9P 6O 5C 5O 2
3 9C 9P 5C 5O 4O 3
5 9E 9P 5C 5E 5O 7
W 9E 9P 5C 5E 5O 7 5

1 AC TO TP 5E 5P 3
2 AC AP TO 5E 5P 3
4 AC QP TO 5E 5P 2
W AC AP TO 5E 5P 3 2

3 AC TC 2C 2E 2P 4
4 AC QC TC 4C 2C 6
5 AC TC 9C 4C 2C 6
6 AC JC TC 4C 2C 6
W AC QC TC 4C 2C 6 4

1 AO KE QE JO TP 5
2 AO KE QE QP JO 2
8 AO KE QE QP JO 2
W AO KE QE JO TP 5 1

1 AC AO AP KE QP 4
2 AC AO AP QC QP 7
3 AC AO AP KO QP 4
4 AC AO AP QP JP 4
7 AC AO AP QE QP 7
W AC AO AP QC QP 7 2 7

3 AC AE KO 5E 5O 3
W AC AE KO 5E 5O 3 3

1 QO TE TP 8O 5C 2
2 JP TE TP 8E 8O 3
W JP TE TP 8E 8O 3 2

1 AC QO QP TP 7P 2
2 QP TP 7P 4P 2P 6
5 AC KO QP JC TP 5
6 AC QP JE TP 7P 1
W QP TP 7P 4P 2P 6 2

3 KE QC QE 8C 8O 3
5 QC QE 8C 8O 8P 7
8 AO QC QE 8C 8O 3
W QC QE 8C 8O 8P 7 5

1 JO TO 8E 8P 6E 2
2 AE TE TO 8P 6E 2
4 QP TO 8P 6E 5E 1
7 8P 7O 6E 5E 4E 5
W 8P 7O 6E 5E 4E 5 7

1 AE KC QE QP 9E 2
3 KC QP JE TO 9E 5
W KC QP JE TO 9E 5 3

3 KE QO QP 6O 6P 3
W KE QO QP 6O 6P 3 3

1 6P 5C 4P 3P 2O 5
2 6P 5C 4O 3P 2O 5
6 AE TC 9C 6P 5C 1
W 6P 5C 4P 3P 2O 5 1 2

1 AE QO 8P 2E 2O 2
2 AE QO 8P 2C 2O 2
8 AE AO QO JE 8P 2
W AE AO QO JE 8P 2 8

3 TC TE TO 6C 6P 7
4 TC TE TO 6E 6P 7
5 KC KE TC TE TO 7
7 TC TE TO 5E 5P 7
W KC KE TC TE TO 7 5

1 QO 3C 3O 2C 2E 3
2 QC QO TP 2C 2E 3
3 AC QO QP 2C 2E 3
W AC QO QP 2C 2E 3 3

1 QP JC 8E 2C 2P 2
2 8E 7E 7O 2C 2P 3
W 8E 7E 7O 2C 2P 3 2

3 9E 8C 7C 6C 5O 5
4 AO 8C 7C 7O 7P 4
6 QE TE 8C 7C 7O 2
W 9E 8C 7C 6C 5O 5 3

1 AC JC TC 7C 7P 2
8 AC AE TC 7P 5O 2
W AC AE TC 7P 5O 2 8

1 1.02E-02
2 1.43E-01
3 2.45E-01
4 6.12E-02
5 2.45E-01
6 1.02E-01
7 1.53E-01
8 0.00E+00
9 4.08E-02
10 0.00E+00

3 20.50
2 17.00
5 16.50
1 14.50
4 9.50
7 8.00
8 7.00
6 5.00
