1 AP 6C 6P 2C 2P 3
2 AP KO QE 6C 6P 2
3 KE KO 6C 6E 6P 7
W KE KO 6C 6E 6P 7 3

1 QP TE 9E 8C 8O 2
2 QP JO TE 8C 8O 2
W QP JO TE 8C 8O 2 2

4 AO KO QO JO TE 5
W AO KO QO JO TE 5 4

1 AC AE QC 9O 7E 2
2 AC AE QC 6C 5C 2
W AC AE QC 9O 7E 2 1

1 JO TC 9P 3E 3O 2
2 JO TC TO 9P 8E 2
3 JO TC 9P 8E 7P 5
5 AO JO TC 9P 8E 1
6 QP JO TC 9P 8E 5
7 QC JC TC 9P 8E 5
8 AC JO TC 9E 9P 2
W QP JO TC 9P 8E 5 6 7

3 AP 9E 9O 6C 6O 3
W AP 9E 9O 6C 6O 3 3

1 QC JO 8C 8P 7C 2
W QC JO 8C 8P 7C 2 1

1 AC KE KO QC QP 3
2 AC KE KO QC 9O 2
4 AC KE KO 7C 7E 3
W AC KE KO QC QP 3 1

2 AO AP TE 2E 2P 3
W AO AP TE 2E 2P 3 2

1 AO JE 5C 5E 5P 4
3 AO JE 5C 5E 5P 4
4 AO KC 5C 5E 5P 4
5 AO QC 5C 5E 5P 4
6 AO JE 5C 5E 5P 4
7 AO JE 5C 5E 5P 4
8 AO JE 5C 5E 5P 4
W AO KC 5C 5E 5P 4 4

1 AC TC 9C 8O 8P 2
2 AC TC 9C 3C 3E 2
3 TC 9C 8O 7C 6E 5
4 TC 9C 8O 7O 6E 5
W TC 9C 8O 7C 6E 5 3 4

2 QC JC JP TE 8O 2
5 QO JP TE 9O 8O 5
W QO JP TE 9O 8O 5 5

1 AC KE QC 9O 5P 1
W AC KE QC 9O 5P 1 1

1 AC KO TE TO 9E 2
2 AC AE KO TE 9E 2
W AC AE KO TE 9E 2 2

2 AC AE JE 6C 6P 3
6 AC JE TE 9C 7P 1
7 AC AO JE 7P 6P 2
8 AC JE JO 7P 6P 2
W AC AE JE 6C 6P 3 2

1 AE TE 9E 7E 3E 6
3 QC JP TE 9E 8O 5
W AE TE 9E 7E 3E 6 1

1 KO JC TO 4E 4O 2
2 KO 9E 9O 4E 4O 3
4 KO 9E 8C 4E 4O 2
5 KO 9E 8C 4E 4O 2
W KO 9E 9O 4E 4O 3 2

4 AC JC 5C 4C 2C 6
5 JC 7C 5C 4C 3C 6
W AC JC 5C 4C 2C 6 4

1 AC JE JP TE 8E 2
2 AC JE JP 2C 2E 3
3 AC KO JC JE JP 4
W AC KO JC JE JP 4 3

1 JO TC TO 6C 6E 3
2 QO JO TO 6C 6E 2
3 JC JO TO 6C 6E 3
6 JO TO 9C 6C 6E 2
7 AC TE TO 6C 6E 3
8 JO 6C 6E 5C 5E 3
W JC JO TO 6C 6E 3 3

5 QC TC 9C 8C 2C 6
6 KC TC 9C 8C 7C 6
W KC TC 9C 8C 7C 6 6

1 AC AP KC TC TE 3
2 AE AP KC TC TE 3
3 AP TC TE 9C 9P 3
5 KC QC TC 4C 3C 6
W KC QC TC 4C 3C 6 5

1 AC JP TP 9P 7P 1
W AC JP TP 9P 7P 1 1

2 KC KE JP 5E 5O 3
4 KC JP TC 5E 5O 2
W KC KE JP 5E 5O 3 2

1 QE 8E 8P 5C 5P 3
2 QE QO TO 8O 8P 3
7 QE TO 9O 8P 6E 1
8 AC QE TO 9E 8P 1
W QE QO TO 8O 8P 3 2

1 TE 9O 9P 8C 8O 3
W TE 9O 9P 8C 8O 3 1

2 QC QE QP TC 6E 4
3 AC AE QC QE 6E 3
6 QC QE 9E 4C 4O 3
W QC QE QP TC 6E 4 2

1 QC JO 9O 7C 6C 1
5 AO QC JO 4E 4O 2
W AO QC JO 4E 4O 2 5

1 AC QP TE 2E 2O 2
2 AC TE 9C 9P 4E 2
4 AC TE 9O 7P 4E 1
W AC TE 9C 9P 4E 2 2

2 QO TE 7C 5E 5O 2
3 7C 6C 5E 4E 3C 5
7 JO TE 9C 5E 5O 2
8 TE 5E 5O 4E 4O 3
W 7C 6C 5E 4E 3C 5 3

1 AC TE TO 9E 9O 3
W AC TE TO 9E 9O 3 1

1 7O 6E 5P 4C 3C 5
2 7O 3C 3P 2E 2P 3
6 8P 4C 4E 3C 3P 3
W 7O 6E 5P 4C 3C 5 1

2 QC QP 9E 9P 7O 3
3 QC 9E 9P 2C 2E 3
5 QC 9E 9P 2E 2O 3
W QC QP 9E 9P 7O 3 2

1 AC AP TE TP 6E 3
4 AC QO TP 3C 3O 2
W AC AP TE TP 6E 3 1

1 AE QC 9O 7C 7O 2
7 AE QC 9O 7C 7P 2
8 AE KC QC 9O 7C 1
W AE QC 9O 7C 7O 2 1 7

2 KC KE KO 9C 9P 7
3 KC KO 9P 4C 4O 3
4 KC 8C 6C 4C 3C 6
5 KC TC 6C 5C 4C 6
W KC KE KO 9C 9P 7 2

1 KE QP JO 9C 9P 2
2 QP JO 9C 9E 5C 2
6 QP JO 9C 6O 5C 1
W KE QP JO 9C 9P 2 1

1 8P 7O 5E 5O 5P 4
3 QP 5C 5E 5O 5P 8
4 5E 5O 5P 2C 2O 7
5 5E 5O 5P 2E 2O 7
W QP 5C 5E 5O 5P 8 3

1 KO 7E 7P 2C 2E 3
2 KO JP 8C 8E 7E 2
7 KO JP 9P 8E 7E 1
8 KO QC JP TP 8E 1
W KO 7E 7P 2C 2E 3 1

1 TC TO 9E 4C 4O 3
2 TC TO 6P 4C 4O 3
3 TC TO 9C 4C 4O 3
4 TC TE TO 4C 4E 7
W TC TE TO 4C 4E 7 4

6 AC JC 4C 3C 2C 6
W AC JC 4C 3C 2C 6 6

1 AO TE TP 6C 6O 3
2 AO JO JP TC TE 3
5 AC AO KO JP TE 2
W AO JO JP TC TE 3 2

1 AE AP KE 6O 6P 3
2 AE AP QC 6O 6P 3
3 AE AP 6C 6O 6P 7
W AE AP 6C 6O 6P 7 3

5 9C 8E 7O 6C 5O 5
7 JE TC 9C 8E 6C 1
8 AC JE 9C 6C 6P 2
W 9C 8E 7O 6C 5O 5 5

1 KE QE TO 5C 5E 2
2 QE TO 9P 8C 8O 2
4 QE TO 9E 8C 5E 1
W QE TO 9P 8C 8O 2 2

1 AE AO QP JO TO 2
2 AE QC QP JO 8C 2
6 AE KO QP JO 8C 1
W AE AO QP JO TO 2 1

1 AC QO QP 9O 7C 2
2 9O 8E 7C 6O 5P 5
3 QO TE 9O 7C 7E 2
W 9O 8E 7C 6O 5P 5 2

1 AC AE QO QP 6O 3
2 AC 6C 6O 5O 5P 3
5 AC KO QP 5O 5P 2
7 AC QP 6O 5O 5P 2
8 AC QP 5E 5O 5P 4
W AC QP 5E 5O 5P 4 8

3 JP TE TP 6C 6O 3
4 JP TE 7P 6C 6O 2
W JP TE TP 6C 6O 3 3

1 JP TO 9P 3O 3P 2
2 JP TC 9E 9P 6E 2
6 QO JO JP 9P 6E 2
W QO JO JP 9P 6E 2 6

1 TO TP 8C 6E 6O 3
2 AC TP 8C 5C 5P 2
4 8C 6C 5C 4C 2C 6
5 TP 9O 8C 7O 6E 5
W 8C 6C 5C 4C 2C 6 4

3 AC AE KO 7C 7E 3
W AC AE KO 7C 7E 3 3

1 AC AE KE KO 7E 3
2 AE KC KE KO TP 4
7 AE KE KO 7O 5P 2
8 AE KE KO 7O 5C 2
W AE KC KE KO TP 4 2

1 QE QO JO 9C 9O 3
2 QE QO JE JO 9O 3
5 QC QE QO QP JO 8
W QC QE QO QP JO 8 5

6 9O 4O 4P 2C 2O 3
W 9O 4O 4P 2C 2O 3 6

1 AC TE 9E 8E 6C 1
2 TE 9E 8P 6C 6E 2
4 TE 9E 6C 2O 2P 2
W TE 9E 8P 6C 6E 2 2

1 KE 9O 8C 8O 8P 4
2 8C 8O 8P 5E 5O 7
3 8C 8O 8P 5C 5E 7
4 9O 8C 8O 8P 7P 4
W 8C 8O 8P 5E 5O 7 2 3

3 5C 4P 3C 2O AE 5
5 KC 7C 5C 4C 3C 6
7 AE TP 7C 7O 6O 2
8 AE 7C 7O 5C 5O 3
W KC 7C 5C 4C 3C 6 5

1 KC 9E 9P 6E 6O 3
2 KC JE 9P 6E 6O 2
W KC 9E 9P 6E 6O 3 1

1 AE AO TC 4C 4O 3
2 AE TC 9E 4C 4O 2
3 AE TC 4C 4O 4P 4
6 AE 5C 5O 4C 4O 3
W AE TC 4C 4O 4P 4 3

1 KE QC QE JC JO 3
2 KE QE JC JO TO 2
3 AC KE JC JE JO 4
W AC KE JC JE JO 4 3

1 AE KE QE TE 5E 6
2 AE KE QE TC TE 2
3 AE KE QE TE 9E 6
4 AE KE QE TE 3E 6
5 AE KE QE TE 9C 1
6 AE KE QE TE 2E 6
7 AE KE QE TE 6E 6
8 AE KE QE TE 8E 6
W AE KE QE TE 9E 6 3

1 KC JC JP 5C 5O 3
2 QC JC 9C 5C 2C 6
W QC JC 9C 5C 2C 6 2

1 QO QP TP 7C 6P 2
W QO QP TP 7C 6P 2 1

2 AE 8C 8P 3C 3O 3
W AE 8C 8P 3C 3O 3 2

1 AC KC 8P 5O 5P 2
4 KC KO 8P 7P 6C 2
5 KC JP 8P 7P 5O 1
6 KC JO 8P 7P 5O 1
7 KC QO 8C 8P 7P 2
8 KC 9C 8P 7O 7P 2
W KC KO 8P 7P 6C 2 4

1 KE 8P 6P 2E 2O 2
2 JC 8P 7P 2E 2O 2
3 8C 8P 6P 2E 2O 3
W 8C 8P 6P 2E 2O 3 3

1 KO QP JP 6E 5O 1
2 QE QP 8P 6E 5O 2
4 QP 6E 2C 2E 2O 4
5 6E 5O 4C 3E 2C 5
W 6E 5O 4C 3E 2C 5 5

1 AP KE QE 2C 2O 2
2 AO AP JC JP 4O 3
W AO AP JC JP 4O 3 2

6 TO 9P 7C 6C 5O 1
7 QE TO 9P 2C 2E 2
8 AC TE TO 9P 7C 2
W AC TE TO 9P 7C 2 8

1 KO QP 9O 8P 5E 1
3 KO QC QP 4C 4E 3
W KO QC QP 4C 4E 3 3

1 KC 7E 7P 5O 5P 3
2 AC KC 7C 7E 7P 4
W AC KC 7C 7E 7P 4 2

2 KC KO QO JP 8O 2
4 KC QO JP 8O 8P 2
5 KC QO JP 9P 8O 1
6 QO 8O 7O 6O 4O 6
W QO 8O 7O 6O 4O 6 6

1 AC QP 9C 9E 5O 2
W AC QP 9C 9E 5O 2 1

1 AE QP JC TP 8P 1
2 QP TP 9C 3C 3E 2
5 QP TP 9P 8P 2P 6
7 KC QP TO TP 8P 2
8 QP JP TP 8P 7C 1
W QP TP 9P 8P 2P 6 5

3 AC AO AP 9P 8P 4
5 5O 4O 3O 2O AP 5
W 5O 4O 3O 2O AP 5 5

1 QC QE JO 9E 8C 2
3 AC QC 8C 6C 2C 6
4 QC TC 8C 6C 4C 6
W AC QC 8C 6C 2C 6 3

1 AC AP QO 7O 5E 2
6 AP 5E 5P 4E 4P 3
W AP 5E 5P 4E 4P 3 6

2 AC AO QE TP 7E 2
W AC AO QE TP 7E 2 2

1 KC KE TC 3O 3P 3
2 KC KE JC 3O 3P 3
3 KC KE 9C 9E 6O 3
7 AO KC KE 3O 3P 3
8 KC KE QC 3O 3P 3
W KC KE 9C 9E 6O 3 3

1 JO 9O 8P 7C 6O 1
3 JO 7C 7E 2C 2P 3
W JO 7C 7E 2C 2P 3 3

2 AC QE TO 4O 4P 2
4 AC TO 9C 9P 7P 2
5 AC TO 9C 7P 6C 1
W AC TO 9C 9P 7P 2 4

1 AC AP JO JP TO 3
2 AC AP KC TC TO 3
3 AC AP JO TE TO 3
6 AC AP JC JO TO 3
W AC AP JO JP TO 3 1 6

1 QC QE QO TP 5O 4
3 AC QC QE QO TP 4
4 QC QE QO TE TP 7
W QC QE QO TE TP 7 4

2 AE AP QO 9E 5C 2
5 5C 4P 3O 2E AE 5
7 AE 9E 8O 4O 4P 2
8 AE 9E 7P 4C 4P 2
W 5C 4P 3O 2E AE 5 5

1 KC QC 9O 7E 7O 2
3 9O 7O 5O 4O 3O 6
W 9O 7O 5O 4O 3O 6 3

1 KC TC 8C 5C 2C 6
2 KC TC TO 2C 2O 3
6 KC QC TC 8C 2C 6
W KC QC TC 8C 2C 6 6

2 KC QE QO JO TO 2
W KC QE QO JO TO 2 2

1 TC TP 9C 6P 5E 2
4 TC 9C 7C 2C 2O 2
W TC TP 9C 6P 5E 2 1

1 KC QO 6C 6E 6P 4
2 QC QO 6C 6E 6P 7
3 AE QO 6C 6E 6P 4
4 QO JE 6C 6E 6P 4
5 JC JE 6C 6E 6P 7
7 KO QO 6C 6E 6P 4
8 QE QO 6C 6E 6P 7
W QC QO 6C 6E 6P 7 2 8

2 AO 8E 7C 4E 4O 2
3 AO AP 8E 7C 7E 3
W AO AP 8E 7C 7E 3 3

1 AE KC KO QC QE 3
6 AE KO QC QO TP 2
W AE KC KO QC QE 3 1

1 KC KE KO JP 9C 4
2 KC 9C 6C 5C 2C 6
3 KC KE KO 6C 6O 7
4 KC KE KO 9C 8E 4
6 KC KE KO 9C 9P 7
W KC KE KO 9C 9P 7 6

2 KO 6E 6O 3C 3P 3
3 KO 6E 6O 3C 3P 3
5 6E 6O 3C 3O 3P 7
W 6E 6O 3C 3O 3P 7 5

1 JC JO JP 9P 6E 4
4 JC JO JP 6E 5E 4
5 JC JO JP 7E 7P 7
7 JC JO JP 6E 6O 7
8 AC JC JO JP TP 4
W JC JO JP 7E 7P 7 5

1 AO QP TC 6C 6E 2
2 QP TC 6C 2C 2O 2
W AO QP TC 6C 6E 2 1

2 TE 9O 9P 8P 7P 2
W TE 9O 9P 8P 7P 2 2

1 AO TC TO 9O 7C 2
W AO TC TO 9O 7C 2 1

1 QE QO TC 5E 5P 3
2 AE QC QO 5E 5P 3
6 AO QO TC 5E 5P 2
W AE QC QO 5E 5P 3 2

2 QO QP JE JP TE 3
3 QP JE JP TE 9O 2
4 AO QP JE JP TE 2
7 QP JE JP TE 8C 2
8 QP JE JP 3E 3O 3
W QO QP JE JP TE 3 2

1 AC KE QE QO 8P 2
5 AP 8P 6P 4P 3P 6
W AP 8P 6P 4P 3P 6 5

1 KO QP TP 4E 4P 2
2 AC KO TP 8O 8P 2
W AC KO TP 8O 8P 2 2

2 AO QC QO JO TP 2
7 QC QO QP 9C 9E 7
W QC QO QP 9C 9E 7 7

1 AO 6E 6P 5O 5P 3
3 AC AO JP 5O 5P 3
6 AO JC 9E 5O 5P 2
W AC AO JP 5O 5P 3 3

1 AO QE TC 7O 7P 2
2 QE QP TC TO 7O 3
3 QE QO TC TP 7O 3
4 QE JC JP TC 7O 2
8 QE TC 9E 7O 5C 1
W QE QP TC TO 7O 3 2 3

2 AC AO QO JO 9C 2
5 AC QO JO TC TP 2
W AC AO QO JO 9C 2 2

1 AC JP TE 9E 5O 1
4 AC JE JO JP 5O 4
5 AC KC 6C 4C 2C 6
W AC KC 6C 4C 2C 6 5

1 KO QE QO TP 9E 2
7 KC KO QE JC TP 2
W KC KO QE JC TP 2 7

2 AC QC 4C 4O 4P 4
3 QC JP 4C 4O 4P 4
4 8E 8P 4C 4O 4P 7
6 QC 9P 4C 4O 4P 4
W 8E 8P 4C 4O 4P 7 4

1 AC AP KC TC 9E 2
2 AP TC 9E 5C 5O 2
8 AP TC 9C 9E 9P 4
W AP TC 9C 9E 9P 4 8

1 TC TP 8P 7O 6P 2
W TC TP 8P 7O 6P 2 1

2 AE AP KC 7E 7P 3
3 AC AP JC 7E 7P 3
W AE AP KC 7E 7P 3 2

1 QP JO 9C 9E 7O 2
2 QC QP JP 9E 7O 2
5 QP JE 9E 9O 7O 2
7 AP QP 9E 5C 5O 2
W QC QP JP 9E 7O 2 2

1 9O 8E 7E 6C 5O 5
3 QO 8E 5E 5O 5P 4
4 JE JO 8E 5O 5P 3
6 AE KE 8E 5O 5P 2
W 9O 8E 7E 6C 5O 5 1

3 9C 9P 8O 7O 7P 3
5 9P 8O 7O 6E 5P 5
8 AC KE 9P 8O 7O 1
W 9P 8O 7O 6E 5P 5 5

1 KO JO 9O 3O 2O 6
2 KE KO TC 3C 3O 3
W KO JO 9O 3O 2O 6 1

1 TE 7C 7P 2C 2O 3
2 TE TP 7C 7P 4P 3
W TE TP 7C 7P 4P 3 2

3 AO KE KO TO TP 3
4 AO KO TO 5O 3O 6
7 AO KO JO TO 4O 6
W AO KO JO TO 4O 6 7

1 AC AE AP QE JE 4
2 AC AP QE JE 9C 2
3 AC AP QE 9C 9P 3
6 AC AP QE JE 9C 2
W AC AE AP QE JE 4 1

1 AO AP KO 8P 7C 2
2 AP KC KO 9P 7C 2
5 AP KO JC JO 7C 2
8 AP KO QO 8C 7C 1
W AO AP KO 8P 7C 2 1

1 QE TC TO 8C 7P 2
2 QC QE JC TO 8C 2
W QC QE JC TO 8C 2 2

1 AP KC 9C 8C 7P 1
3 AP KC KO 9C 9E 3
4 AP KC TP 8C 8E 2
7 KC 9C 8C 3C 2C 6
W KC 9C 8C 3C 2C 6 7

2 KE QE 6E 5E 4E 6
3 AE QE 7E 6E 5E 6
4 QE 9E 8E 6E 5E 6
6 QC QE 7P 5E 5P 3
W AE QE 7E 6E 5E 6 3

1 JC JO TP 2C 2P 3
2 JC JO TP 2C 2P 3
5 JC JO 2C 2O 2P 7
7 JC JO 2C 2E 2P 7
8 AE JC JO 2C 2P 3
W JC JO 2C 2O 2P 7 5 7

1 QC 8C 8E 6C 6P 3
3 QC 8E 8O 5C 5O 3
W QC 8C 8E 6C 6P 3 1

1 AO AP KE QC QE 3
2 AO AP KE QC 7P 2
W AO AP KE QC QE 3 1

1 AE QP 9O 2E 2P 2
2 AE QP TC 9C 9O 2
6 AE QC QP 9O 7O 2
W AE QC QP 9O 7O 2 6

3 KC 7C 5C 4C 2C 6
4 KC 5C 5P 2C 2P 3
5 KC QC 6C 5C 2C 6
7 KC 5C 5P 2C 2P 3
8 5C 5O 5P 2C 2P 7
W 5C 5O 5P 2C 2P 7 8

1 TO 9E 9O 7E 6P 2
2 AC 9E 9O 5C 5P 3
4 9E 8O 7E 6C 5P 5
W 9E 8O 7E 6C 5P 5 4

1 KO JO 9C 2C 2P 2
2 JO 9C 7O 2C 2P 2
W KO JO 9C 2C 2P 2 1

4 JE TE 9E 8O 7P 5
W JE TE 9E 8O 7P 5 4

1 QC JO 8O 4C 4P 2
2 JO 5O 5P 4C 4P 3
6 JO 6O 6P 4C 4P 3
W JO 6O 6P 4C 4P 3 6

1 AO QC TE 9O 7O 1
2 QC TE 9E 9O 7O 2
3 QC JC TE 9O 7O 1
5 QC TC TE 9O 8E 2
6 KO QO 9O 7O 4O 6
7 QC QP TE 7E 7O 3
8 QC TE 9O 4E 4O 2
W KO QO 9O 7O 4O 6 6

3 AE AO KE 7E 7O 3
W AE AO KE 7E 7O 3 3

1 KC KO JE JO 3C 3
2 KC KO QP JO 4P 2
W KC KO JE JO 3C 3 1

1 AO KC KO QP 8P 2
2 AO KO 8P 4O 4P 2
4 AO KO 6O 4O 3O 6
W AO KO 6O 4O 3O 6 4

3 AO AP KO 7C 7E 3
W AO AP KO 7C 7E 3 3

1 KC TE 8O 5C 5E 2
2 AC KC TC 5C 3C 6
5 KC KE TE 5C 5E 3
7 KC 5C 5E 3C 3P 3
8 KC TE 5C 5E 4P 2
W AC KC TC 5C 3C 6 2

1 AC JE JO 4E 4P 3
2 AC JE JO 4E 4P 3
3 AC JE JO TE TP 3
6 JE JO 4E 4O 4P 7
W JE JO 4E 4O 4P 7 6

1 AC AE 8E 8O 4O 3
2 AC AE 9E 8O 4O 2
3 AC AE TE 4O 4P 3
4 AC AE QP 8O 4O 2
W AC AE 8E 8O 4O 3 1

1 QE QP 9E 8C 5E 2
2 AE QE 9E 8E 5E 6
W AE QE 9E 8E 5E 6 2

5 AC KC QE JC 9O 1
7 AC KC KO QE 9O 2
8 AC KC QE JE 9O 1
W AC KC KO QE 9O 2 7

1 AP 5E 5O 4E 4P 3
2 AP KO QP 4E 4P 2
4 AP QP 4C 4E 4P 4
6 AP QC QP 4E 4P 3
W AP QP 4C 4E 4P 4 4

1 AC AO QP TE 9C 2
2 AC AO 9C 4C 4E 3
W AC AO 9C 4C 4E 3 2

3 AP JO TC 3C 3E 2
4 AP KO QC JO TC 5
W AP KO QC JO TC 5 4

1 QE JE JP TO 7E 2
2 QE JE JP 5C 5O 3
3 JE JO JP 6E 6O 7
W JE JO JP 6E 6O 7 3

1 AO KC QO 7C 7O 2
2 AO QO 7C 7O 7P 4
5 AO QO JC 7C 7O 2
7 AO QC QO 7C 7O 3
8 AC AO QO 7C 7O 3
W AO QO 7C 7O 7P 4 2

6 AO QP JC 6C 6O 2
W AO QP JC 6C 6O 2 6

1 AP JE 9C 8C 8E 2
2 AC 9C 8C 7C 2C 6
3 9C 8C 7C 4C 3C 6
W AC 9C 8C 7C 2C 6 2

1 AC AE KO QE JE 2
2 AC KC QE JE TP 5
4 AC AE AP QE QP 7
W AC AE AP QE QP 7 4

1 KO JO TE 7E 7O 2
5 KO JO 7O 5O 2O 6
6 KO JO 9O 7O 5O 6
7 KO JO 9E 5E 5O 2
8 KO QO JO 7O 5O 6
W KO QO JO 7O 5O 6 8

1 KC 9C 6C 6E 6P 4
2 KC KO 9C 6C 6E 3
3 KC 6C 6E 4C 4O 3
W KC 9C 6C 6E 6P 4 1

1 AP TE TO 5O 5P 3
2 AP TE TO 2C 2E 3
4 AP TE TO 2E 2P 3
W AP TE TO 5O 5P 3 1

1 AC 9O 6C 3E 3P 2
4 6C 5C 4C 3E 2P 5
W 6C 5C 4C 3E 2P 5 4

2 JC TC TP 8P 7C 2
5 TP 9O 8P 4C 4O 2
6 TP 8P 7C 6O 6P 2
7 QO TP 8P 7C 5E 1
8 TP 8P 7C 7O 7P 4
W TP 8P 7C 7O 7P 4 8

1 KC QC TE TO 9E 2
2 KC QC TE 7E 7O 2
3 KC QC TE 6C 6P 2
W KC QC TE TO 9E 2 1

1 AE AP 9E 9O 7C 3
3 AC AP 9E 9O 7C 3
W AE AP 9E 9O 7C 3 1 3

2 QP 8C 8P 4C 4P 3
5 8C 7O 6C 5E 4P 5
W 8C 7O 6C 5E 4P 5 5

1 7O 6C 6O 4E 4P 3
2 KO 7O 5O 4E 4P 2
4 7O 7P 4E 4O 4P 7
W 7O 7P 4E 4O 4P 7 4

1 KO 6C 6P 3C 3P 3
3 KE KO QC 6C 6P 3
6 KO QC TE 6C 6P 2
7 AC AE KO 6C 6P 3
8 KO QC 6C 6P 5C 2
W AC AE KO 6C 6P 3 7

2 AC AP JO 7P 5P 2
3 AP QP 7P 5P 4P 6
5 5P 4P 3P 2P AP 9
6 AP 7P 6P 5P 4P 6
W 5P 4P 3P 2P AP 9 5

1 KC 8C 8P 7O 6C 2
2 KC JE 8C 8P 7O 2
W KC JE 8C 8P 7O 2 2

1 KC QC JP 8P 7E 1
3 QC JE JP 8C 8P 3
W QC JE JP 8C 8P 3 3

2 AC QC 5C 4C 3C 6
3 QC QO TC 4C 4O 3
4 AO KE QC QO 4C 2
5 6C 5E 4C 3C 2P 5
W AC QC 5C 4C 3C 6 2

1 KC QP TC 9O 4O 1
2 AC KC TC 3C 2C 6
4 KC JC TC 3C 2C 6
5 KC TC 6C 3C 2C 6
6 KC QC TC 3C 2C 6
7 KC QP TC 3C 3O 2
8 KC TC 5C 3C 2C 6
W AC KC TC 3C 2C 6 2

1 QP JO JP 9O 7C 2
W QP JO JP 9O 7C 2 1

2 JC TE 9E 8E 7C 5
3 AC 9E 9O 2C 2O 3
W JC TE 9E 8E 7C 5 2

1 AC AO QE TP 8E 2
W AC AO QE TP 8E 2 1

1 AP QC 9C 8O 7C 1
W AP QC 9C 8O 7C 1 1

2 AC JC 7C 5C 2C 6
4 AC JC 9C 5C 2C 6
6 AC JC JP TP 5C 2
7 5C 4P 3P 2C AC 5
8 AC QE JC TE 5C 1
W AC JC 9C 5C 2C 6 4

1 AC JO JP 3O 3P 3
2 AO JO TO 8O 2O 6
3 JO JP TO 3C 3P 3
5 JO JP TO 9C 8O 2
W AO JO TO 8O 2O 6 2

1 7O 6E 5P 4E 3E 5
3 AE AP 7P 4C 4E 3
4 7P 6P 5P 4E 3E 5
5 AP 9P 7P 5P 3P 6
W AP 9P 7P 5P 3P 6 5

2 KE TE TO 4E 4O 3
W KE TE TO 4E 4O 3 2

1 KC KO 8C 8E 8O 7
2 KO JE 8C 8E 8O 4
3 KO 8C 8E 8O 5E 4
4 8C 8E 8O 5E 5P 7
8 KO 8C 8E 8O 8P 8
W KO 8C 8E 8O 8P 8 8

1 KE JP 9O 6O 5P 1
6 7O 6O 5P 4O 3C 5
7 KE JP 7C 3C 3O 2
W 7O 6O 5P 4O 3C 5 6

2 9C 8C 8O 6C 6O 3
3 9C 9E 9O 6C 6O 7
4 9C 6C 6E 6O 5P 4
W 9C 9E 9O 6C 6O 7 3

1 8O 8P 7E 6E 4E 2
2 AE 8P 7E 3E 3P 2
W 8O 8P 7E 6E 4E 2 1

1 AP QO TO 3E 3O 2
5 AP KO TO 3O 3P 2
W AP KO TO 3O 3P 2 5

2 JC TO 9E 6O 6P 2
3 9E 7E 7O 6O 6P 3
5 9E 8C 7O 6O 5E 5
8 9E 8E 7O 6O 5E 5
W 9E 8C 7O 6O 5E 5 5 8

1 QE JC TC 8O 6E 1
6 QE TC 9O 8O 6E 1
7 QC QE TC 8E 8O 3
W QC QE TC 8E 8O 3 7

1 KC 9C 9O 9P 6P 4
2 9C 9O 6P 5E 5O 3
3 AO 9O 7O 4O 2O 6
4 TE 9C 9O 7C 6P 2
W AO 9O 7O 4O 2O 6 3

2 AC KE KO QP TP 2
3 AC AP KE KO QP 3
W AC AP KE KO QP 3 3

1 QP 5O 5P 3C 3P 3
W QP 5O 5P 3C 3P 3 1

1 KC KE 9E 7C 5O 2
8 KE JP 9E 7C 5O 1
W KC KE 9E 7C 5O 2 1

2 AC AP TP 9C 9E 3
3 TP 9C 8E 7C 6P 5
5 TO 9C 8E 7O 6P 5
6 JO JP TP 9C 9E 3
7 TP 9C 9E 6E 6P 3
W TP 9C 8E 7C 6P 5 3 5

1 AO QC QE TP 6C 2
2 AO KE QC QE TP 2
4 AO KC QC QE TP 2
6 AE AO QC QE QO 7
W AE AO QC QE QO 7 6

1 AC QC 9E 8E 7P 1
W AC QC 9E 8E 7P 1 1

2 KE QE 3C 3E 3O 4
4 KE JP 3C 3O 3P 4
W KE QE 3C 3E 3O 4 2

1 AO KO 8E 2E 2O 2
2 AC AO KO 3C 3P 3
8 AO KO QC 8C 8E 2
W AC AO KO 3C 3P 3 2

1 KE QC 9P 6E 6O 2
3 QC JC 9P 6E 6O 2
5 KO QC 9P 6E 6O 2
7 QC 9P 7E 6E 6O 2
W KE QC 9P 6E 6O 2 1 5

1 2.11E-02
2 2.21E-01
3 2.68E-01
4 7.89E-02
5 1.16E-01
6 1.68E-01
7 1.05E-01
8 1.58E-02
9 5.26E-03
10 0.00E+00

2 45.50
1 42.00
3 30.50
5 21.00
4 18.50
6 16.00
7 8.50
8 8.00
