KE QE 8P 6E 5O 1
6O 5C 4C 3O 2O 5
AP KO 6C 6P 4E 2
AC AO QP JE TE 2
QC 9C 9E 7O 7P 3
TC TO 9O 9P 8C 3
KC QO JC JP 5E 2

JO 9E 6C 6E 6P 4
KC TO TP 7C 7P 3
AC KO QP 8C 8O 2
AP JE 9C 2O 2P 2
QE JC 9O 5E 5O 2
AE QC JP 3E 3O 2
AO KE 6O 4E 4O 2

AO QC JC JO 8O 2
AP QE TE 7P 4P 1
KO QO 9E 9P 8P 2
AC AE QP TC TP 3
KC KE 8E 5C 4C 2
TO 9C 8C 7C 6C 5
9O 5E 5O 4E 4O 3

KO QP 9O 9P 7E 2
KC JO JP TO TP 3
AC AE QC QO TC 3
AP JC 8O 6E 4O 1
9C 8E 7O 5P 4P 1
9E 8P 7C 6P 5E 5
AO KE QE JE TE 5

KE TO 9O 3E 3O 2
AO AP QC QP JC 3
AC JO TC 9E 9P 2
5E 4O 3C 2O AE 5
JE 7O 6E 6O 5O 2
QE QO TE 8C 8O 3
TP 6P 5P 4P 3P 6

AE KC KE JC 9O 2
AC QE 9P 6C 6O 2
AO AP QP 8O 8P 3
QC TO 6E 4C 4E 2
QO JO TP 6P 5P 1
KO JE TE 8E 7E 1
JP 8C 7C 7P 4O 2

AC AP QO 6E 6O 3
KO JC JE 2C 2P 3
QC 9C 7C 4C 3C 6
QE TC TP 6P 4P 2
AE KC KE TO 9O 2
7E 7O 5O 5P 4E 3
AO QP 9E 9P 8E 2

QP 9E 9O 7C 7P 3
JC 8E 8O 3E 3O 3
AC KE KO QC TE 2
QE 6C 6P 5C 5P 3
AO JP TP 6E 4C 1
AE KC TC 9C 8C 1
QO 5E 5O 4E 4P 3

AO QE QO 9P 8P 2
AE KE JO 9E 8O 1
AP TE TP 3E 3O 3
KO QP JP 4O 4P 2
AC 9O 8E 7E 7O 2
JE TO 9C 5O 5P 2
JC TC 7C 5C 4C 6

KC TE TO 6C 6E 3
QC 7C 7E 4C 4O 3
AO JE 5C 5E 5P 4
AP KO QE TC 8C 1
AC AE KE 9E 6O 2
JC TP 9O 2C 2E 2
9P 8P 7P 6P 3P 6

8P 7C 7O 3C 3E 3
AE TE TO 9O 9P 3
AC QC QP TC 9C 2
KC 8C 5C 4C 2C 6
9E 8E 7E 5E 2E 6
AO QE QO JE 6C 2
5P 4P 3P 2P AP 9

KC QC JC TP 9O 5
AE KE JP TE 8O 1
AC 8E 8P 4O 4P 3
AO TO 6C 3C 3P 2
QE JO TC 2C 2P 2
KO QP 9C 9P 7C 2
AP 9E 7P 6O 6P 2

9P 6O 6P 5C 5P 3
AO JO 7E 3E 3P 2
AC KE QC 9E 9O 2
AE QO JC 8E 7O 1
AP KC KO TE 8O 2
QE 4E 4P 2C 2P 3
QP JE JP TP 7P 2

AE TO 6E 3E 3O 2
AO JE JP TC 8C 2
AC KO JO TE 9E 1
QE 6C 6O 4O 4P 3
KE QC QP 2C 2O 3
QO 9C 9P 7O 7P 3
AP 8P 5P 3P 2P 6

AE QE QO JC 6C 2
AO JO TE 4C 4O 2
AC JE TO 6E 6P 2
KE 9P 8O 5C 5O 2
AP TC TP 9O 8P 2
KO 8C 8E 2E 2P 3
KC QP JP 7C 7O 2

KC QC JP 8E 7E 1
AP QP TC 6O 5O 1
AE TE 9E 8O 7O 1
TP 9O 9P 6P 4C 2
AC 5C 5E 3C 3P 3
KO QO JE TO 9C 5
QE 8C 8P 7C 7P 3

QO TO 9O 6O 3O 6
AC JP 7O 6E 5E 1
KO QE 9E 4E 4O 2
AO AP KC 8E 8O 3
KE QP JO 4C 4P 2
8P 7P 6P 5P 3P 6
AE QC TC TE TP 4

AC AE QO JP 8P 2
KO QP TP 3C 3E 2
JC 9O 7P 5C 5O 2
AP KE TC 9C 8C 1
9P 8E 7E 6E 5E 5
KC QE TE TO 9E 2
AO JO 6O 4O 3O 6

AE KO JC 2C 2E 2
AC AP JO 5C 5P 3
QC JE JP TC TE 3
AO QO QP 8O 7C 2
KE 7E 6E 5E 4E 6
QE 9C 9E 9P 4C 4
TO 9O 7P 4O 4P 2

QO JC TC 9E 7E 1
AC QP TE 8C 8E 2
JO 6C 6E 5C 5E 3
AP KE KO QE JE 2
AE KC QC 9O 7C 1
AO 8O 6O 3O 2O 6
9P 7O 7P 4E 4O 3

AC AP KC QC QP 3
JE TE TO TP 9C 4
KE QE JP 7O 7P 2
AE AO JC 2O 2P 3
JO 4E 4O 3C 3E 3
9E 8E 7E 6E 5E 9
KO 9O 8O 6O 5O 6

AC AE JE 9C 9P 3
QC QE QO 2C 2E 7
AP KC JO TC TE 2
AO 3E 3P 2O 2P 3
TP 8E 8O 6E 6P 3
JC JP 9O 7C 7E 3
8P 7P 6O 5O 4P 5

JP TC 9C 9P 8P 2
QO QP JC 8E 7C 2
AC TP 8C 3C 3O 2
KC QC 6C 5C 4C 6
AE 7E 7O 2E 2P 3
AO QE JE 6O 6P 2
JO TO 9O 4O 2O 6

KE 9O 8P 7E 6E 1
AO JE TE TO 9E 2
JC JO JP 5E 5O 7
AC KO QE QO TP 2
AP QC 7P 2C 2P 2
QP 8C 8O 7O 6C 2
9C 8E 7C 6P 5C 5

QO TE 8E 8O 7E 2
KE JE 9O 9P 6E 2
AC QE TO 9E 8P 1
AO KO JO 7O 3O 6
AP QC 9C 6O 5O 1
QP JP TP 7P 2P 6
AE JC 8C 7C 6C 1

AC KO 9C 9P 5O 2
AE AP KE JC TC 2
TE TO 9O 8C 8O 3
KC JO TP 3C 3O 2
QE QO JE 6P 5C 2
AO QC 7P 4O 4P 2
QP JP 8P 7C 7E 2

AC AE QP TC 9P 2
9C 9E 8P 3O 3P 3
AO QC QE 4O 4P 3
KO JC 8C 7O 6O 1
KC KE TE 2E 2P 3
JE JP TP 7E 6P 2
QO JO TO 9O 5O 6

KO TO 9O 5E 5P 2
AO QE QO 7E 5C 2
QC JO 8E 7C 6C 1
AP TE 9E 2E 2P 2
KE JE TC 9C 6O 1
AC 8O 8P 7O 7P 3
AE KC QP JP TP 5

QP 9C 9P 2O 2P 3
KO JO 9O 6E 5E 1
AC AP QO TE 4E 2
QC 9E 8E 5C 5O 2
KE QE JC JE TC 2
AO TO 7O 6O 3O 6
AE KC JP 7C 6P 1

KO QO JC 8P 6C 1
AP JO TO 9C 6P 1
AC AO TE 5E 5O 3
5P 4P 3P 2P AE 5
KC QE TC TP 9P 2
KE JP 7E 6E 6O 2
QP 9E 8E 8O 7O 2

9O 8O 8P 4E 4P 3
AO 7C 7P 6E 6P 3
TE TO 9C 9E 9P 7
KE QE JE 8E 7E 6
AE QP JP 2O 2P 2
KO QO JO 6O 5O 6
KC TC 8C 4C 3C 6

AO KO TC 2E 2P 2
AP JO JP TP 9E 2
7O 6C 6E 3C 3P 3
QP JC TO 5E 5O 2
QE 9O 9P 6O 6P 3
AC KC QC 7C 5C 6
AE JE TE 8E 3E 6

AO QP JO 5O 5P 2
JC 8E 7E 7P 6O 2
QC 9E 9P 6E 6P 3
AC KC JE TE 9O 1
QE QO JP TO TP 3
AP KE KO 8C 7C 2
AE TC 9C 3E 3P 2

AP QO JC TE 8P 1
AO QP JE 8E 5E 1
AC TP 9E 6E 4C 1
AE KC QE JP 7C 1
KO TO 9O 5C 5P 2
KE 8C 8O 5O 4P 2
QC JO 9P 7E 7O 2

JC TC 9E 5C 5E 2
QE TE 8C 6C 6O 2
AE KC QC 9O 7C 1
KO 8O 5O 4O 3O 6
AP TO TP 2E 2P 3
QO JP 8E 4E 4P 2
AC KE QP JE 5P 1

KE 9C 8C 7P 5C 1
AC JP TC TP 9O 2
KC KO 9E 9P 6C 3
AE QP JO TO 7C 1
QC QO JC 2E 2O 3
AP TE 8E 7E 7O 2
AO QE JE 8O 6P 1

AE AP KE 9E 9P 3
6O 5P 4C 3E 2P 5
QP JO 9C 5C 5E 2
JC JE TC TE 6C 3
AC KC QE QO TO 2
AO 8P 6E 3C 3O 2
KO 8C 8O 7C 7O 3

AO QP TC 8P 7O 1
AE KE JC 4C 4P 2
KC 6C 5E 5O 5P 4
QC JE 9E 9P 7C 2
AP TO 9C 4E 4O 2
QE JO TP 7E 7P 2
KO QO JP TE 9O 5

QP 9E 8E 3O 3P 2
AC AP KE 4O 4P 3
AO QE JC TE TO 2
JO 8O 8P 5C 5O 3
TC 7C 6C 4C 3C 6
KO QC QO JP 9C 2
AE KC 9P 7P 6P 1

AP 8C 7P 6P 5C 1
9P 8P 5P 4P 2P 6
KO QC JP TP 8E 1
AC QP TE TO 7O 2
AE KC 9E 9O 6C 2
JC JE TC 9C 7C 2
AO KE QE 8O 6O 1

9C 9E 7P 3E 3O 3
QC JC JE TE 8P 2
KC TC TO 4C 4O 3
AC AE 7C 2C 2E 3
QE 9O 9P 7O 6E 2
AP KO QO JO TP 5
QP JP 8E 7E 5E 1

AE AP 8P 2C 2E 3
AC 6E 6O 3C 3O 3
KE QE JC 9O 4C 1
KC KO TE 7C 7E 3
QC JE TC TP 8E 2
AO JP 9E 7O 7P 2
QP JO TO 8C 8O 2

JO TC TP 7O 6C 2
AC KE KO 9E 9P 3
AO JP TE 3C 3P 2
QC JC TO 4C 4O 2
AE 8C 8O 5C 5O 3
AP KC QO 9C 7C 1
8E 7E 6E 5E 4P 5

9C 6C 5C 4C 3C 6
JC JO TC 9P 7C 2
AE AP QC QO 8E 3
AO KC TP 9O 7P 1
AC QP JP 9E 8C 1
JE TE 6E 5E 4E 6
QE TO 8O 2C 2O 2

AO QO 9E 7O 6E 1
AC JE TC 8E 7E 1
KE 5E 5O 3O 3P 3
KO QC QE JC TE 2
KC TO TP 9O 8O 2
5C 4P 3E 2E AE 5
QP JP 9P 8P 7P 6

9C 9E 9P 8E 8O 7
AC AP TP 6C 6P 3
QE TO 8C 6E 6O 2
AE AO TC 2O 2P 3
JC JP 9O 3C 3P 3
KC KO QC QO JO 3
QP JE 8P 5P 4P 1

AC AO QC TO 7E 2
KO TP 7C 6E 4E 1
AE QP JO JP 8C 2
JC 5C 5E 4O 4P 3
KE JE 9E 9O 8O 2
AP QE QO TC 9C 2
KC TE 8E 6O 6P 2

AO TE TP 3E 3P 3
AE KE QP JE JP 2
AC KC 2C 2E 2O 4
JC TC 9E 3C 3O 2
QC 9P 8E 5E 5O 2
TO 9O 8O 7E 6C 5
AP KO QO JO 9C 1

AC QP TE 8E 7E 1
6P 5O 4C 3E 2C 5
QO 9O 7C 5C 5P 2
KE TO 9E 8C 8O 2
AO KC QE JE 9P 1
JO TC 9C 6C 5E 1
AE AP KO QC JP 2

AE QO 9E 9P 8P 2
KO JP TO 6E 4E 1
AC QP 5E 5O 5P 4
AO TE 7C 7P 6P 2
AP JC TP 8C 8E 2
TC 9C 5C 4C 3C 6
KC QC QE JE 9O 2

KC TP 7E 7O 7P 4
AE JO JP TE 8E 2
AC AO QP 6C 6O 3
9P 7C 6P 3C 3O 2
KE QO 9C 8C 8O 2
QC 4E 4P 3E 3P 3
AP KO TO 9E 9O 2

AE TC TO TP 9E 4
KO QO JO 9O 8O 6
JP 9P 6E 2C 2O 2
AC QC QP 7P 6C 2
8P 7C 5C 5E 5P 4
KC JC 9C 8C 8E 2
KE QE JE TE 4E 6

6O 5P 4E 3C 2C 5
KE QP 9O 7O 6C 1
8C 7C 6E 5C 4C 5
KO QC JC TC 9C 5
AP KC QO JE 8O 1
AE 8E 7E 3E 2E 6
AO QE JP 9E 9P 2

KO QE QO 9C 9P 3
7C 6O 5E 4P 3E 5
AC AO 7E 7O 5P 3
JO TC TP 8O 5O 2
KE QC JC 9O 8E 1
AP KC TE 9E 8P 1
JE TO 7P 6P 4C 1

AC KC QO JO TP 5
QC QE JE 4C 4E 3
AE KE KO 7O 5C 2
AP TE 9C 6O 6P 2
AO 8O 8P 7P 6C 2
JC 9P 8C 2E 2O 2
QP JP 9E 6E 5E 1

AC JE TE 8C 8E 2
KO QC QP TC 8O 2
AP QE QO JO TO 2
TP 7P 4P 3P 2P 6
AO JP 9P 8P 6E 1
KC JC 7C 6C 3C 6
AE 9E 4E 3E 2E 6

AC AO QC QO JC 3
KE JE 9O 8P 7P 1
KC 4O 4P 3C 3P 3
JO 9E 9P 8E 6P 2
KO JP TE TO TP 4
QE QP 9C 6C 6O 3
AE AP TC 8C 7O 2

AC QC TP 8E 8P 2
AO KC QE 7P 6P 1
QO JP TE 9E 6C 1
QP 9P 8O 2C 2E 2
5C 5E 5P 4C 4O 7
KO JC JE 9C 8C 2
KE TC TO 9O 7O 2

AO KE 7C 5C 5O 2
AE QP JC TP 7P 1
9O 8C 8O 8P 7O 4
QC JO TO 9P 4E 1
AC QO JP 9C 6C 1
AP KC KO 3E 3P 3
TE 9E 8E 7E 6P 5

KC TP 6C 4C 4P 2
AE QE 7C 7O 6O 2
AP QP JE JP 8C 2
TC 8E 8O 2E 2P 3
QC JC TO 9O 8P 5
KO JO 9P 7P 6P 1
7E 6E 5E 4E 3E 9

KO QC JC JE 9E 2
QE QO 9C 5E 5P 3
AC KC JO 6E 6O 2
AE AO AP 2O 2P 7
KE TC TE 7E 6P 2
TP 8O 7O 7P 5O 2
QP JP TO 9O 8P 5

AO TP 9E 2C 2E 2
KC 7P 6O 3O 3P 2
AC TC 7C 5C 4C 6
QP TO 9O 5E 5P 2
KO 8C 6C 6E 4E 2
KE QC JC TE 9C 5
AP JE JP 9P 8E 2

AP 9C 9P 6E 6P 3
AC JP TC TP 7E 2
QO QP 8C 6C 5O 2
QE JC JO 8P 5P 2
AE KC QC 7C 7P 2
KE TE 9E 5E 3E 6
KO JE 7O 6O 4E 1

QC JE TO 9P 8E 5
JP TC TP 9C 9O 3
KE JC JO 5E 5P 3
AO KC KO TE 9E 2
AE 8C 8O 3C 3O 3
QP 7P 5C 4E 4O 2
AP 7E 7O 6E 6O 3

TC TO 5C 5E 5O 7
AC 9P 8C 2E 2P 2
AE KE QE TE 8E 6
AO JE 7P 2C 2O 2
JP TP 8P 4E 4O 2
KO QO JO 9O 8O 6
AP QP 6P 5P 4P 6

AP KC TC 8C 8P 2
AC AE 9E 8O 6C 2
KO JE 9P 2O 2P 2
TP 9O 8E 7E 4E 1
KE JC JP TO 7C 2
AO QC TE 9C 6P 1
QE QP JO 3E 3O 3

KC TE 9C 6E 5O 1
AC AE KO 8O 8P 3
QC JC JP 9P 7E 2
QP JO TC 6C 6O 2
AO QE 8E 4C 4O 2
TO TP 9E 8C 4E 2
AP KE QO 5E 5P 2

KO QO QP 9E 9O 3
AP KC QC TC TO 2
AE TP 7C 2E 2P 2
8O 8P 7P 5C 5E 3
AC JP 9P 6E 4P 1
JE JO 9C 4C 4E 3
KE QE TE 8E 7E 6

AC AE TC 8O 8P 3
KE 8E 7P 2C 2O 2
QO 7C 7O 3C 3O 3
QC QE 9C 9O 9P 7
AO KC KO JO TP 2
QP JC JP 6P 5C 2
AP TE TO 7E 5E 2

AC KO JC 5E 5P 2
QO JO JP 3C 3O 3
KC 9C 8P 7O 7P 2
TC 9E 8E 7C 6O 5
AP QE JE 4C 4P 2
AE KE QC TP 9O 1
TE 7E 6E 3E 2E 6

KE 7C 7P 4C 4P 3
AO JE JO 5O 5P 3
QC 8P 6P 2E 2O 2
QP JP 9P 8O 5E 1
AC AP KO 6E 5C 2
AE KC TO TP 8E 2
TE 9C 9E 9O 7O 4

JC JE 9E 3E 3P 3
TE 9C 6C 6E 6P 4
QE TC 8P 4E 4O 2
AO KE JP 7E 7O 2
AC QC TO TP 9O 2
AE KO QO JO 5E 1
AP KC QP 9P 5P 1

KO QE JE JP 8P 2
AC TC 9C 5C 4C 6
QO QP 6E 3E 3O 3
KE JC 9E 8C 7O 1
AE KC QC JO TP 5
AO TO 8O 6C 5E 1
8E 7C 6P 5P 4P 5

AE KE QE JP TE 5
AC QP JE 9C 7O 1
AP JC 6E 2C 2O 2
9P 6P 5P 4P 2P 6
JO TO 9E 8O 7E 5
TC 9O 8C 4C 4E 2
KO QC QO TP 8P 2

KC 9O 8P 6C 6O 2
AC QE TE 2C 2E 2
JO JP TO 8C 7C 2
AO QO 9C 7O 5E 1
AE KO QP JC TP 5
KE JE 6P 2O 2P 2
QC TC 7E 7P 6E 2

QC QE TP 9O 9P 3
AE KC 7E 6C 6E 2
KO QO QP JP 8P 2
AC 9C 9E 8C 8O 3
AO KE JC JE TE 2
TO 7C 7P 5C 5P 3
JO 7O 6O 5O 4O 6

AC 8C 8P 7C 6E 2
AE QP JO TC 9C 1
KC QC JC 7E 7P 2
9P 6O 6P 3C 3E 3
AO TP 8E 4E 4O 2
QO JP 9E 8O 5C 1
KE KO QE JE TE 2

KO 9P 8P 6C 5E 1
QC QE TE 7C 7O 3
KC QO JP 8O 6O 1
AP 9O 7E 5C 5P 2
TC TO TP 8C 4P 4
AE KE JE JO 9C 2
AC AO QP JC 9E 2

QC 9E 9P 8E 8O 3
TC TE TO TP 8P 8
AC QP 9C 2O 2P 2
JP 7E 6E 4C 4P 2
QE QO JE 7C 7P 3
KC KE KO JC JO 7
AO 7O 6O 4O 3O 6

JC 9C 5C 4C 3C 6
KC QC TC TO 9P 2
QP JP TP 8P 7C 1
AC AO KE QO 8C 2
6E 5P 4P 3P 2C 5
JE TE 9E 8E 7E 9
8O 7O 5O 4O 3O 6

AC AO KO 9C 7E 2
8E 6C 6O 4E 4P 3
AP TP 9E 9P 8P 2
KC QO JP 8O 7O 1
KE QE QP 3C 3P 3
TC 8C 7C 5C 2C 6
QC JC JO 5E 5P 3

AC QE 9E 4C 4P 2
AE TC 6P 5C 5O 2
QC JO JP 9O 8C 2
AO KE JC 8O 8P 2
KC QO JE TE TO 2
7C 6E 5E 4O 3E 5
AP KO 9P 7E 7P 2

AC KE QO 6E 6P 2
AE KO QC JO 5P 1
AO AP 8O 7O 5E 2
KC TO 8E 7E 7P 2
QE JE TE 9E 3E 6
JP TP 9P 8P 6C 1
8C 7C 6O 5O 4C 5

6O 5O 4E 3P 2C 5
KE 8C 6C 5C 5E 2
AC AO QE 7E 7O 3
AE TC 9C 7C 6E 1
QP JC TE 9O 8O 5
QC JO TO 9E 8E 5
8P 7P 6P 5P 4P 9

JC TC 9E 8E 6O 1
AO QE JO 8C 8P 2
KC KE QC 3O 3P 3
TE 7E 7O 7P 6P 4
AE QO JE 9P 8O 1
KO TO 9O 6C 4C 1
AC AP QP JP TP 2

9O 8C 7E 6O 5E 5
QP 8E 8O 6C 6E 3
QC JO 8P 7C 5O 1
KC TE TO 9C 9E 3
AP KE KO JC 7O 2
AE TC TP 9P 5P 2
QE JE 4E 3E 2E 6

KE QE 9P 6C 5O 1
8C 8E 8O 7C 7P 7
AC 4C 4O 2C 2P 3
AE QO JO TE 9O 1
AO AP KC KO 9E 3
QC JC TC 5C 3C 6
JE JP TP 3E 3O 3

KC JP TC TE 8E 2
KO QP JC 9C 9E 2
AC AP JO TO 5O 2
QO 6O 6P 2C 2P 3
AE JE 8O 8P 7P 2
QC QE TP 9O 9P 3
AO KE 6E 4C 4E 2

AC TE 9C 9E 4P 2
JP 9P 5P 3P 2P 6
QC QE QO TP 9O 4
QP 7E 7O 6E 6O 3
AO AP KC TO 7P 2
8C 8E 8P 4C 4O 7
5C 4E 3E 2O AE 5

AP KC QO 3O 3P 2
AE KO 9E 4C 4O 2
AO JE TC 9C 5C 1
QE JC TO 6E 6P 2
JO 5O 5P 2C 2P 3
QP TP 8P 7C 7O 2
AC QC JP 9P 8C 1

KC TO 7E 3O 3P 2
9E 8O 7P 6O 5C 5
AC AE QC 9O 7O 2
QO JO 8E 8P 6E 2
QE TC TE 4C 4E 3
AO AP KE KO JP 3
QP 9C 6P 2E 2P 2

AP JE TO 6O 6P 2
AC AO QC JO TE 2
KC KO TC TP 8C 3
QP 7E 7P 3C 3O 3
KE QE QO 9O 5P 2
AE JP 9E 9P 8P 2
JC 9C 8O 7C 6C 1

KC 9E 9O 8E 7P 2
AO KO 8O 8P 6C 2
QE QO JO TO 7E 2
AE JE TC TE 7O 2
AP KE QP 2E 2O 2
AC QC JC 9C 6O 1
JP TP 9P 6P 5P 6

8C 7C 6C 4C 2C 6
AC AO 7E 7P 5C 3
AE KO TC 9C 6P 1
KC QC JC 8E 5O 1
QP JP 8O 6E 6O 2
AP QE QO JE JO 3
KE TO 9O 7O 4P 1

AE KC QC 7P 4E 1
KO JC TE 9E 7E 1
QE QO 6C 6E 6P 7
AO KE JP 8E 8P 2
QP 7C 7O 2C 2P 3
AC JO 8C 3E 3O 2
TO 9O 8O 6O 5O 6

AE AP 7E 3E 3P 3
QE 9E 4E 4O 4P 4
AC AO JC 8E 7C 2
KE KO TE 9O 8P 2
JE TO 9P 6E 5O 1
QO 8O 7O 3O 2O 6
QC QP JO JP TP 3

KC QE QO 9P 8P 2
AC QC JC TP 7P 1
AE KO JP 5E 5O 2
AP 5C 5P 4C 4E 3
QP 9O 7C 6C 6P 2
TC TO 9C 8C 6E 2
JE TE 9E 8E 7E 9

AO JP 8E 2C 2O 2
TP 9P 8C 5O 5P 2
AC KC 9C 7C 6C 6
AP TC 8O 7O 5E 1
QP JE 8P 7E 6P 1
QE JC JO TE TO 3
AE QC QO 2E 2P 3

KE JO JP TP 8P 2
QC QP 9E 9P 6E 3
KO TC 9C 3C 3P 2
AC QE JC 8E 7E 1
AP 9O 6P 2C 2P 2
KC JE TE 7O 7P 2
AO TO 5O 4O 2O 6

TO 7E 7P 5E 5O 3
AC AE JC JP TP 3
QE QO QP JO 9O 4
AP KE KO TC 8O 2
KC QC TE 3C 3E 2
JE 7C 4C 4O 4P 4
AO 9C 9E 8C 8P 3

AO 9C 6E 2C 2P 2
AP KC QE JP TE 5
QP JC TC 6C 5C 1
AC TP 9O 7C 7O 2
AE QC 9E 5O 5P 2
KO JE JO TO 8O 2
8P 7E 6P 5E 4P 5

JE TE 7P 6E 4C 1
AC QE 7C 6C 6P 2
JC 9O 9P 8C 8P 3
KO TC TO 5E 5P 3
AO KC KE QC TP 2
QP JP 9E 8E 5O 1
QO JO 8O 7O 6O 6

KC QP JO TO 9O 5
AE KO QO 5C 5O 2
AO QE TC 8C 7C 1
QC TP 9C 6E 5P 1
AP JC JP 3C 3P 3
JE 9E 7E 5E 3E 6
KE 8E 8O 4E 4P 3

AE QC QE JO 8C 2
AO KE 9C 9O 6E 2
QO 5E 5P 4E 4P 3
KC KO JC TP 9E 2
QP TE 8O 7O 7P 2
AC JE 8P 2O 2P 2
AP JP TO 3C 3O 2

AO QO TP 7E 7O 2
QE 8C 2E 2O 2P 4
QP JE JP TE 5P 2
AC KE 7P 5C 5E 2
9C 8O 7C 6E 5O 5
JC TO 9P 8E 8P 2
AE KO QC JO TC 5

AC AP QE 8O 6O 2
TP 5E 5P 3C 3P 3
KE QO 9C 9P 8P 2
QP JC JO JP 8E 4
AE AO KC 5C 5O 3
KO 7C 7P 2E 2O 3
JE TE 8C 4E 4O 2

AC QE QP 3C 3P 3
AE KE JE 4C 4O 2
KO TP 9C 9P 8O 2
QC QO JC JP 9O 3
AO KC JO TO 7C 1
AP 8C 7P 2O 2P 2
TE 9E 8E 7E 6E 9

KC TE TP 6C 6E 3
QP JE 9E 8E 7E 1
AE AO QC QO 9C 3
AC JP TC 6O 6P 2
KE QE JC 7C 7P 2
AP 5C 5E 3C 3O 3
TO 9O 9P 8C 7O 2

AC QO QP JP 8C 2
JC 8O 8P 4E 4O 3
9E 8E 7P 6P 5O 5
AE KC TO 9P 6C 1
TC 5C 5E 3C 3P 3
QC TE TP 4C 4P 3
KE KO QE JE JO 3

AO QO QP TO TP 3
AC KO JC 8E 6O 1
QE TC 9E 7O 5C 1
QC TE 7E 6C 6E 2
AP KC 8O 7C 6P 1
AE KE 4E 4O 4P 4
JE 9C 9P 5E 5O 3

AO TC TP 8C 5P 2
AC KE QC QE QP 4
KO JC JO 9C 9E 3
AP 9O 2C 2E 2O 4
9P 8E 8P 6C 5C 2
AE TE TO 7C 7E 3
JE 4O 4P 3O 3P 3

JE TE 9E 8E 6E 6
9C 8C 7C 6C 5E 5
AC QE JP TC 5O 1
AO KE QC QO JC 2
7P 6P 5P 3P 2P 6
AP QP TO 6O 5C 1
TP 9P 8P 3E 3O 2

QO JO TE 6C 6P 2
KC QP JC JE JP 4
KE KO QE TP 7C 2
AC AP 9C 2C 2P 3
QC TC TO 3E 3P 3
AE AO 9P 8P 7O 2
8E 7E 6E 5O 4O 5

AC AE JP 8E 8P 3
8C 8O 3E 3O 3P 7
QC 4C 4E 4O 4P 8
KE TP 9O 7P 6P 1
JC TC 9C 6C 5C 6
AO KC QO 9E 6O 1
QE JE TE 7E 6E 6

AC KC QC 7C 5C 6
KO QE QO JP 8C 2
AP TC 9C 9E 9P 4
JC 8O 6O 2C 2P 2
AE 8E 7E 7P 6P 2
QP JO TE TP 9O 2
AO KE JE TO 8P 1

AC 7O 7P 2C 2E 3
JE 9P 8O 5P 4P 1
AE TC 9O 8P 6P 1
QC JC JP 5C 5E 3
AP QE QP 6C 6E 3
QO TE TO 8C 8E 3
AO KE KO 7C 4O 2

AC AE KC TC 9E 2
KE QO JO 3C 3O 2
AP 7E 7P 4E 4O 3
QC QE 9P 4C 4P 3
AO KO 6E 6O 6P 4
TE TO 9O 8C 8O 3
QP JP TP 5C 5E 2

QC JO JP 4O 4P 3
AP KO JE TC 9O 1
KE QP 9E 2O 2P 2
AO 6E 6O 3C 3P 3
AC QE TP 8O 7P 1
KC QO TE TO 8P 2
AE JC 9P 8C 7C 1

QE QO JE JO 9O 3
AE KE JC TC 9E 1
8E 7E 6C 5O 4P 5
KO TE TO 6O 6P 3
8O 7O 4O 3O 2O 6
AC 8C 8P 2C 2P 3
KC QP JP 3C 3E 2

QE JC 9C 2E 2O 2
AC AE KE 6E 6O 3
QO 9P 8O 7E 7O 2
8C 5C 4C 3C 2C 6
QC TE TP 3E 3P 3
KC JP TC TO 8E 2
AP KO JE JO 9O 2

KE JO TE 8P 7E 1
AO 9C 6C 6P 5E 2
KO 9O 4O 3O 2O 6
JE JP 7C 6E 5O 2
AP QC JC 8C 8E 2
KC TO TP 9E 9P 3
AC AE QP 7O 6O 2

KO TP 6C 2E 2O 2
AC AE 4C 4E 4O 7
TE 7C 7P 5C 4P 2
AO JP 9C 9O 9P 4
KC QC JC JO TC 2
AP KE QO QP 7E 2
QE JE 8E 8P 7O 2

AC KE QE JP 5O 1
QO JO TO 4O 2O 6
AO AP KO QC TP 2
JC TC 9C 8C 5C 6
AE KC 9P 6C 6O 2
QP 9O 8O 3C 3E 2
9E 8E 7E 6E 5E 9

AE 9P 8E 4C 4O 2
JC 7E 7O 6C 5C 2
AC AP QE 9C 9E 3
KO TE TP 6O 4P 2
KE JO TC 5E 5P 2
QC QO 8C 8O 8P 7
KC JP TO 9O 7P 1

AO KC JC JE 9P 2
AC KE QC QO JO 2
AP KO 7C 6E 5P 1
QE JP 6P 4O 4P 2
TC 9C 8E 7O 6O 5
AE TE 7E 4E 3E 6
QP TO TP 9O 5E 2

JC TC TO 9O 8E 2
QC JO JP 7P 6E 2
KC 9C 9E 9P 8P 4
AE QP TP 7E 7O 2
KE KO QO TE 6P 2
6C 5C 4P 3E 2C 5
AO QE JE 8C 5O 1

KC QC JC TC 7C 6
AC AP KO 9P 6E 2
QE TO 8C 6C 6O 2
AE AO KE 9C 7O 2
QO TE TP 9O 8O 2
QP JO 9E 8E 6P 1
JP 8P 5P 4P 3P 6

KO 9E 8E 5E 5P 2
AC JE TE TP 7E 2
AP KC 9C 8C 7O 1
AE 8O 6C 6E 6O 4
KE QE JC 4C 4E 2
AO QC JP 9O 8P 1
QO QP JO TO 9P 2

AE KE 9E 8E 7E 6
KC QC JE JP TE 2
AC QE 6E 5E 5P 2
AO JO 9C 9O 9P 4
QO TO 6O 5O 4O 6
KO 8C 8O 8P 4C 4
QP JC TP 5C 4P 1

KC 9C 9O 7E 7P 3
AE 8E 8P 2C 2E 3
JC JO 9E 9P 5O 3
QO JE JP TC TE 3
AC KO QE QP 6O 2
AP KE QC 5C 5E 2
AO 6C 6E 3C 3P 3

KC 8C 8O 6O 6P 3
5E 4C 3E 2O AO 5
QC JO 8E 6C 5C 1
QE JE 9E 7C 7P 2
AC AE KE QO TO 2
AP KO JC TC TE 2
JP TP 9P 5P 4P 6

AC KE TC 9P 8C 1
AP TP 8P 6P 4E 1
JP 9E 7E 6E 5E 1
AO KO QE JC JE 2
QP 4O 4P 2O 2P 3
QC TO 6C 5C 5P 2
AE KC 9O 7C 7O 2

QE 9O 8P 6O 6P 2
KC QO TO 9E 7O 1
AC AO AP KE QC 4
QP 8C 7C 3C 3O 2
KO JC JP TC 9P 2
AE JO 9C 8E 8O 2
7E 5E 4E 3E 2E 6

JC TC 9C 8C 7C 9
KO QC 9E 7O 6E 1
AE AO QP 9O 8O 2
AC AP JO JP TO 3
KE 8P 6C 5C 5E 2
QO TE 8E 3C 3P 2
QE JE 9P 4C 4P 2

QC JC 7C 6C 4C 6
KE QO JE 5C 5O 2
AE KC TO 8C 5P 1
AC QE JP TC 9C 1
9E 8E 6E 3E 2E 6
AO 7E 7O 4O 4P 3
AP 8P 7P 6P 3P 6

AC TO 8E 8O 6P 2
KE JC TC 6C 5O 1
QC 9E 9O 7E 5P 2
AP QP JO TE 5E 1
KO QO JE 9C 8C 1
AE KC QE 9P 8P 1
AO TP 6E 2O 2P 2

KO 8P 6C 4C 4E 2
AC AP KE QO TC 2
JC JO 9C 2C 2P 3
AO TE 8O 7C 7P 2
KC QC JP TP 9P 5
AE 3C 3P 2E 2O 3
JE 9E 8E 7E 6E 6

JE TC TO 7P 4E 2
KC 9P 8E 8O 8P 4
JP TE TP 9E 7C 2
AC QP JC JO 9O 2
KO 5C 5E 4C 4O 3
AP 9C 8C 3E 3O 2
AE QC QE 6C 6O 3

QC 9O 3C 3O 3P 4
TC TO TP 6C 6O 7
AC JO 6P 4C 4P 2
AE QP 9C 7O 7P 2
QO JC 9E 9P 7E 2
AP KC KO 2E 2P 3
JE TE 6E 5E 4E 6

AC AO 3C 3E 3P 7
KO QO QP TC 8E 2
QC TE 9O 4E 4O 2
AP 9C 8C 8P 7C 2
QE JE TO 6O 5C 1
KC KE JO 7P 6P 2
AE JP TP 9P 8O 1

AO KC KE 6E 6O 3
JE JP TO TP 9C 3
AC AE 8E 3O 3P 3
AP 8O 6C 3C 3E 2
QE 9E 9O 8P 7C 2
KO QC QO 4C 4E 3
QP 9P 7P 6P 5P 6

AE QO QP JE 7O 2
AC KE TP 7P 5P 1
KC KO JO 2C 2P 3
TC TE TO 3E 3P 7
AP QE 9O 9P 8O 2
AO 7C 7E 6C 6O 3
QC JC 9C 8C 6E 1

KC TE TP 6C 6O 3
TC 8C 8O 7C 7P 3
AO KO TO 9O 4O 6
AE AP JE 5E 5O 3
AC JO JP 9C 7O 2
QC QO JC 3E 3P 3
KE QE 9E 6E 4C 1

AO KO QO 7O 3O 6
AP QC JC TC 7E 1
QP TE 7C 5E 5P 2
AC KC 8C 8E 8O 4
JE JO 9E 8P 6E 2
AE 9C 9P 4O 4P 3
KE QE TP 5C 5O 2

AC TC 9C 6O 6P 2
KE 7C 7O 7P 6C 4
KC TE 5C 5E 4P 2
QC QE JC JE 9O 3
AE TO 9E 5O 5P 2
AO 9P 8E 8P 7E 2
KO QO JO 4O 3O 6

TE TP 9E 8O 6E 2
9P 8E 5O 5P 4O 2
AC JE JO 4E 4P 3
QE JP TO 9O 8C 5
AE KE JC 6C 6O 2
KC QO QP 7C 7O 3
AP KO 8P 6P 4C 1

QP 9O 5C 5O 5P 4
AC KC QE QO 8P 2
JC JE JO JP 6O 8
AO KE TO 8C 7P 1
KO QC 9P 8E 6E 1
AP TP 9E 8O 7O 1
AE TC TE 9C 7C 2

TE 9E 3C 3E 3O 4
KC QP JE 6C 6P 2
AC AE TC 2C 2O 3
KE QE QO 7E 7P 3
AO KO JC 5O 5P 2
QC TP 9P 2E 2P 2
JP 7C 7O 4C 4E 3

AE AP KE QO QP 3
AO JE 9P 8P 5P 1
QE JO 9E 8C 7C 1
AC JP TP 3C 3P 2
TC 7E 6E 5C 5O 2
QC JC 8O 6C 6O 2
KC KO TE TO 9O 3

JC 7P 6P 5C 5E 2
KO QE JE 9P 8P 1
AC KC 9O 7O 6E 1
AE 9C 8O 4C 4E 2
QC JO TO TP 8E 2
AP QO QP JP TE 2
AO KE TC 8C 7C 1

KO 9O 8O 6O 5O 6
AO QC 9C 7O 5C 1
AP QP 8C 4E 4P 2
JC TC 7C 6C 2C 6
KC JO TE TP 7P 2
AE KE QO JP 8E 1
AC QE JE 6P 5P 1

QP JO TE 8P 6C 1
9O 8C 7C 6E 5O 5
AC AO 9C 7O 4C 2
KE QC TC 8E 8O 2
AE AP KC QE QO 3
JE 9P 7E 3E 3O 2
7P 6P 5P 4P 3P 9

KO QC QE 9O 5E 2
JE JO 8C 3E 3O 3
AP KE TC 3C 3P 2
AC QO TO 6C 6E 2
QP TE 9C 9E 8E 2
AO JC JP 8O 6P 2
TP 9P 8P 7C 6O 5

JO TO 7E 5C 5P 2
QO 9E 9P 8C 7C 2
KO QE JE JP TE 2
AE AP JC 3E 3P 3
AC QP TP 8E 8O 2
AO 4C 4E 2C 2O 3
QC TC 8P 3C 3O 2

KC TC 8C 8P 7P 2
AC QC TE 9P 6O 1
AO QO JC 7C 7O 2
AP 9C 8E 6E 6P 2
AE JP TP 9E 4O 1
KO JE JO 7E 5E 2
KE QE 9O 8O 5O 1

AO AP JE 4E 4P 3
JC TE TP 8E 6P 2
KC 7O 7P 6C 6O 3
AC KO 9C 8P 6E 1
9E 9O 7E 3C 3P 3
KE QE QO JO TO 2
QC TC 8C 5C 2C 6

AC AP JE 7E 4C 2
JO 9O 7O 4E 4P 2
9C 8C 7C 6C 5E 5
AO QO JC JP TC 2
QC 8O 6E 5O 5P 2
AE KC QE TP 9E 1
KE KO TE TO 8P 3

AP KC KO TC TP 3
AO 9O 6O 3O 2O 6
AC AE QE 5C 5P 3
9E 8O 6C 5E 5O 2
KE JC JP TO 8C 2
QO JO TE 8E 7O 1
8P 7P 4P 3P 2P 6

KO TE 9E 8C 8P 2
KE QO JP 5C 5E 2
AC AO QE QP JE 3
AP 7C 7E 2C 2O 3
AE JO TC TP 9C 2
QC 8O 7O 5O 5P 2
KC 9O 7P 3E 3P 2

KE TE 7E 6P 4C 1
QP 9O 8C 8E 7P 2
KO QO JO 7O 5O 6
AP JC TO 8O 6E 1
QC JE TC 9P 8P 5
AE KC 6O 5C 5P 2
AC AO QE JP TP 2

KO 3C 3O 2O 2P 3
AO QE 9E 7C 5E 1
KC QP 9C 6C 6E 2
QC JO 8C 8E 7E 2
AE TC TE 5O 5P 3
JP 8O 8P 7O 7P 3
AC AP QO TO TP 3

AP QE QP 2C 2O 3
TE 9E 8O 7C 6O 5
KO JE 8C 3C 3P 2
AO QC TC 9C 8E 1
KC JC 9O 6C 6E 2
AE 9P 4C 4E 4O 4
AC JP TO TP 7O 2

KO QO 7C 7E 5P 2
QP JO 9C 3C 3P 2
AC AP TE TO 6C 3
AE KC JE TP 7P 1
TC 9P 8C 7O 6P 5
QC JC JP 9O 5E 2
KE QE 9E 8E 6E 6

AC AE KC QC TP 2
KO JC 2C 2E 2P 4
6C 5C 4C 3E 2O 5
JP 9C 6O 5E 5P 2
AP TO 7O 6E 6P 2
AO QE QP JO 9P 2
QO 8C 8E 7C 7E 3

JC 9O 9P 4C 4E 3
QO 7C 7O 7P 6P 4
8E 8O 8P 6C 6E 7
KC JO 9E 5C 5O 2
AE QC JE 9C 8C 1
AC KO JP TE TO 2
AP QE QP 2C 2P 3

QE 6C 6P 3C 3E 3
AC AE JC 8C 8P 3
KC QC TE 9E 9P 2
KE TP 5P 2C 2P 2
AO JE JP 4E 4P 3
QP TC 9C 8O 7C 1
KO QO 9O 5O 4O 6

5E 4P 3O 2E AC 5
AO 9C 8P 6C 6E 2
AP TC TO 9E 9O 3
JC JP TP 6O 6P 3
8O 7O 4C 4E 4O 4
KO QO QP JE JO 3
KC QC QE TE 8E 2

JE JP 8P 5E 5O 3
KE QE QP TE 8O 2
KC QC 9O 4O 4P 2
AC AE 2C 2E 2O 7
KO JO 9P 6P 4E 1
AP QO TP 3C 3P 2
JC TC 9C 8E 7E 5

AE KO JO 6C 6O 2
AC AP QO JP 5P 2
9C 7C 7O 4E 4P 3
JC 8C 8O 3C 3P 3
9E 9O 7E 5C 5E 3
AO QC QP 9P 8P 2
KC QE TE TO TP 4

AO KC KE QO 4O 2
AC AE TE 7E 5C 2
KO QC TC 6C 6P 2
JC 9C 7P 6E 5P 1
AP JE 8C 3E 3O 2
QE 9E 9P 8E 8P 3
TO 8O 7O 6O 5O 6

AC QP TO 2E 2P 2
AO JE 9P 7E 6P 1
AP QO JO 5C 5P 2
KE JP 9C 8P 7C 1
KO JC TE TP 7O 2
QC TC 8C 6C 4C 6
AE QE 9E 8E 6E 6

5O 4O 3C 2P AE 5
AC QC QO 8C 8E 3
KC JP 9E 8P 6C 1
QP TC TE TO 8O 4
QE JC 7C 6E 5E 1
AO KO 6O 3O 2O 6
AP 9P 6P 5P 4P 6

JE TE 9O 8C 7E 5
8E 7C 6C 5C 4P 5
KO QC JP 9P 8P 1
JC TC 9E 4E 4O 2
AC QE QP 9C 6O 2
AO KE JO TP 5E 1
QO TO 8O 7O 5O 6

AC AO KE 5C 5E 3
JC 8C 8E 6C 5O 2
QC QE QO 2C 2P 7
JP 9C 9P 7C 7O 3
JO TP 9E 8O 7E 5
JE TO 9O 7P 4E 1
AP KO TE 8P 6E 1

AC QO JC JP 9O 2
QC 7P 6C 6O 5C 2
KC TC 7C 4C 3C 6
AE KE 8C 8E 8P 4
QE 9C 9P 4E 4P 3
AO TE TO 9E 7E 2
AP KO JE JO TP 2

QP JC JO TE 6P 2
QC 9E 9O 7C 6O 2
AC AP JP 8E 5C 2
JE TC TP 7E 6C 2
8C 7O 7P 3O 3P 3
KO QE TO 9C 9P 2
AE AO KC KE 8O 3

AC TE 8C 7C 6E 1
KE JE 7E 5E 4E 6
QC QE JC 9E 9O 3
AE AO TC 9P 5O 2
JO TO 8O 7O 6O 6
KO QO JP 9C 5C 1
AP TP 8P 6P 5P 6

AC 6O 6P 4C 4E 3
JP 7E 7O 7P 6E 4
AO QE TP 8E 7C 1
KC KE 8C 8O 8P 7
KO TC TE 9C 9O 3
AE QC JC 3C 3E 2
AP QO QP JO 5O 2

8C 8O 8P 7C 7E 7
KO QO TE 9O 9P 2
AP QC 9C 8E 6C 1
AC AO JO TC TO 3
KC JC JE 3E 3O 3
AE KE QE TP 6P 1
JP 6E 6O 4C 4E 3

AE 9C 9E 7C 7P 3
KO QE JP TE 9P 5
5C 4P 3E 2C AC 5
AO KE 9O 7O 6P 1
QP JO TO 2E 2O 2
QC TC 8C 7E 6C 1
AP KC QO 8O 5O 1

AC AO 9O 3C 3O 3
TP 5O 5P 4C 4E 3
KO JO JP 8E 8O 3
AE AP QO 7C 7E 3
8C 7P 6P 5C 4O 5
QC JC JE 9E 9P 3
QE TE 5E 3E 2E 6

AE 9E 7O 6E 6P 2
AO TP 9P 8P 6O 1
5P 4E 3E 2E AP 5
AC QP 8C 8E 8O 4
KC QC TE TO 9O 2
QO JE JO TC 9C 2
7E 6C 5E 4P 3C 5

QC QO JP 7C 7O 3
KE KO TE 4E 4O 3
QE TO 9C 9E 6P 2
KC JC JO 8E 6C 2
AC AP QP JE 8O 2
5E 4C 3O 2O AE 5
TC TP 9P 8P 6O 2

7E 6E 5P 4O 3P 5
AP QE TO 7P 6P 1
KO 8C 8E 8O 8P 8
AC KE 7C 2E 2P 2
AE AO QC QP JC 3
6C 5C 4C 3C 2C 9
JO 9O 7O 5O 3O 6

AE TP 9O 2O 2P 2
7C 6E 5E 4O 3O 5
KE QO JP 6O 6P 2
KO TO 9C 8O 7P 1
AO AP QP 4C 4E 3
9E 9P 8C 8E 8P 7
KC QC QE JC TC 2

9E 9O 8C 8O 6E 3
AC AO TO 7C 5E 2
QC 9C 6C 6O 6P 4
JC JP TC TP 8P 3
AE KC QP TE 8E 1
AP QE JE 7P 4O 1
QO JO 7O 5O 3O 6

AE AO TE TO 8O 3
AC KE JO TC 6P 1
7E 6E 5E 3E 2E 6
QC 9E 9O 5C 5P 3
QE 7O 7P 6O 4O 2
AP KC KO QO TP 2
8C 7C 6C 4C 3C 6

KE KO QO 9O 8O 2
AE AO KC 3C 3P 3
AP TO 4C 4E 4O 4
AC 9C 5E 5O 5P 4
JO TC 8P 7O 7P 2
QC 9P 8C 7C 7E 2
QE JE TE 9E 8E 9

KC QO JC TO 8C 1
9O 3C 3E 3O 3P 8
KO TC 9E 6O 6P 2
AC QC JE JO TE 2
AP TP 8P 7P 4P 6
AE KE 9C 9P 6E 2
AO QP JP 7C 6C 1

AC JC JE 6C 6P 3
QC QO TE TO 9O 3
QE TC 8O 4C 4P 2
KE KO JO 9E 7P 2
AO AP 2E 2O 2P 7
JP 9P 8P 5P 3P 6
AE KC TP 9C 8C 1

AO KC TE 5E 5O 2
TP 9E 8C 8E 8O 4
AP 9C 9O 6E 6P 3
KO QO QP JO JP 3
AC QC JE 8P 6C 1
AE JC 7P 6O 5C 1
4C 4E 3C 3E 3O 7

AP JP TP 9C 8O 1
AO TE TO 7C 7O 3
AC KE KO 6C 6O 3
QC JO TC 7E 4O 1
6P 5P 4C 3O 2O 5
KC QE JC JE 8P 2
AE 8E 6E 5E 4E 6

AC AP QO 5O 5P 3
7C 7O 2C 2O 2P 7
AE QC QP 3C 3P 3
KC KE QE 8C 8E 3
TC TO 9C 9O 8P 3
TE 9P 5C 3E 3O 2
AO KO JO TP 6C 1

KC 8O 6C 3E 3P 2
QC JO 8E 8P 4O 2
KE JP 9E 7C 5O 1
AC AO KO TO 8C 2
AE TE 9C 6O 6P 2
AP QE QO TC 9O 2
QP TP 9P 7P 5P 6

AC AO AP TO 7C 4
JO JP 7E 7O 6E 3
TP 9C 9E 9P 8E 4
AE QE JE TE 4E 6
KE 3C 3O 2E 2O 3
QO QP 9O 8O 6O 2
KO 8C 8P 6C 4P 2

KE 9E 9O 3C 3P 3
AE KC QO 9P 5C 1
AO KO QC QE TP 2
JE JO 4C 4E 4P 7
AC JP 9C 8C 8E 2
AP TC TO 7E 7O 3
JC TE 7P 6O 6P 2

9E 7E 6O 6P 5P 2
AC 8C 8P 7P 4C 2
KO QC QO 9P 8E 2
AE KC QP 5C 5E 2
KE JO JP 6C 6E 3
JC JE TC 7C 7O 3
AO TO 9O 8O 5O 6

QE 5C 5P 3E 3P 3
AO KO 4C 4E 4P 4
KE JP TE 3C 3O 2
JE TP 9O 8E 6C 1
AC JO 9E 7C 7O 2
AE AP QO 2C 2P 3
QP JC TC 9C 9P 2

AC AE 2C 2E 2O 7
QO TP 6O 3E 3O 2
AO KO QC 8C 8E 2
TC TO 8O 8P 5C 3
KC KE 7P 6P 5P 2
AP 9E 9P 6C 6E 3
JC JE JP 9C 9O 7

KE JC 9E 2O 2P 2
KO JP TE 4E 4P 2
QC 7E 7O 6E 6O 3
AO QO TO 9O 3O 6
AP QE 8E 6C 5P 1
KC JO TP 8C 8P 2
AC AE QP 2C 2E 3

-1 0.00E+00
1 1.62E-01
2 4.06E-01
3 2.15E-01
4 4.07E-02
5 5.71E-02
6 8.50E-02
7 2.14E-02
8 3.57E-03
9 8.57E-03
10 0.00E+00
