KE 8P 6E 5C 5O 2 KE 5C 5O 4C 4P 3 2
KO JO TP 3C 3O 2 KO 6O 6P 3C 3O 3 2
AC AO AP TE 8E 4 AC AO JE TE 8E 2 1
QP 9C 9E 8O 7P 2 QC 9C 8O 7O 7P 2 1
JC JP TO 9O 9P 3 JC JP TC TO 9P 3 2

KC 6C 5C 4C 2C 6 KC JO 6C 6E 6P 4 1
AC KO 7C 7O 7P 4 KO QO TO 8O 7O 6 2
JE TE 8C 2O 2P 2 AP QP JE 2O 2P 2 2
JC JP 9C 9O 5E 3 QE JC JP 5E 5O 3 1
AE KE 8E 3E 2E 6 AE KE QC 8E 6O 1 1

QC QE JC 3O 3P 3 AO QC QE JC JO 3 2
AP 8P 7P 5P 2P 6 KO QO TE 8P 7P 1 1
AC AE QP 9E 9P 3 AC AE QP TC TP 3 2
KC KE 8E 2C 2E 3 6C 5C 4C 3C 2E 5 2
TO 9C 9O 7C 5O 2 9C 9O 8C 5O 4O 2 1

KO QP TO 9O 9P 2 KO QP TO 9P 6C 1 1
QC QO JO TC TP 3 KC QC QO JO JP 3 2
AE AP JC 4E 4O 3 AC AP JC 8O 6E 2 1
9C 8E 6P 2C 2E 2 9C 8E 7O 6P 5P 5 2
JE 8C 8P 7C 7P 3 JE TE 9E 8C 7C 5 2

AO KE 9O 3E 3O 2 AO KE TO 9O 7P 1 1
AC QC QP 9E 9P 3 AC AP QC 9E 9P 3 2
AE JO TC 8P 5E 1 AE KC 8E 8P 5E 2 2
JE 6E 6O 4C 4O 3 8O 7O 6E 5O 4C 5 2
KO QE QO 7C 7E 3 KO QE TE 8C 7C 1 1

AE KC KE 9O 9P 3 AE KE QE JC 9P 1 1
AC AP 9E 5E 5O 3 AP 9E 8O 6C 6O 2 1
AO TO 8P 6E 4C 1 QP TO 6E 4C 4E 2 2
QC QO TP 7E 6P 2 QO JO TP 7E 6P 1 1
KO JE 7C 5C 4O 1 JE TE 8E 7C 5C 1 1

AP QO JC JO 8C 2 AC AP QO 6E 6O 3 2
KO QC JE 7C 7P 2 QC 8P 7C 7P 6C 2 1
QE TC 9C 4C 4P 2 QE TC 6P 3C 3P 2 1
AE TO TP 5C 5P 3 AE KC KE TO 9O 2 1
9E 8E 7E 3E 2E 6 9E 8E 4E 3E 2E 6 1

QP 9E 8O 7C 7P 2 9E 9O 8O 7C 4O 2 2
KE KO JC 8E 8P 3 KE KO TE TO 8E 3 2
QC QE JE 6C 6P 3 AC QE JE 6C 6P 2 1
AO JP 8C 6E 5P 1 AO JP TP 8C 4C 1 2
AE JO TC 7O 4P 1 AE KC JO 9C 7O 1 2

AE AO QO 9E 8P 2 AE QE QO 9E 9P 3 2
AP JO TE 8O 6C 1 AP KE JO 3E 3P 2 2
KO QP TP 2E 2O 2 KO QP JP 8C 4P 1 1
JE 8E 7E 5E 4E 6 AC JE 9O 7E 7O 2 1
9C 6O 6P 5O 5P 3 TO 9C 7C 6P 5P 1 1

KC QC TE 9C 8O 1 KC QC TO 6C 6E 2 2
7C 7E 5C 5E 5P 7 5C 5E 5P 4C 4O 7 1
AO AP QE TC 7O 2 AP KO QE TC 7O 1 1
AC AE 9E 9O 8C 3 AC AE KE 9O 6O 2 1
QO JO TP 3E 3P 2 QO JC JO TP 4E 2 2

JC 9P 8P 7C 7O 2 JC 7C 7O 3C 3E 3 2
QC QP TC TE TO 7 AE QC QP TC TO 3 1
AC KC 8C 5C 4C 6 KC 9C 8C 5C 4C 6 1
KO QO JO 9E 8E 1 QO JO 9E 8E 7E 1 1
AO AP KE JE 5O 2 AO AP KE QE 6C 2 2

AE KC QC JC TP 5 AE KC QO JE TP 5 0
AC 8O 8P 4O 4P 3 AC 8O 8P 4O 4P 3 0
AO 5C 5P 2E 2O 3 AO 8E 6C 3C 3P 2 1
KO QE JO TC TO 2 KO QE TC 2C 2P 2 1
7C 6O 5O 4E 3E 5 AP QP 9C 9P 6O 2 1

AO 9P 6O 5C 5P 2 AO 9P 8P 6O 6P 2 2
AC KE QC JO 7E 1 AC KE QC 3E 3P 2 2
QO TO 9O 7O 3O 6 AE QO JC 9E 8E 1 1
AP KO TE 7C 6C 1 AP KC KO TE 8O 2 2
JE 9C 7P 2C 2P 2 QE JE 9C 7P 5E 1 1

JP TO 5O 3E 3O 2 AE JP 6E 3E 3O 2 2
JE TE 9E 8E 7E 9 JO TC 9E 8C 7E 5 1
AC KO QE TP 9O 1 QE TP 9O 6C 6O 2 2
KE QC QP 9P 7C 2 QC QP 9P 2C 2O 3 2
AP KC 9C 7O 6P 1 AP KC QO 7O 7P 2 2

AE QE JC TE 6C 1 QE QO JC 4O 4P 3 2
7P 6P 5P 4C 3P 5 AO JE JO 7P 6P 2 1
AC KE 9P 5C 5O 2 KE TO 9P 5C 5O 2 1
TC TP 3C 3E 3O 7 AP TC TP 3C 3O 3 1
QC JP 8E 2E 2P 2 KO JP 8C 8E 7O 2 2

8E 7E 6O 5O 4P 5 KC QC JP 8E 6O 1 1
AE AP TC TE 9E 3 AE QP TC TE 9E 2 1
TP 9O 8O 4C 4E 2 TP 9O 9P 6P 4C 2 2
9C 3C 3P 2E 2P 3 AC 9C 6E 5C 5E 2 1
QO JC JE TO 7P 2 KO QO JC JE JO 4 2

QO JC TO 3C 3O 2 QO 9O 7E 3C 3O 2 1
AC KO QE JP 7O 1 AC KO QE 2C 2E 2 2
AO AP 9C 9E 8C 3 AO AP 9C 8E 8O 3 1
KC KE QP JO 6C 2 QP JO 6C 4C 4P 2 1
TP 9P 7P 6P 3P 6 TP 9P 8P 7P 6P 9 2

AC AE QO 2C 2E 3 AC JP 8P 2C 2E 2 1
JC TP 9O 6P 4C 1 KO QP JC 9O 6P 1 2
AP KE TC 8C 7P 1 AP KE TC 8C 6C 1 1
QC TO 9C 8E 8O 2 TO 9P 8E 7E 6E 5 2
AO KC QE JE 9E 1 AO QE JE TE 7O 1 1

AE KO JC 8E 7O 1 AE KO JC 2C 2E 2 2
AC AP JE JO JP 7 AC JE JP TC TE 3 1
QO QP 7C 3C 3E 3 AO QC QO QP 7C 4 2
9P 8C 7E 6E 5E 5 KE 7E 6E 5E 4E 6 2
QE 9E 9O 4C 4O 3 9C 9O 4C 4O 3O 3 1

JC TC 8C 4C 2C 6 QO QP JC 9E 8C 2 1
TE TO 8E 5C 5E 3 AC TE TO 5C 5E 3 2
KE KO QE JO 8P 2 KE QE JE 6E 3E 6 2
AE AP KC 7C 6O 2 AE KC QC 9O 6O 1 1
AO 8O 7O 4O 3O 6 8O 7O 4O 3O 2O 6 1

AC KC QP JE TO 5 AC KC QC JE TO 5 0
QE TC TE TP 9C 4 TC 9C 8C 5C 2C 6 2
AE AO KE JC JP 3 AE AO JC 7O 4C 2 1
5E 4E 4O 3C 3E 3 6C 5E 4E 3E 2E 5 2
QO 9E 8E 6O 5O 1 9E 8E 7E 6E 5O 5 2

AC QE JE 9C 9P 2 AE QE 9C 9P 8C 2 1
AP QC QO TC TE 3 AP KO QO TC TE 2 1
KC KE 9E 3E 3P 3 AO KE JO 3E 3P 2 1
JC 8E 8O 6E 6P 3 JC TP 8E 8O 6E 2 1
7C 7E 5C 5O 5P 7 JP TO 9O 5O 5P 2 1

QO QP JP 9C 9P 3 QO QP TC 9C 8P 2 1
AC TP 8E 7C 7P 2 AC JC TP 7P 4E 1 1
AP KC QC 3C 3O 2 KC QC 8C 5C 4C 6 2
AO 7E 7O 2E 2P 3 AE AO 7E 7O 5O 3 2
KE QE JE JO 8O 2 KE QE JO 6O 6P 2 1

KE 9O 8P 4O 4P 2 8P 7E 6E 4O 4P 2 1
AO TE TO 5E 5O 3 KC JE JP 5E 5O 3 2
AC KO QE JC TC 5 AC KO QE QO JO 2 1
AP QC QP TP 7P 2 QC QP 7P 2C 2P 3 2
8C 8E 8O 6C 6P 7 8E 7O 6P 5P 4C 5 1

JE TE 8E 7E 5P 1 QO JE TE 8O 7E 1 2
AC TO 9E 9O 9P 4 AC KE TO 9E 9O 2 1
AO KO JO 7O 3O 6 AO KO JO 7O 3O 6 0
KC QC 9C 2C 2P 2 AP QC 9C 2C 2P 2 2
TC 8C 7C 6C 4C 6 QP JP TP 8C 7C 1 1

AC AP TC 9C 9P 3 AC AP KO TC 9C 2 1
AE 9E 9O 8C 8O 3 JC 9E 9O 8C 8O 3 1
JO TO TP 7O 6O 2 KC JO TP 7O 5P 1 1
QE QO 6P 3O 3P 3 6P 5C 4P 3P 2P 5 2
QC QP JP 8P 7P 2 AO QC QP JP 8P 2 2

QP TC 9C 9E 9P 4 AC AE 9C 9E 9P 7 2
7C 6E 5C 4C 3O 5 QC QE 8P 7C 6E 2 1
JC 8C 6O 4O 4P 2 AO KO JC 8C 6O 1 1
KE TE 8O 7O 4E 1 KC TE 8O 2E 2P 2 2
JE JP 9O 5O 5P 3 JE TP 9O 8E 7E 5 2

9O 7E 6E 5E 5P 2 KO TO 7E 6E 5E 1 1
AO QC QO 3E 3O 3 QC QE QO 8E 6C 4 2
9E 8C 7C 2E 2P 2 AP JO 9E 2E 2P 2 2
AC KE JE TC TE 2 AC JE TC 9C 6O 1 1
AE KC JC 7O 7P 2 AE KC 9P 8O 8P 2 2

QP 9O 8O 2O 2P 2 9C 9O 9P 8O 7P 4 2
AC AP KO QO 6E 2 AC AP KO QO JO 2 2
QC 8E 7E 4E 4O 2 QC TE 9E 8E 7E 1 1
AO QE JC JE TC 2 AO KE QE JC TC 5 2
AE TO TP 3O 3P 3 AE KC TO TP 7O 2 1

AP KO QO JC 8P 1 AP KO JC 3C 3O 2 2
TO 5E 5O 4E 4O 3 JO 5E 5O 4E 4O 3 2
AE AO TE 8C 4P 2 AC AE QC 8C 4P 2 2
QE TC TP 9P 5P 2 KC TC TP 9P 7P 2 2
KE QP 7E 7O 6O 2 KE QP JP 7E 7O 2 2

9O 8O 7O 6C 5E 5 8O 7O 6E 5E 4E 5 1
AO TE TO 9E 7P 2 TE TO 9E 7C 7P 3 2
AC KE QE 9C 8E 1 KE QE JE 8E 7E 6 2
QC QP JC JP TP 3 AE QC QP JP TP 2 1
5O 4O 3C 2C AP 5 AP KO QO JO 6O 1 1

AO TC TP 9C 9E 3 AO TC TP 9C 9E 3 0
AP JP 8P 3C 3P 2 AP JO 6C 3C 3P 2 1
QP JC 6E 5E 5O 2 QP JC TO 5E 5O 2 2
AC 9O 9P 6O 6P 3 AC QE 9O 9P 7E 2 1
AE KC KE QC 8E 2 AE KC 8E 4O 4P 2 1

AO QP 8P 5O 5P 2 AO JO 8P 2C 2O 2 1
QC 9E 9P 8E 7P 2 QC JC 9E 9P 7E 2 2
AC KC 9O 8O 7O 1 AC KC TE 9O 8O 1 2
KO JE JP TO TP 3 KO QE QO 4C 4O 3 2
AP KE TC 9C 8C 1 TC 9C 8C 7C 6C 9 2

AP QO QP 3C 3P 3 QO QP JC 3C 3P 3 1
AC AO 8E 6E 4E 2 AC AO JE 6E 5E 2 2
AE KC QE JP TP 5 AE KC QE JP 7C 1 1
TO 9O 6C 5C 5P 2 KO TO 6C 5C 5P 2 2
QC 8C 8O 2O 2P 3 KE QC 8C 6O 5O 1 1

JC TE 9E 5C 5E 2 JC TC TE 9E 6P 2 2
KC QE 9O 7C 7P 2 7C 7P 6C 6E 6O 7 2
AE KO QC 8O 8P 2 KO 8O 8P 3O 3P 3 2
AP JO TP 2E 2P 2 AP JO TO TP 9P 2 2
AC JE JP 4E 4P 3 AC JE 8E 4E 4P 2 1

AC TC 9C 8C 5C 6 AC TC 8C 5C 3C 6 1
KO 9O 9P 8P 6C 2 KO JP TP 9P 6C 1 1
KC QP TO 7C 6O 1 AE QP TO 9E 7C 1 2
AP QO JC JO 5E 2 AP QC QO 2E 2O 3 2
AO JE TE 7E 6E 1 AO JE TE 8E 7O 1 2

AE AP KE JP TP 2 AE AP JP TP 9E 2 1
9C 5E 5P 3E 3P 3 9C 7E 6O 3E 3P 2 1
QP JE JO TC TE 3 JE TC TE 6C 5C 2 1
QE QO JC TO 7P 2 AC KC QE QO TO 2 2
9O 8O 7O 5O 3O 6 AO 9O 8O 7O 5O 6 2

AO TC 8P 2C 2E 2 AO QP TC 2C 2E 2 2
AE KE JC 5E 5O 2 5E 4C 3C 2O AE 5 2
KC JE 9E 9P 7C 2 QC JE 9E 9P 7C 2 1
AP 6E 6O 4E 4O 3 AP TO 6E 4E 4O 2 1
KO 8E 8O 7E 7P 3 KO TE TP 8E 8O 3 2

KE JE 9E 6E 5E 6 KE JE 8E 6E 5E 6 1
AO AP QE 4O 4P 3 AC AO QE 7O 6O 2 1
JC 8O 8P 5C 5O 3 TE 8O 8P 5C 5O 3 1
8C 7C 6C 4C 3C 6 TC 8C 7C 6C 3C 6 2
AE KC QO JP 9C 1 AE KC KO QC JP 2 2

AP 7P 5P 3P 2P 6 AP 6P 5P 3P 2P 6 1
QC TP 8E 8P 7E 2 TP 9P 8E 7E 6E 5 2
AC KO TE TO 7O 2 AC QP JP TE TO 2 1
AE KC 9O 4C 4E 2 AE 9E 9O 6C 5O 2 2
QE JC 9C 8O 7C 1 QE JC JE TC 8O 2 2

TE 9C 9E 3O 3P 3 TE 9C 7P 3E 3P 2 1
KC QC TC 8C 4C 6 KC JC TC 8C 4C 6 1
AE TO 7C 6O 4O 1 AC AE 7C 6O 6P 3 2
JO 9O 9P 7O 6E 2 QE JO 9P 7O 6E 1 1
AP KO QO JP TP 5 QO JP TP 8O 6C 1 1

AC AE AP 6P 5P 4 AC 8P 6P 2C 2E 2 1
JC 9O 6O 3C 3O 2 JC 9O 9P 6E 4C 2 2
KC KO QE 7E 5O 2 KC KE KO TE 7E 4 2
QC JE TP 7C 7P 2 QC JE TC TP 8E 2 2
AO TO 8O 7O 4O 6 QP JP TO 9E 8O 5 1

AC TP 9P 7O 6C 1 AC JO TC 9P 7O 1 2
KE KO TE 9E 6O 2 QE JE TE 9E 6O 1 1
AO TO 4O 3O 2O 6 QC JC TO 3C 3O 2 1
AE KC 9O 8C 8O 2 AE KC QP 5C 5O 2 1
7E 6E 5E 4E 2E 6 7E 6E 5E 4E 2E 6 0

KE 9C 6C 3C 3P 2 9C 8P 6C 5C 5O 2 2
QO JO 9P 6O 6P 2 QO JC JO 6O 6P 3 2
AO AP QC TP 9O 2 AE AO KC TP 9O 2 2
AC QP JP 8C 7O 1 AC QP 9E 8C 7O 1 1
8O 4E 4P 2C 2O 3 JE TE 8O 2C 2O 2 1

AO 7E 7O 4E 4O 3 QO 9E 7E 7O 6E 2 1
KE JE TC 6C 6P 2 AC KE JE 9C 8E 1 1
KO QE JC 3O 3P 2 KO QE JC TE 8C 1 1
AE KC QC TO 9O 1 AE KC TO TP 9O 2 2
JO 9P 7P 5C 5P 2 AP 9P 7P 5P 4P 6 2

KE 9C 9E 8E 6C 2 9C 9E 9P 8E 8O 7 2
AC AP TO TP 6E 3 TO TP 6E 6O 6P 7 2
AE AO QE TC 7O 2 AE AO TC 8C 7O 2 1
JC JP 9O 7C 4C 2 JP 9O 7C 3C 3P 2 1
KC QC QO 4E 4P 3 KO QO JO 4E 4P 2 1

AC AO TO TP 7C 3 AC QC TP 7C 7E 2 1
AE KO JP 3C 3O 2 AE JP 8C 3C 3O 2 1
QP JC JO 5C 5E 3 5C 5E 4C 4O 4P 7 2
KE JE 9O 7O 7P 2 KE 9E 9O 7O 7P 3 2
KC QE TC 9C 8E 1 AP KC QE QO TC 2 2

AO KE QE JE TE 5 KE QE JE TE 3E 6 2
AC AE KC JP 8P 2 AC AE KC QP 8P 2 2
JC 6E 6O 3C 3O 3 JC TC 9E 3C 3O 2 1
QC 5E 5P 4O 4P 3 QC 9P 5E 5O 5P 4 2
TO 9C 8C 7C 6C 5 TO 9C 9O 8C 8O 3 1

AC QP TE 3C 3E 2 TE 8E 7E 3C 3E 2 1
5C 5O 5P 4C 4E 7 JC TP 5C 5O 5P 4 1
KE QO TO 9E 9O 2 TO 9E 8O 7O 6O 5 2
AO KC QE JE 9C 1 AO KC QE 9C 9P 2 2
KO QC TC 8P 6C 1 KO QC JO TC 8P 1 2

AE KO QO 9P 8P 1 KO 9E 9P 6C 6E 3 2
TO 8O 6O 5E 5P 2 JP 8O 6O 5E 5P 2 2
AC QP TE 7C 7P 2 TE 7C 7P 6P 5O 2 1
AO AP JC TP 8C 2 AP JC TP 8C 8E 2 1
QC JE TC 4O 4P 2 QC JE 4C 4O 4P 4 2

KC 8E 8P 7E 7O 3 KC 8E 8P 7E 7P 3 0
AE JC TE 6C 6O 2 JC JO JP 6C 6O 7 2
AO QP 7C 6P 5C 1 AC 9P 7C 6P 5C 1 1
TC 9C 8C 4C 3C 6 KE QO TC 8C 8O 2 1
5E 4E 3P 2P AP 5 AP QC 9O 3E 3P 2 1

AE KO TO TP 8O 2 AE KO TC TP 9E 2 2
JO 9O 6E 2C 2O 2 AP QO 6E 2C 2O 2 2
QP JP 9P 7P 4P 6 QC QP 7P 4C 4P 3 1
AC 8C 8P 5E 5P 3 8C 8P 7C 5C 5E 3 1
JE TE 8E 4E 3E 6 JE TE 8E 7E 4E 6 2

TO 7O 6C 6O 4E 2 7O 6C 5P 4E 3C 5 2
QP 9O 8P 7C 5C 1 KE 8P 7C 5C 5E 2 2
KO JC JO TC 8C 2 KO JC JO TC TP 3 2
AE AP KC QC QO 3 AE AP KC JE 8O 2 1
TE 9E 8E 7E 3E 6 TE 9E 8E 3E 2E 6 1

KO QO 9C 6E 6O 2 QE 9C 9P 6E 6O 3 2
AC AO 7C 7E 5E 3 AC AE AO 7C 7E 7 2
JO TP 5O 2C 2O 2 JO 8O 7O 5O 2O 6 2
KE JC TC 9E 8E 1 KE QC JC 9E 9O 2 2
AP KC JE 2E 2P 2 AP JE TE TO 8P 2 2

AC QO JE JO 7E 2 KC QO JE JO TP 2 1
AE QC TC 5C 5P 2 AE 5C 5P 4E 4P 3 2
AP KE KO 6O 6P 3 AP TE 9C 6O 6P 2 1
AO 8O 8P 7C 6C 2 AO 8P 7C 7P 6C 2 1
JP 9P 8C 2E 2O 2 JC JP 9P 3O 3P 3 2

AC QC TE 9C 8E 1 AC QC JE TE 8C 1 2
AP QP TC TO 9O 2 KO TO 9O 8O 6O 6 2
QE QO TP 7P 5C 2 TP 7P 4P 3P 2P 6 2
5E 4C 3C 2C AO 5 JP 9P 8P 6E 4C 1 1
AE KC KE 7C 6C 2 AE KE 7E 3E 2E 6 2

AC AO QO 8P 6E 2 AC AO QC JC 8P 2 2
JE 7E 7P 4O 4P 3 KE 9O 7E 4O 4P 2 1
KC 9P 8E 6P 5P 1 JO 9P 8E 6P 5P 1 1
QE JP TE 9E 8O 5 KO QE TE TO TP 4 1
AP QP 9C 8C 7C 1 AP 6C 6O 2E 2P 3 2

AC QC TP 8E 5O 1 QC TP 8P 6E 5O 1 1
KC QE QO JP TE 2 AO QO JP TE 7P 1 1
QP 9P 8O 2C 2O 2 QP 9E 9P 2C 2E 3 2
AE 8C 5C 5E 5P 4 5C 5E 5P 4C 4O 7 2
KE KO JC TC 9C 2 KE JC JE 7C 7O 3 2

AO KE 7P 2C 2O 2 AO 7C 7P 5C 5O 3 2
QP JC TP 9O 8O 5 9O 8O 7O 4O 3O 6 2
JO TO 9P 8C 8P 2 QC JO TO 9P 5E 1 1
AC QO JP TC 9C 1 QO JP TC 9C 6C 1 1
AP 6P 5P 4P 3P 6 AP 6P 5P 4P 3P 6 0

TP 6C 6O 5O 5P 3 KC 6C 6O 5O 5P 3 2
AE AP QE JE JP 3 AE AP JE JP 7O 3 1
QP 8E 8O 2E 2P 3 8C 8E 8O 2E 2P 7 2
QC QO JC JO 9C 3 AC QC QO JC JO 3 2
KO 9P 5E 3E 3P 2 7P 6P 5E 4E 3E 5 2

KO QC JC 9E 8E 1 KO QC JE 8E 5P 1 1
KC 9C 9P 6E 6O 3 KC 9C 9P 6E 6O 3 0
AC AE AP 2E 2P 7 AE AO AP JO 4E 4 1
KE TC TP 2C 2O 3 KE TC TE TP 6P 4 2
TO 9O 8O 7O 4O 6 TO 9O 8O 7O 5O 6 2

AO TP 7O 6O 4P 1 TP 9E 6O 2C 2E 2 2
AC AE KC 7C 7P 3 AC AE 7C 7P 5C 3 1
QP TC TO 5E 5P 3 QP TO 9O 5E 5P 2 1
KE KO 8C 3C 3E 3 KE 8C 6C 6E 4E 2 1
QC QO JC JO JP 7 QO JC TE 9C 8E 5 1

AP TC 9C 9P 8O 2 TC 9C 9P 8O 6E 2 1
QP JP 8C 7E 4O 1 AC QP TP 8C 7E 1 2
QE JC 8P 5O 5P 2 QE QO JC 8P 5P 2 2
AE KC JO 7C 7P 2 AE KC QC 8E 7P 1 1
KE JE TE 9E 4E 6 JE TE 9E 5E 4E 6 1

AC QC JE 9O 9P 2 AC TO TP 9O 9P 3 2
KE JO JP 5E 5P 3 KE JO TC 5E 5P 2 1
KC QE JC TE 9E 5 AO KC KO TE 9E 2 1
QO 8O 7P 3C 3O 2 AE 8C 8O 3C 3O 3 2
8P 7O 6E 5C 4E 5 QP 8P 7O 6E 4E 1 1

TO 9E 5C 5E 5O 4 TC TO 9E 8C 7O 2 1
QE TE 8E 7E 2E 6 QE TE 8E 7E 6E 6 2
AE AO KE 2C 2O 3 AO JE 9C 2C 2O 2 1
JP 8O 8P 3O 3P 3 JP TP 8O 4E 4O 2 1
AP KC KO 4C 4P 3 AP KC KO QO JO 2 1

AC AP KC TC 8P 2 AC KC TC 8C 8P 2 1
KO 9P 8O 2C 2P 2 AE 9E 9P 2C 2P 3 2
JE TP 7E 2E 2O 2 TP 9O 7E 6E 4E 1 1
KE QC JC TO 8E 1 KE QC JP TO 7C 1 1
QE QP TE 9C 5P 2 AO QE QP 9C 6P 2 2

KC JE TE 7O 6E 1 JE TE 9C 7O 6E 1 1
AE JC JP 8O 8P 3 AC AE KO JC JP 3 2
QC JO TC 9O 6O 1 QP JO TC 9O 6O 1 0
AO 4C 4O 2E 2O 3 AO QE 8E 4C 4O 2 1
TP 9E 8C 4E 4P 2 TO 4E 4P 3E 3O 3 2

KO QC JC TC 9E 5 KO QC JC TC 9E 5 0
AE KC TP 7O 5P 1 AP TP 5P 3P 2P 6 2
8P 7C 6P 5E 4O 5 8O 8P 7P 5E 4O 2 1
AC JE 9P 6E 5C 1 AC JE JP 6E 4P 2 2
9C 8C 8E 4C 4E 3 JO 8C 8E 6C 6O 3 2

AE KE TC 8O 8P 2 AC KE TC 2C 2P 2 1
QO 8C 7C 7P 6E 2 QO 8C 8E 7C 7P 3 2
QE 9C 9O 9P 5O 4 QC QE 9C 9O 9P 7 2
AO KO JC TP 6O 1 AO KC JC JO TP 2 2
AP JP TE TO 6P 2 AP QP TE TO 5C 2 2

AC 6C 6P 5E 5P 3 KO JC 6C 6P 5E 2 1
JO JP 9C 7O 7P 3 QO 9C 8C 7O 7P 2 1
KC QP TC 9P 8E 1 TC 9P 8E 7C 6O 5 2
AP QE JE TO TP 2 AP TO TP 4C 4P 3 2
AE KE 6E 3E 2E 6 AE QC 9O 6E 5C 1 1

KE JE 8C 4C 4P 2 JC JE 8C 7C 7P 3 2
AO QC 6C 6P 5P 2 QC QE JO 6P 5P 2 2
9P 8O 8P 3E 3O 3 JP 9P 8O 2O 2P 2 1
AC KO QP TP 6E 1 AC AP TP 6E 5C 2 2
AE KC TO 9C 7E 1 AE TO 9C 8E 6O 1 1

JE 9C 9E 8E 7C 2 JC 9C 9E 3E 3P 3 2
TC 8P 7P 6C 6E 2 TC TE 8P 6C 6P 3 2
AO KE QE JP 8O 1 AO KE JP 8O 7O 1 1
AC QC JO TO TP 2 AC QC JO TO TP 2 0
AP KO QO 5E 5P 2 AE AP QO 5E 5P 3 2

AC JE JP 2E 2O 3 AC QE JE 2E 2O 2 1
6E 5C 4C 3O 2C 5 QO TC 6E 6O 5C 2 1
KE QP JC 9E 8C 1 KE JC 9E 3C 3E 2 2
AE KC JO TP 4E 1 AE KC QC JO TP 5 2
AO AP 8O 4O 4P 3 AP 5E 5P 4O 4P 3 1

AE KE QE JE TE 10 AE AO JE JP TE 3 1
AC QP JC 2E 2O 2 AC JC 9C 3O 3P 2 2
9P 8E 5P 4O 4P 2 AP 9P 5P 4P 2P 6 2
JO 9E 9O 7E 7P 3 JO TO 9O 8O 5O 6 2
TC TP 8C 8P 7C 3 TP 8P 7C 4C 4E 2 1

QE 9O 8P 5C 5O 2 KC QE 9O 6C 6O 2 2
AC TO 9P 8C 7C 1 TE TO 9P 8C 7C 2 2
AO QO JO JP 9C 2 AO QO 9C 5E 5P 2 1
AE KO QP JC TP 5 AP KO QP JC TP 5 0
KE TC 7P 6E 4O 1 KE JE TC 7P 6E 1 2

QC QE 9O 6C 6E 3 QC QE TP 6C 6E 3 2
AE KO QO QP JP 2 AE KC KO QO QP 3 2
AC 9E 8O 3E 3P 2 AC 9C 9E 8O 8P 3 2
AO JC JE 8C 8E 3 AO KE JC JE TE 2 1
TC TO 7C 5C 5P 3 6O 5C 4O 3C 2O 5 2

AE JO 8C 8P 6E 2 AC AE JO 8C 8P 3 2
QC QP JC TC TO 3 QC JC TC TO 7E 2 1
KC 6O 6P 3C 3E 3 6O 6P 5O 3C 3E 3 1
TP 8E 8O 4E 4O 3 AO TP 8E 8O 6C 2 1
QE QO JE JP TE 3 QE JE JP TE 9E 2 1

KO 9P 8P 4C 4O 2 9P 8P 7C 4C 4O 2 1
QC QO JP 6O 6P 3 QE QO JP 6O 6P 3 0
AP KC 9O 5C 5O 2 7E 6E 5C 4E 3O 5 2
TP 5P 4P 3P 2P 6 TC TO TP 3C 3P 7 2
AE JC JO 9C 9E 3 AE KE JC JE JO 4 2

QC TP 9E 9P 5C 2 QC TP 9P 8E 8O 2 1
AC TC TE 9C 8P 2 AC TO 9C 5O 5P 2 1
QP 4C 4P 3C 3P 3 JP 4C 4P 2C 2P 3 1
QE 7C 7E 6C 6P 3 QE QO JE 7C 7P 3 2
AE AO KC KE JC 3 AE AO KE KO JC 3 0

AE AP JC 9P 6C 2 9C 6C 5C 4C 3C 6 2
KC TC TP 2E 2P 3 KC QC QP TO TP 3 2
AC KE QO 8C 7C 1 AC KE QO 8C 8P 2 2
7E 6O 5P 4P 3P 5 KO 7E 6E 6O 5P 2 1
QE JE 9E 8E 4O 1 QE JE TE 6P 4O 1 2

KO 9C 7E 4C 4P 2 AC AO 9C 4C 4P 3 2
AP 8E 8P 6C 5O 2 AP 8E 8P 4E 4O 3 2
KC 9E 9P 8O 7O 2 KC JP TP 8O 7O 1 1
KE QO TO 3C 3P 2 KE QE QP 3C 3P 3 2
JE JO TC 5C 5P 3 JE JO TC TE 7C 3 2

AC TC 4C 3C 2C 6 AC TC 4C 3C 2C 6 0
AE QC JO 6C 6P 2 QC JO 7O 6C 6P 2 1
AO JC JP 8C 8O 3 AO 9C 9O 8O 8P 3 1
KC KE JE TO 8E 2 KC QO JE TE 8E 1 1
AP KO 7C 7E 6E 2 7E 6E 5E 3E 2E 6 2

AC QO 9O 6E 6P 2 KE JC 9O 6E 6P 2 1
AP KO QC 7O 5P 1 AE AP KO JO 7O 2 2
AO KC 7E 7P 5E 2 KC TO 8O 7E 7P 2 1
QE JE 9E 8E 5C 1 QE JE TE 3E 3O 2 2
QP TP 8P 6C 6O 2 QP JP TP 6C 6O 2 2

KC KO 8C 6O 4O 2 KC KO 8C 4E 4O 3 2
AO KE QE TP 7E 1 AO QE TP 5C 5E 2 2
AC AE 7C 6E 4C 2 AE TC 7C 7O 6E 2 1
QP JE TE 9C 8E 5 JC JE TE 8E 8O 3 1
AP QC JO TO 9E 1 AP QO JO 2E 2P 2 2

TC 8C 8E 6E 6O 3 JC 9E 8C 6E 6O 2 1
QC QE 9C 5C 5O 3 AO QC JO 9C 8P 1 1
KE TE 7O 7P 6P 2 KC TE 7O 7P 6P 2 0
QO JE 9P 8O 7E 1 AE QO 9P 2E 2O 2 2
AP TP 9O 4C 4E 2 AP TO TP 4C 4E 3 2

AC 9O 8C 6E 6O 2 AC 8C 7E 6E 5E 1 1
JO 8E 8P 7C 7P 3 QP JO 8O 8P 7C 2 1
KC QC QO TE 9E 2 KC TE TO 5C 5O 3 2
AP KE JC TC 9C 1 AP KE KO JC TC 2 2
AE TP 9P 4C 4E 2 TP 4C 4E 2E 2O 3 2

KE QE 8C 8O 6C 2 KE 9P 8C 8O 6C 2 1
AC 7C 7P 4C 4O 3 AC TO 9C 4C 4O 2 1
AE JO TE 7O 6O 1 AE JO TE 9O 6O 1 2
AO AP KC QO 6P 2 AO AP KO 9E 6P 2 1
QC JC TP 3C 3O 2 QC JC TC TP 8P 2 2

JP TE 9C 8E 7C 5 KC TC TE 9C 8E 2 1
AC KO QP 9E 5O 1 AC QP JC 8C 5O 1 1
JO 6O 6P 2C 2P 3 AP 6O 6P 2C 2P 3 2
AE 9O 8O 7P 5P 1 AE JE 9O 8O 8P 2 2
KE QE 9P 4C 4E 2 KE QC TP 4C 4E 2 2

JO TE 9C 2C 2E 2 AC JO TE 9C 9E 2 2
QE QO TP 5O 5P 3 QE QO JP 5O 5P 3 2
QC QP 6E 6O 6P 7 QP 7E 7O 6E 6O 3 1
AO KC JC TO 8E 1 AP KC TO 8E 7P 1 1
KE KO 8C 4C 4O 3 KE KO JE 8P 7C 2 1

AP KC KO 3O 3P 3 KC KO 8E 8O 6O 3 2
TC 9E 4C 4O 4P 4 AE TC 9E 7P 5C 1 1
AO JC 9C 6E 6P 2 QE JC JE 6E 6P 3 2
TO 9O 6C 2C 2P 2 JO 9O 6C 5O 5P 2 2
QC QP TP 7C 7O 3 QC TP 9P 8P 7C 1 1

KC 7E 7P 3O 3P 3 TO 6C 6O 3O 3P 3 1
AC AE JE 5C 5O 3 AC AE 9E 5C 5O 3 1
QO JO 9O 7O 2O 6 QC QO JO 8E 8P 3 1
QE TC TE 8C 7C 2 JC TC 8C 7C 4C 6 2
AP JP 5P 4P 2P 6 AP KE KO 9C 5P 2 1

AP JE TE 6O 6P 2 AP TE TO 6O 6P 3 2
AO KO JO TC TP 2 AC KO QC JO TC 5 2
KC QP 8E 7P 4O 1 QP 8E 7P 3C 3O 2 2
KE JP 9O 7E 5P 1 KE QE QO JP 9O 2 2
9E 9P 8O 8P 7C 3 AE 8O 8P 6C 6E 3 1

KC 9E 9O 8E 6C 2 9E 9O 7P 6C 4P 2 1
AO KO QO JO TO 10 AO QO JO TO 8P 1 1
AE TC TE 7E 7O 3 AE TC TE 4C 4O 3 1
AP QP 9C 2C 2E 2 AP KE 9C 2E 2O 2 2
AC QC JC 9P 6P 1 AC 6O 6P 5E 5P 3 2

AC 8C 7C 5C 2C 6 8C 7C 6C 5C 4C 9 2
AO TC 9C 3C 3E 2 AO TC 9C 7P 5P 1 1
AE KC QC JC 8E 1 KC KO QC JC 8E 2 2
QP 9E 6E 6O 5O 2 QP JP 9E 6E 6O 2 2
AP KE QE JO TE 5 AP KE QE QO JE 2 1

AE 9E 5E 4E 2E 6 AE 9E 5E 4E 2E 6 0
QE QO JC TE 6C 2 KO QE QO TE 7E 2 2
AO KE JE JP 8P 2 AO KE JP 8E 8P 2 1
QP JO TP 2C 2P 2 QP JO TP 7C 7O 2 2
8O 6O 5O 3O 2O 6 8O 6O 5O 4O 2O 6 2

AE 9E 6P 3E 3P 2 AE AP 9E 7E 6P 2 2
AO QE 8E 4C 4E 2 AO 4C 4E 4O 4P 8 2
9O 8P 7P 6O 5E 5 AC KE KO 9O 8P 2 1
QO JE TE TO 9P 2 QO JE TO 9P 6E 1 1
QC JO TC TP 8O 2 QC JO TC TP 8O 2 0

AC KC QE QO TP 2 AC QO TP 9P 8P 1 1
AE KO JC 2C 2E 2 AE KO QC 7P 5O 1 1
AP JP 8O 7O 5C 1 AP 8O 5C 5E 5P 4 2
QP TO 7C 6C 6P 2 QP TO 9O 7C 6P 1 1
JO TC 9C 8E 7E 5 JO 9C 8C 8E 7E 2 1

AO JP 8C 8E 6O 2 AO 8C 8E 6O 5C 2 1
AC KC KE TP 7C 2 AC KC KE TP 9P 2 2
AP KO 9C 8O 7O 1 8O 7O 6C 5E 4C 5 2
JE TC 9E 8P 7E 5 QP JE 9E 8P 7E 1 1
QC QE QO JC JO 7 QC QO JC JO TO 3 1

KE QP JO JP 8P 2 KE QP JO JP TP 2 2
KO QC 9P 3C 3P 2 KO 6E 6O 3C 3P 3 2
AC QE TC 9C 7E 1 AC QE JC 5E 5P 2 2
AP TE 9O 8E 6P 1 AP TE 9O 2C 2P 2 2
AE KC JE 7O 7P 2 AE KC JE TO 8C 1 1

AE TO 9P 7E 7P 2 AE TO 7E 7P 5E 2 1
AC JC JO 6E 6O 3 JC JO JP TP 9O 4 2
AP KO QE QO TC 2 AP KO QP TC 8O 1 1
KC KE TE 8E 4P 2 KC QC TE 8E 4P 1 1
9E 8C 8P 4C 4O 3 9E 8C 7C 6C 5C 5 2

AO AP JP 9C 6E 2 AP JP 9C 2C 2P 2 1
KC QE QO QP TC 4 QE QP TC TE 6C 3 1
AC 9O 8E 7O 5C 1 JC TP 9O 8E 7O 5 2
AE 8C 8O 7C 7P 3 AE QC 9E 5O 5P 2 1
KO JE TO 7E 5E 1 KO JE JO 3E 3P 3 2

QE TE 7P 6E 6P 2 QE JE 6E 6P 4C 2 2
AC 9O 9P 8P 7C 2 9O 9P 8P 7C 6C 2 1
JC 5E 5P 4E 4O 3 KO TO 9C 5E 5P 2 1
KC KE TC TP 8E 3 AO KC KE QC 8E 2 1
7O 6O 5O 3O 2O 6 AE QP JP 7O 6O 1 1

QO JO TO 9O 5O 6 KC QO QP 4C 4O 3 1
AE AO TC 6C 6O 3 AE AO KO TC 7C 2 1
TP 9C 8C 2C 2O 2 QC QE TP 9C 5P 2 2
AP JC 7O 6E 5E 1 AP JC JP 3C 3P 3 2
KE 8E 7E 4E 3E 6 KE JE 9E 8E 7E 6 2

QE JO 9O 8C 6P 1 AE QC JO 9O 8C 1 2
KE 7E 5E 5O 5P 4 AO 9C 5E 5O 5P 4 2
KC KO QO JC 8E 2 KC KO JC TC 9E 2 1
QP TE TP 2C 2P 3 QP 7O 7P 2C 2P 3 1
JE JP 9P 8P 7C 2 AC JP 9P 8P 6O 1 1

AO QE QO TP 7E 2 AO QE 9O 7E 7O 2 1
JE JP TE 3E 3O 3 JE JP TE 3E 3O 3 0
QP 5C 5E 4E 4O 3 KE 7P 5C 5E 5P 4 2
AC KC 9E 9P 8O 2 KC 9C 9E 9P 7C 4 2
JC TC TO 8P 6P 2 JC TC 4C 3C 2C 6 2

AC AP QE TP 6O 2 AP TP 8O 3E 3P 2 1
KE QO 8P 7O 5P 1 KE QO 8P 4C 4P 2 2
QP JC JO JP 9C 4 QP JC JO JP 9P 4 0
AE AO KO QC 9E 2 AE AO KC KO 9E 3 2
JE TC TE 8C 7P 2 JE TE 8C 7C 7P 2 1

AE QE QP 4C 4E 3 AC AE QE 3C 3P 3 2
KE JE TP 9C 9P 2 KE TC TP 9C 9P 3 2
QO JC JP 9O 8O 2 KO JC JP 5C 5E 3 2
AO AP KC QC TO 2 AO AP KC JO TO 2 1
8C 7E 7P 3E 3O 3 8C 7E 7P 6E 6P 3 2

JO TE TP 6C 6E 3 KC 8E 8P 6C 6E 3 1
QC QO JE 9C 9E 3 QC QO QP JE 9C 4 2
AC AO TC 6P 5P 2 AC AE JP TC 6P 2 2
KE QE JC 8O 6O 1 KE QE 8O 7C 7P 2 2
AP 5E 5O 3C 3O 3 5C 4C 3C 2C AP 5 2

QO QP 8C 8P 7E 3 AC QO QP JP 8P 2 1
JC 9C 9E 5O 5P 3 9C 9E 8O 5O 5P 3 1
AE AO KC TO 9P 2 AE KC TO 9P 8E 1 1
TC TP 6O 5C 5E 3 TC TP 6O 5C 5E 3 0
KE QE JE 4C 4P 2 KE QC QE JE TE 2 2

AO KO QO JC TP 5 KO QO QP JC JP 3 1
5P 4C 3P 2P AC 5 AC 9E 8E 7O 6O 1 1
QE 7E 6C 6E 5C 2 TC TE 7E 6C 6E 3 2
AE AP KC QC 7C 2 AE KC 8O 7C 6P 1 1
KE 9C 8P 4E 4P 2 KE 8C 8P 4O 4P 3 2

AO QE JP TC TP 2 QE JP TC TP 8C 2 1
AC KE QC QO JO 2 AC QO QP JO 9C 2 1
KO JC 2C 2E 2O 4 9E 9O 2C 2E 2O 7 2
8E 8P 7C 5C 5E 3 9P 8P 7C 6C 5C 5 2
AE KC JE 3O 3P 2 JE TE TO 3O 3P 3 2

KC JE JO TE 9E 2 KC JE JO 6C 6E 3 2
AC 9C 8C 4C 2C 6 AC 9C 7C 4C 2C 6 1
AO QE QO JC JP 3 AO KE QO JC TC 5 2
AE KO QC QP 5P 2 QP 7P 6P 3P 2P 6 2
AP TO 9P 3C 3E 2 TO 9P 8P 6O 5C 1 1

QO JE JP TE 9E 2 JE JO JP 6C 6P 7 2
KC KO QE QP 5E 3 KO QE QP JC 6O 2 1
AC AP TP 7C 7P 3 AC AP KE 9C 7P 2 1
QC TC TO 8C 8P 3 TC TO 8C 8P 5C 3 1
AO 9P 8E 7E 7O 2 AE 8E 7E 6E 4E 6 2

AC AE 8E 8O 8P 7 AE JP 8E 8O 8P 4 1
QC 4C 4O 3E 3O 3 AP 4C 4O 3E 3P 3 2
KE TP 7P 4E 4P 2 KE JO TP 7P 6P 1 1
JC TC TO 9C 9O 3 JC TC TO 6C 6O 3 1
AO JE 9E 7O 6E 1 AO KC QO JE 7O 1 2

AC KC KO QC QO 3 KO QC QO 7C 5C 2 1
QE JP TC 9C 8C 5 TC 9C 8C 6C 4C 6 2
AP JC 8O 5E 5O 2 JC 9E 8O 2C 2P 2 1
JO 8E 7P 6O 6P 2 AE JO 8E 7E 7P 2 2
KE TE TO TP 9O 4 KE QP TO TP 9O 2 1

TP 9P 8O 7O 7P 2 AC 9P 8O 2C 2E 2 1
6P 5P 4C 3E 2O 5 TC 4C 4P 3C 3E 3 1
JC JP 9E 9O 8P 3 AE JC JP 5C 5E 3 1
QC QE QO QP 9C 8 AP QO QP 6C 6E 3 1
KE KO TE TO 8C 3 KE KO JO 8C 8E 3 1

AE KC JO TC 9E 1 AC JO TC 9E 8E 1 1
AP KE QO JC 8P 1 AP QO JC 7O 7P 2 2
QC QE 9P 7C 7E 3 QC QE 9P 4C 4O 3 1
AO 8O 6O 6P 5P 2 AO KO 8O 6E 6P 2 2
TE TP 9O 3E 3P 3 TE TO TP 8C 5C 4 2

JO 9C 9O 4O 4P 3 QC JP 9O 4O 4P 2 1
KE KO JE 9E 7O 2 AP KE TC 9E 7O 1 1
AO 6E 6O 5O 5P 3 AO 6E 6O 2C 2O 3 1
AC TP 3E 3O 3P 4 AC QE 8O 3E 3O 2 1
AE QO TE 9P 8P 1 AE KC QO TE TO 2 2

AE QE JE JO TC 2 AE QE QO JE JO 3 2
KE JC 7E 5O 5P 2 JC 9E 7E 5O 5P 2 1
AO KO TE TO 8E 2 KO TE TO 9C 7C 2 1
AP 9P 8O 2C 2O 2 AP 9P 8O 7O 4O 1 1
AC KC TP 8P 7P 1 AC KC QC TP 8C 1 2

AE QE JC 2E 2O 2 AE QE 9C 8P 7P 1 1
KE 5O 5P 4O 4P 3 AC KE 9P 7O 6O 1 1
QO 9E 8C 8O 5C 2 8C 5C 4C 3C 2C 6 2
AO QC TE TO TP 4 TE TO TP 3E 3P 7 2
JE TC 9O 8E 7C 5 JE TC 9O 8E 7C 5 0

JO TE 9C 8P 7E 5 9C 8P 7E 6C 5C 5 1
KO TC 9O 6P 5E 1 AO KO TC 2E 2O 2 2
JE JP 5O 3E 3O 3 JE JP 7C 7P 5O 3 2
AP QC JC 8E 6E 1 AP QC 8C 8E 5P 2 2
KC QE QP TO 9P 2 QE QP TO TP 9E 3 2

6C 5P 4O 3E 2O 5 KO TP 9E 5P 4O 1 1
AC AE TE 4C 4P 3 AC TE 6P 4E 4P 2 1
AO TO 9C 9O 8C 2 JP TO 9C 8C 7P 5 2
QC QO JC TC 9P 2 KC QC QO JC JO 3 2
KE QE JE 8E 7E 6 KE QE JE 8E 7E 6 0

AC KE QE 2O 2P 2 5O 4O 3O 2O AC 5 2
AO KO QO JO TP 5 AO KO TO TP 5P 2 1
QC JC TC 9C 8C 9 JC TC 9C 8C 5C 6 1
KC 7O 7P 6C 6P 3 AE 7O 7P 6C 6O 3 2
QP 9E 9O 8O 5E 2 QP 9E 9O 5E 4E 2 1

AE JC 9P 8E 6C 1 JC 6C 6E 4C 4O 3 2
QE JE 9E 7E 4E 6 QE JE 9E 5C 5O 2 1
AC KO TE TP 9C 2 AP KO TE TP 6O 2 1
JO TC 8C 7C 5E 1 KE JO TC 5E 5P 2 2
AO QO 8O 3O 2O 6 AO KC 8O 8P 6P 2 1

AC AO JC JE JO 7 AC KC JC JE JO 4 1
AP KE QO 9E 7C 1 AP QC QO 8C 7C 2 2
KO 4O 4P 2O 2P 3 QE JP 6P 4O 4P 2 1
TC 9C 8O 5C 5O 2 TC 9C 8E 7O 6O 5 2
AE TE TO 9O 7E 2 TE TO 9O 7P 4E 2 1

JC JP TC TO 6O 3 JC JP TO 2E 2P 3 1
KC QC JO 9C 9E 2 KC 9C 9E 7C 7P 3 2
AE QP 9P 7O 4O 1 AE QP TP 8P 7O 1 2
AP KE QO 7E 6P 1 AP KE KO TE 6P 2 2
JE 8C 6C 4E 4P 2 AC 8C 6C 5C 2C 6 2

AC KC TC 7C 7P 2 AC KC QC JC 7C 6 2
AP KO 7E 6C 6O 2 7E 6C 6E 6O 5O 4 2
AE AO KE TO 8C 2 AE AO KE QE 9C 2 2
JO TE TP 9O 7O 2 QO JO TE 9O 8O 5 2
QP JE 8P 6P 5E 1 QP JE 9E 8E 8P 2 2

AC KO TP 9E 8E 1 AC KO TP 9E 8E 1 0
AP KC TE 7E 7O 2 AP KC JE 7O 6P 1 1
8C 8O 6C 6E 6O 7 9C 8O 6C 6E 6O 4 1
AE AO QE JC TC 2 AO KE QE JC TC 5 2
QC JP TO 9P 8P 5 QC TO 9O 9P 8P 2 1

KC KE 9E 7O 7P 3 AE KC 7E 7O 7P 4 2
QC QE JP TE 6E 2 QE JE JP 2E 2O 3 2
AO 9C 9O 9P 6C 4 AC AO 9C 9O 9P 7 2
QO TO 8O 6O 3O 6 QO TO 8O 6O 5O 6 2
TP 8C 8P 4C 4P 3 KO 4C 4P 2C 2P 3 1

KC 9O 8E 8P 7E 2 KC 9C 8E 8P 7P 2 0
AE JC JO 2E 2P 3 JC JO TP 2C 2P 3 1
QO JE JP TC TE 3 QO JE JP TC TE 3 0
AC KO QE 8C 8O 2 AC KO QP 8C 6O 1 1
AP KE QC 3C 3P 2 KE 5C 5E 3C 3P 3 2

AO KC 8C 6O 6P 2 AO 8O 7O 6O 5O 6 2
8E 5C 5E 4C 4E 3 6C 5C 4E 3E 2P 5 2
QC QE 9E 7C 7P 3 QE JE JO 7C 7P 3 1
AC AE KE KO QO 3 AC AE KO QO TO 2 1
AP TE 9C 9P 7E 2 JC TC TE 9P 7E 2 2

KE TP 9P 8C 8P 2 AC TC TP 9P 8P 2 2
5E 4E 3O 2C AP 5 9E 7E 5E 4E 2E 6 2
KO QE JC JE 9C 2 KO QE JC JE JP 4 2
5O 4O 3P 2O AO 5 TE 4O 4P 2O 2P 3 1
KC 7C 6C 5C 4C 6 KC QC 7C 6C 5C 6 2

QE 9E 9O 6C 6P 3 9E 9O 8P 6C 6O 3 1
AC AP KC QC TO 2 AC AP KC QC QO 3 2
AO KE 8C 3C 3O 2 8C 3C 3O 2C 2O 3 2
QP JC JP TC 8E 2 KO JC TC 9P 8E 1 1
AE TP 9C 8O 5P 1 AE JO TP 2E 2P 2 2

KC KO JC 9E 8C 2 KC JC TC 9C 7C 6 2
AO 8O 7O 4O 2O 6 AO QC QP 8O 6E 2 1
AC AE JO TO 9O 2 AC JO JP TO 7P 2 1
AP KE QO 8P 6C 1 KE QO 8P 5C 5E 2 2
JE TE 7E 3C 3P 2 JE TE 8E 5O 5P 2 2

QC JC 7C 6C 4C 6 KE QC QO JC JO 3 1
KC JE TO 5C 5P 2 5C 5O 5P 2C 2P 7 2
AC QE JP 9C 8C 1 AC AE QE JP 9C 2 2
KO TC 9E 6E 6O 2 9E 8E 6E 3E 2E 6 2
AO 9O 8O 7O 4O 6 AP TE 9O 7E 7O 2 1

TO 8E 8O 6C 6P 3 AC 8E 8O 5C 5O 3 1
KE QC 5P 4E 4P 2 QC JC TC 4E 4P 2 1
AP QP TE 9E 7E 1 AP QP TE 9O 5E 1 1
KO JE JO 9C 9P 3 KO QO 9C 9P 8C 2 1
AE AO 8P 6E 6O 3 AE AO KC 6E 6O 3 2

AP KO 8P 4C 4E 2 AP 6C 6P 4C 4E 3 2
AC KE JO TC 9C 1 QO JO TC 9C 7O 1 1
AO TE 7C 6O 5E 1 AO JC TE 7C 7P 2 2
KC QC JP TP 8O 1 KC QC QP TP 9P 2 2
AE 9O 8C 6E 4P 1 9O 8C 6E 4O 4P 2 2

TC TO 7O 2C 2E 3 JE 7O 7P 2C 2E 3 1
KC JP TE 9E 9P 2 KC JP TE 8O 8P 2 1
AC QP TP 9O 7C 1 AC QP JO 2O 2P 2 2
JC 8C 5C 4C 3C 6 KO QO 8C 4C 4O 2 1
AP QC 6C 6E 5P 2 QC 9C 6C 3E 3O 2 1

QC JP TP 9O 8O 5 JP TP 3C 3O 3P 4 1
AC TC 6C 6O 5P 2 AC TC TO 8E 5P 2 2
QP JO 8P 7O 7P 2 AE 7O 7P 4C 4O 3 2
KO QO JC 9C 9E 2 KO QO 9E 9P 7E 2 1
AO AP KC 8C 6E 2 AO 8C 7C 2E 2P 2 1

AC AO JC 3C 3P 3 AC JC TC 3E 3P 2 1
QC QO QP TE 8E 4 KO QC QP TE 7E 2 1
AP 9O 8C 8P 7O 2 AP 9C 8C 8P 5O 2 1
QE JE TO 7C 7P 2 QE TO 7P 6O 5C 1 1
KE JO 8O 5E 5P 2 KC KE JO 2C 2E 3 2

AO KE JC 6E 6O 2 KC JC TO 6E 6O 2 1
AC AE JE TP 7O 2 AC AE JP TP 7E 2 0
AP 8E 3C 3E 3O 4 AP 3C 3E 2C 2P 3 1
QE 9O 8P 4E 4P 2 QE 9E 8P 4E 4O 2 0
KO QC TC 5E 5P 2 KO QC QO JO TC 2 2

AE QO JE 7O 7P 2 AE QO QP 7O 7P 3 2
AC KC KO JO 4C 2 AC KC KE KO JO 4 2
TC TE TO 2C 2P 7 JP TC TE TO 8P 4 1
QE 9P 8O 5C 5O 2 AP QE 9O 9P 8O 2 2
9C 8C 7C 6O 5E 5 9C 8C 7C 6C 5E 5 0

KC QP TE TP 7C 2 TE TP 7C 6C 6O 3 2
AO KO TC TO 9O 2 AO KO TO 9O 8O 6 2
AP JE 7E 5E 5O 2 AP JE 9P 5E 5O 2 2
AE JC JO 9C 7O 2 AC JC JO JP 9C 4 2
3C 3E 3P 2C 2O 7 QC QO 8E 3C 3E 3 1

AO KO QO 7O 3O 6 QO JP 7O 3E 3O 2 1
QP JC TC 7C 7E 2 AP QC QP 7C 7E 3 2
AC KC TE 8E 8O 2 AC KC 8E 8O 7P 2 1
JE 9C 9E 8C 8P 3 JE JO 9C 8P 6E 2 1
AE TP 9P 6C 5C 1 TO TP 9P 4O 4P 3 2

KE 9C 8O 6O 6P 2 AC KE TC 6O 6P 2 2
7P 6C 5E 4P 3P 5 TE 7C 7O 5E 4P 2 1
KC QC JC 4C 3C 6 QC JC JE 9O 5C 2 1
AE QE 9E 6E 2E 6 AE TO 8C 5O 5P 2 1
AO TP 8P 7E 4O 1 AO TP 9P 8E 4O 1 2

TE TP 8E 8O 5E 3 TE 9E 8E 6E 5E 6 2
AC QC 9P 7E 5P 1 AC QC 7E 4E 4O 2 2
QE JO JP TO 9O 2 QE JE TO 9O 8C 5 2
AE AO JC 6C 6O 3 AE KE JC 6C 6O 2 1
KC KO QO QP 4C 3 KC KO QO 7C 7O 3 1

KC QE QP 5C 5P 3 KC QE 5C 5O 5P 4 2
QO JE JO 4E 4P 3 AC JE JO 4E 4P 3 2
AO KE JC TO 7P 1 AO KE JP TO 7P 1 0
KO QC 9P 8C 8E 2 KO QC 9P 8E 7O 1 1
AE AP TE TP 9E 3 AE AP TE 9E 8O 2 1

QP TE 8E 3C 3O 2 QP TE 9E 3E 3O 2 2
AC KC TC 6C 2C 6 AC TC 8C 6C 2C 6 1
AE KE QE QO JO 2 KE QE QO 7E 7P 3 2
KO JC 6E 5O 5P 2 AO KO 9C 5O 5P 2 2
9P 8P 7O 6O 5E 5 QC TP 7O 6O 5E 1 1

AO AP KE QO QP 3 AE AO AP KE QO 4 2
JO 9E 8P 7C 5E 1 JO 9E 9P 5E 5P 3 2
AC 9C 8C 4C 3C 6 AC QE JP TP 9C 1 1
7E 6C 5C 4O 3P 5 TC 7E 6C 6E 5O 2 1
KC JC TE 9O 8O 1 KC QC TE 9O 8O 1 2

JC 9P 7P 2E 2P 2 JC 9P 7P 5C 5E 2 2
AC KC KO QE JE 2 AC KC QE 6E 6O 2 1
7E 7O 4C 4E 4P 7 AE 8O 7E 4C 4E 2 1
JO JP TP 9C 8E 2 QC JO JP TO 8E 2 2
KE QO TE 9E 7C 1 AP KE QP TE 7C 1 2

9O 8P 7O 6O 5O 5 KO 9O 9P 8O 8P 3 1
AO 5C 5E 3O 3P 3 QC QP 9C 5C 5E 3 2
AP TC TO 7C 6C 2 TC TO 7C 4O 4P 3 2
AE JC JO TE TP 3 AE JO TE TP 7P 2 1
KE JP 8E 7E 6P 1 KE QO 8E 2E 2P 2 2

QP JC JO TE 8P 2 JC JO 8P 7C 6C 2 1
AO 7O 6E 2E 2P 2 AO 9O 8C 2E 2P 2 2
AC QC TC 9C 5C 6 KE QC TC 9E 8O 1 1
AE AP KC QE QO 3 AE AP QE QO TO 3 1
KO JE 9P 6O 4O 1 KO 9P 3E 3O 3P 4 2

QE 9O 8C 2C 2P 2 KO QC QE 9O 8C 2 2
AP JO 3C 3O 3P 4 JE JO 3C 3E 3P 7 2
AC KE QO TO 6E 1 AC QO TO 6C 6E 2 2
QP TE 9C 7E 6P 1 TE 9C 9E 8E 6P 2 2
JC JP 7C 7P 5O 3 AO 8O 7C 7P 5O 2 1

JO 7C 7E 6E 6P 3 JO 6E 6P 5C 5P 3 1
KO QO JE TE 8C 1 KO QO JE TE 9E 5 2
AE AP QE 6C 6O 3 AE AP JC JP 7O 3 2
AC AO QP 8E 8O 3 AO QP TP 8E 8O 2 1
7P 4C 4E 3C 3O 3 KE 9O 7P 3C 3O 2 1

KC TC 8C 5C 5P 2 TC 8C 8P 7P 6O 2 2
AO QO JC TE 9P 1 AC AO QC QO JC 3 2
8E 7C 6E 6P 4E 2 9C 8E 6C 6E 6P 4 2
AP JP TP 3C 3E 2 AE JP 9E 3C 3E 2 1
KO QE JE 5E 5O 2 QE JE JO 8O 7E 2 2

AO JC JE 4E 4P 3 AO AP JC TE 5E 2 1
QP 8E 6C 6O 6P 4 QP TP 8E 6C 6O 2 1
AC KO 9C 8O 7P 1 AC KC KO 9C 6E 2 2
QE 9E 9O 3C 3P 3 QE 9O 7E 3C 3P 2 1
KE JP TO 9P 7C 1 QO JO JP 9P 7C 2 2

AP JE 7E 7O 5C 2 5C 4C 3C 2C AC 9 2
8E 7C 6C 5E 4P 5 9O 8E 7C 6C 5E 5 2
AO JC JP 3E 3P 3 AO QO JC JP TC 2 1
8O 5O 4O 3O 2O 6 KC QC 8O 5O 5P 2 1
KE TE TP 6O 6P 3 AE KE QE TE 9E 6 2

AO AP KO QP TC 2 AO AP KC TC TP 3 2
6O 5C 4C 3O 2O 5 AC 9O 6O 5C 5P 2 1
AE QE 9E 4E 3E 6 JE 9E 8O 6C 5O 1 1
JC JP TE TO 7E 3 KE JC JP TE 8C 2 1
QO 7O 6E 2C 2P 2 QO JO 8E 2C 2P 2 2

KE KO JP 8C 8P 3 KE KO JP TE 8P 2 1
AO JE 9P 6O 5E 1 AO QO JE 6O 5C 1 2
AC AP QP 7C 7E 3 AP QE JC 7C 7E 2 1
AE TC TP 6C 4O 2 AE JO TC TP 9C 2 2
KC QC 9O 5O 5P 2 KC QC 9O 8O 7O 1 1

KE TE 8E 7E 2E 6 KE QP 8E 6P 4C 1 1
KO QO JO 4O 2O 6 KO QO JO 9O 4O 6 2
AP JC TO 9E 6E 1 AP JC TO 8O 7O 1 1
KC QC JE TC 9P 5 KC QC JE TC 9P 5 0
AO QE TP 5C 5P 2 AE AO QE TP 6O 2 2

QE 7C 6P 2O 2P 2 KO QE 7C 3C 3O 2 2
AO KC QP 9E 6C 1 AO KC QP 5C 5E 2 2
QC JO 9C 8E 7E 1 QC JO 8E 7E 6E 1 1
AE TC TE 8C 7P 2 AE TC TE 5O 5P 3 2
TO TP 9O 9P 8O 3 JP TO TP 9O 9P 3 2

AP QE QP 2C 2O 3 QE QP JO 9E 7E 2 1
KO QO JE TE 8C 1 KE KO JE 8C 8O 3 2
AO QC 3C 3O 3P 4 AO QC 9C 8E 5P 1 1
KC JC TC 6C 6E 2 9O 8P 7P 6C 5C 5 2
AE JP 9P 4C 4P 2 AE JP 4E 4O 4P 4 2

KO QO 7C 5P 4C 1 KO 7C 7E 2C 2P 3 2
AC QP JO TE TO 2 AC 9C 6C 5C 3C 6 2
AE AP KC TP 7P 2 AE KC TP 7P 6O 1 1
JE TC 8O 8P 7O 2 TC 9P 8C 8O 8P 4 2
9E 8E 6E 5E 4E 6 QC JC JP 9E 8E 2 1

AC QC TP 8O 4O 1 AE KC QC TP 8O 1 2
KE 5C 5O 2C 2O 3 KE KO 5C 5O 3E 3 2
JP 6C 6O 4C 4E 3 JP 9C 9O 6O 5P 2 1
QE TO 6E 6P 5E 2 AP QE TO 7O 6P 1 1
AO QP 7C 7E 7P 4 QP 8E 8P 7C 7E 3 1

JC TC 9O 6O 6P 2 9O 9P 6O 6P 5E 3 2
QO 8O 8P 7C 7O 3 TP 8O 8P 7C 7P 3 1
KC JO 6C 6E 5O 2 KC JO 9E 8E 5O 1 1
AE QC 9C 5C 5P 2 AE QC JE 8C 7E 1 1
AP KE QP JP TE 5 AC AP KE KO QP 3 1

AE QE TO 6C 6P 2 AE 7E 7P 6C 6P 3 2
QC 9P 8C 8E 8P 4 AC QC JC 8E 8P 2 1
KC TP 9E 5P 4C 1 TE TP 5P 2C 2P 3 2
AO JE JP 4E 4P 3 AO JE JP 2E 2O 3 1
KO QO QP 9C 9O 3 KO QO TC 9C 9O 2 1

AE 7P 6E 2E 2O 2 7P 6E 5E 4P 3O 5 2
9O 8P 7C 6C 5P 5 AO AP 9C 9O 7C 3 1
JC TC TP 9E 9P 3 JC TO TP 6O 6P 3 1
JO JP 8O 7O 5C 2 JO 8O 4C 4E 4O 4 2
KC KO QC QP JE 3 KC KO QC QO 8C 3 1

JE 8O 8P 7O 7P 3 JE JP 8O 7O 7P 3 2
KC QE TE 8C 6C 1 KC KE QP 8C 6C 2 2
TO 9O 6O 4O 2O 6 AC AE QC 2C 2O 3 1
KO TP 9P 2E 2P 2 KO JO TP 9P 4E 1 1
AP 7C 7E 5C 5P 3 AP 5C 5P 3C 3P 3 1

AE JO JP 6C 6O 3 AE KO JO JP 7P 2 1
AP QO 9C 7C 5P 1 AC AP 9C 2C 2E 3 2
TC 8O 7O 3C 3P 2 TC 8C 8O 3C 3P 3 2
AO JC 9E 5C 5E 2 AO 9E 9O 7E 6E 2 2
KC QC QP TO TP 3 KC QC TO TP 9P 2 1

AO KC QO TE 4O 1 AO KC KE 2C 2P 3 2
AC KO 7E 6C 6P 2 AE KO 6C 6P 5C 2 1
QC JC TC 9C 6E 1 JC 9C 6E 2E 2O 2 2
JE 8C 7C 7P 5E 2 AP JE 8C 3E 3O 2 1
QP JP TP 9E 8E 5 QE QP JP 9E 9P 3 1

AC TO 6P 2E 2P 2 QP TO 6P 3E 3P 2 2
AO JO 9P 7E 7P 2 JE JO 7E 7P 5P 3 2
AP KE QO 9C 8P 1 KE JP 9C 8P 5C 1 1
JC TE TP 7C 6O 2 KO JC TE TP 7O 2 2
AE KC QC QE TC 2 AE KC QC QE TC 2 0

AC AE 8E 3C 3P 3 AC AE JE 8E 5O 2 1
KC QO 8P 7O 6C 1 KC QC 8C 8P 7O 2 2
QP TC TE 9E 7E 2 QP JP TC TE 8O 2 2
KE JC TO 7C 6E 1 KE QE JC 7C 6E 1 2
AO JO 9O 6O 2O 6 KO JO 9O 6O 3O 6 1

AE KC TE 9O 7E 1 AE JE TE 9O 8C 1 1
QC JP 8E 6C 6E 2 QC JP 8E 7C 6E 1 1
JC 9E 9P 4E 4O 3 KO JC TC 4E 4O 2 1
AC QP TP 6O 4C 1 AC QE QP TP 9C 2 2
8O 7O 5O 3O 2O 6 AO JO 8O 7O 5O 6 2

AC AO KE 5C 5E 3 AO KE JC TC 6C 1 1
QC QO 5O 3C 3E 3 QC QO 8C 8E 4C 3 2
9C 9P 7O 2C 2P 3 QE 9C 9P 7C 7O 3 2
AE KC JP 9E 9O 2 AE KC JO 9E 9O 2 0
7P 6E 5P 4E 3P 5 6E 5P 4E 3P 2E 5 1

JC JP 9O 6C 4O 2 AC QO JC JP 6C 2 2
QC TC 5C 3C 2C 6 QP TC 7P 6O 5C 1 1
AE KC KE 8E 8P 3 AE KE 8C 8E 8P 4 2
QE 7E 7O 4E 4P 3 QE 9C 9P 8O 7E 2 1
JE JO TE TO 9E 3 AO JO TO 5O 2O 6 2

QC QP JO TE 9E 2 QC JC TE 9E 6P 1 1
AC JP 9O 5C 5O 2 AC JP 7C 6O 5C 1 1
AP JE TC TP 8E 2 JE TC TP 2C 2E 3 2
7O 6C 5P 4O 3O 5 9C 7O 7P 3O 3P 3 1
AE KC QE 9P 8P 1 AE KC KO QE TO 2 2

JE TE 6E 5E 3E 6 AC JE 8C 6E 5E 1 1
KE JC 9O 8E 7E 1 JC 9O 8E 7E 7P 2 2
QC TC 9E 9P 5O 2 AE QE TC 9P 5O 1 1
AO JO TO 8O 6O 6 KC JO TO 8O 7O 1 1
AP KO 9C 8P 5C 1 AP KO QO JP 8P 1 2

AC 7E 6O 6P 5C 2 JE 7E 6O 6P 5C 2 1
8E 7C 6E 5E 4O 5 QE JP 8E 7C 7P 2 1
AO KC KE 8C 8O 3 KC KE TP 8C 8O 3 1
TC TE 9C 9O 9P 7 9C 9O 9P 2C 2E 7 1
AE QC JO 3C 3O 2 AE JC JO 3E 3O 3 2

KO 8C 8O 8P 7C 4 KO 8C 8P 7E 5C 2 1
TE 9O 8E 3C 3P 2 QO 9P 8E 3C 3P 2 2
AO AP JO 9C 9E 3 AO QC JO TC TO 2 1
AC KC JC JE 7P 2 JC JE 7P 3E 3O 3 2
AE KE QE JP TP 5 KE QE JP 2C 2O 2 1

9C 9E 9P 7C 7P 7 AE TP 9C 9P 7P 2 1
AC QE JC JP 4P 2 AC KO QE JC TE 5 2
AO KE 9O 3C 3E 2 AO KE JE 9O 6P 1 1
QP JO TO 6C 6E 2 QP 6C 6E 2E 2O 3 2
KC QC 8C 4E 4O 2 KC QC TC 4E 4O 2 2

AC 4C 4E 3C 3O 3 AO 9O 6C 4C 4E 2 1
KO JP TO TP 9C 2 KO JP TO 5O 5P 2 1
AE QO JO 7C 7E 2 AE AP QO 7C 7E 3 2
TC 9E 8P 7P 5C 1 TC 9E 8C 7P 6P 5 2
KC QP JC JE 9P 2 KC QC QP 6E 6O 3 2

9E 9P 6E 6O 6P 7 AE 9E 9P 6O 6P 3 1
AO AP 8P 5O 5P 3 AP TP 7P 5O 5P 2 1
AC JC JP 8E 8O 3 AC QP 8C 8E 8O 4 2
KC QC TC TE 7C 2 KC QC TC TE TO 4 2
KO JE JO 2C 2P 3 KO QO JE 9C 5C 1 1

KO QC QO 9O 8C 2 KO QO JP 7C 7O 2 1
QE 4E 4O 2E 2P 3 KE QE TE 4E 2E 6 2
KC JO 9C 3E 3P 2 KC JC JO 9E 6C 2 2
AE AP JE 8E 8O 3 AC AE AP QP JE 4 2
6O 5E 4C 3O 2O 5 AO 8P 6O 4C 4P 2 1

6E 5P 4O 3P 2O 5 QE JE 7E 5P 4O 1 1
8C 7P 6P 5E 4E 5 AP TO TP 8C 8P 3 1
KE KO 8O 2E 2P 3 AC KE 8E 2E 2P 2 1
AE QC QP 9E 9P 3 AE AO QC QP JC 3 2
6C 5O 4C 3O 2C 5 TE 6C 6O 5C 5O 3 1

TP 9O 6E 4O 4P 2 AE TP 6E 4O 4P 2 2
KE 7C 7O 5E 5P 3 AC KE JP 5E 5P 2 1
TO 9C 8O 7P 6P 5 KO QO TO 9C 8O 1 1
AP QP JO 9E 5C 1 AO AP JO 4C 4E 3 2
KC QE TC 8C 8P 2 KC QE TC 8C 8E 2 0

TO 8C 8O 6E 4P 2 TO 9E 9O 6E 4P 2 2
AC AO 9C 2O 2P 3 AC 9C 7C 5E 5P 2 1
JC JP TP 6C 6P 3 QC JC JP TC TP 3 2
AP KC QP 8E 8P 2 AE AP QP TE 8E 2 2
KE QE JE 9P 7P 1 KE QE 9P 3C 3O 2 2

AO JO TC TE TO 4 AE AO TC TE TO 7 2
5E 4P 3E 2E AC 5 KE 8P 6P 5E 5O 2 1
9E 8E 7E 6E 5C 5 JE 9E 9O 5C 5P 3 1
QO 7O 6O 4O 3O 6 QE QO 7O 7P 4O 3 1
KC QP JP TP 9P 5 AP QP JP TP 9P 6 2

AO KO QO 9O 8O 6 AO KE KO 9O 8O 2 1
AE AP KC 3C 3O 3 3C 3O 2C 2E 2O 7 2
AC 5E 5O 4E 4P 3 AC 5E 5O 4O 4P 3 0
JO 7O 7P 5C 5P 3 JO TC 8P 7O 6C 1 1
QC JC 9E 8C 8E 2 JC 9E 9P 8C 8E 3 2

KC QO JC 3C 3O 2 KC QO 8C 3C 3O 2 1
9E 8O 7O 6O 5E 5 9E 8E 7O 6O 5E 5 0
KO QC JE TE 6P 1 QC JE JO TC TE 3 2
AC AP QE TP 8P 2 QE TP 8P 4O 4P 2 1
AE KE QP JP 9P 1 AE QP JP 9C 7C 1 1

AC QO JC 6C 6P 2 AC QO JE 6C 6P 2 0
QC QE TE 9O 8O 2 QE TE TO 8E 8O 3 2
KE KO JO TC 9E 2 KE KO JO 9E 7P 2 1
AP QP 2E 2O 2P 4 AO AP 2E 2O 2P 7 2
TP 9C 9P 8C 8P 3 JP TP 9C 8C 8P 2 1

AO TE TP 7C 7O 3 AO TE TP 7C 7O 3 0
AP 9E 8O 6E 6P 2 8C 8E 8O 6E 6P 7 2
QO QP JO TC TO 3 QO QP JO JP TC 3 2
AC KO QC JE 8P 1 AC QC 8P 6C 5C 1 1
JC 4C 4P 2C 2E 3 AE 7P 6O 2C 2E 2 1

JP TP 9O 8O 7O 5 AP JP 9C 9O 8O 2 1
AC AO KE KO QP 3 AC KE KO QP TO 2 1
QC TC 8C 7E 6C 1 QC TC 7E 6O 4O 1 1
6P 5C 4C 3O 2O 5 6P 5C 4P 3O 2O 5 0
AE QE JE 4E 3E 6 AE KC QE 8P 7P 1 1

AP 7C 7P 5O 5P 3 AC AP QO 7C 7P 3 2
QP 3C 3P 2O 2P 3 QP JP 8O 3C 3P 2 1
KC QC QE 8C 8E 3 AE KC QE 8C 8E 2 1
KE TC TO 9C 8P 2 TC TO 9C 9O 8P 3 2
AO JO TE TP 9P 2 AO JO TP 9P 5C 1 1

KC QC 8O 3E 3P 2 QC 8O 6C 4E 4O 2 2
JP 9E 8E 8P 7C 2 JO JP 9E 7C 4P 2 2
AC KE KO 2C 2O 3 AO KO TO 5O 2O 6 2
AE TE 9C 6O 6P 2 AE TE 9C 7O 6P 1 1
AP QE TC 9O 9P 2 AP QO TC 5E 5P 2 1

AC AO AP JP TO 4 AO JP TO 7C 7O 2 1
JO TP 9C 5O 5P 2 TP 9C 8E 7E 6E 5 2
AE QE JE TE 9E 6 AE QE JE TE 4E 6 1
KE TC 7P 6O 4O 1 TC 3C 3O 2E 2O 3 2
KO QO 8O 8P 5C 2 KO QP 9O 8P 5C 1 1

KC 9E 9P 3C 3P 3 KC KE 9E 9O 9P 7 2
AE AO KO QE 5C 2 AO QE QO 2C 2E 3 2
QC QP JE 4E 4P 3 QP JE 4C 4E 4P 4 2
AC JO 8C 8E 8P 4 AC JP 9C 8E 8P 2 1
AP JC TC 7E 7O 2 AP JC TC TO 6P 2 2

9E 8C 8P 6O 6P 3 8C 7E 6O 5P 4P 5 2
QC 9P 8E 7P 4C 1 AC QC 9P 3C 3P 2 2
AE QO QP 5C 5E 3 AE KC QP 5C 5E 2 1
KE TE TP 6C 6E 3 JO JP TE 6C 6E 3 2
AO QE JE 7C 7O 2 AO QE JC JE 8O 2 2

5C 4E 3E 2E AO 5 6E 5C 4E 3P 2E 5 2
KE KO JP 7E 5E 2 KE KO JP 4C 4P 3 2
TP 9O 8P 6C 5O 1 TE TP 9O 8E 6C 2 2
JE JO 9E 8C 8O 3 AC 8C 8O 7C 7O 3 1
AP QP 7P 6P 2P 6 AE QO QP 2C 2P 3 1

AE QO 2C 2E 2O 4 AC AE QO 3E 3P 3 1
AO QC 8C 4E 4P 2 AO QC TP 8C 5E 1 1
TC TO 8E 8O 5C 3 KO TC TO 5C 5O 3 1
9P 8P 7P 6P 5P 9 KC KE 9P 7P 6P 2 1
AP JC JO 9C 9E 3 AP JC JO TE 9C 2 1

KE KO 9E 8O 5C 2 KO JC 9E 8O 5C 1 1
QC 7C 7E 6E 6O 3 QC JP TE 6E 6O 2 1
AO QO TO 9O 7O 6 AO QO JE TO 9O 1 1
QE JO 6C 3C 3O 2 AP QE JO 8E 6C 1 1
QP TC TP 9C 8C 2 KC TC TP 8C 8P 3 2

-1 0.00E+00
1 1.57E-01
2 4.04E-01
3 2.40E-01
4 3.70E-02
5 6.40E-02
6 7.10E-02
7 2.20E-02
8 1.00E-03
9 3.50E-03
10 1.00E-03

0 40
1 474
2 486
