KE 9P 5E 4C 4O 2
AO KO QO 7O 6O 6
AE AP JE TP 9O 2
AC JC 9C 7P 5O 1
JO TO 8C 8O 6C 2
QC QP TC 8E 4P 2
9E 8P 7E 6E 5P 5

QC JC 7C 6C 5C 6
KC 9P 8P 6P 4O 1
AC TP 9E 8C 8E 2
QE TE 9C 9O 7O 2
KE QO TC 8O 4E 1
AE AO JE JO JP 7
AP KO QP 5E 5P 2

AE QE 9C 9O 7P 2
KC KE JC TC TO 3
KO QC JE 4E 4O 2
AC AO 8E 8P 5E 3
AP TP 7E 3C 3P 2
QP JO JP 9P 8C 2
QO 7O 6O 5O 3O 6

AC TE TO 8C 8E 3
AE KC QP TP 6O 1
7E 6E 5E 4E 3E 9
AO JO JP 3C 3P 3
AP KE QE 9O 7P 1
QO 9C 8O 6C 5C 1
QC JC TC 8P 7C 1

AC KE QP 4C 4E 2
AE QO 9P 8O 8P 2
AP KO TO 6E 6O 2
QC JE 9C 7P 5C 1
JP TP 9E 5E 5P 2
QE JC JO 6C 6P 3
AO TC 8C 3E 3P 2

KO TC 9C 4E 4P 2
JC TO 9E 3C 3P 2
AO 8C 8O 2E 2O 3
QC QP 9O 9P 6C 3
AC AP KC JE JO 3
AE KE QE QO 8P 2
7O 7P 6O 6P 5O 3

AC TE TO 2C 2O 3
JE JO 9E 9P 8C 3
AO QO QP TC 9O 2
QE 9C 7E 5C 5E 2
KE TP 7C 4C 4O 2
KC KO QC JC 6O 2
AE AP 6P 3E 3P 3

KC QO JP 4O 4P 2
AC KE QP 8P 6E 1
AP KO TC 3E 3O 2
9O 7E 7P 6O 5C 2
AE 9P 8O 7C 6C 1
JC JO TO TP 9C 3
JE TE 9E 8E 5E 6

QC QE TP 4C 4P 3
JP 9O 9P 8O 6P 2
KE QP 7P 6E 6O 2
AC JO TO 9C 8P 1
KC JC 7C 6C 5C 6
AE AP KO 8C 8E 3
JE TC TE 3O 3P 3

AP JE 9E 3C 3P 2
QC QE QP JP 9P 4
AC JC JO 6C 6P 3
KC KE 8C 2C 2P 3
9O 8E 7O 4C 4P 2
AE QO TC TE 9C 2
AO TP 7E 5O 5P 2

AC KE QP 5C 5E 2
KO JC JP 7E 7P 3
AO KC QE JE TP 5
AE 9E 9P 3C 3O 3
AP QO TE 6C 5O 1
TO 8O 7O 4E 4P 2
TC 9C 9O 8C 8P 3

QE TE 9P 4E 4P 2
KE 9C 6E 4C 4O 2
JO TC TP 8C 8E 3
KO QP JC 3O 3P 2
AC AO QC 7O 6O 2
QO JP 9E 9O 8O 2
AE AP KC JE TO 2

JC 9E 8C 7C 7O 2
AP TP 8P 6P 5P 6
QC TE 9O 3E 3P 2
AO JE JP 9P 8E 2
AC KC 9C 6C 3C 6
AE TC 8O 2E 2O 2
TO 6O 5O 4O 3O 6

AC JC JP 8O 5C 2
KE QC QE QO TC 4
KC 8C 7C 4C 2C 6
AE QP TO 8E 7E 1
5P 4E 3E 2E AO 5
JE TE 7P 3O 3P 2
AP JO 7O 6O 6P 2

AC JP TO 4C 4E 2
KC QC QP TE 6O 2
JC JE TC 2C 2P 3
AE QE 9E 3E 2E 6
KO 9O 5C 5E 5P 4
AO KE JO 9P 8E 1
AP QO 8O 8P 7P 2

KC QO JP 8O 7E 1
AE QC JO 8C 8P 2
JC TC 9C 4C 4E 2
AP QP 7O 2C 2P 2
AC TE 6E 6P 5E 2
KE QE JE TP 9O 5
AO TO 7C 7P 6O 2

QO 8E 6P 2C 2E 2
AC JE TO 9C 5O 1
AE JC 9E 8C 7P 1
KC KE QE TC TE 3
AO QC QP JO 7C 2
6C 6E 6O 3C 3O 7
AP 9P 8O 7E 7O 2

TC TE 8C 5C 5O 3
TO 8E 8O 3C 3O 3
AC AE QE JC JE 3
KC 9E 8P 2C 2E 2
QC 4E 4P 3E 3P 3
AO KE JO 6E 6O 2
AP KO QO 9C 9P 2

7C 7E 7O 3E 3P 7
AC KE QC 9E 8E 1
AP KC JE TE TP 2
AE 5O 5P 4O 4P 3
KO QP JO JP TC 2
QE JC 8C 6C 4E 1
AO 9C 9O 6E 6O 3

QP TO 7P 6O 6P 2
KO QO JP 9P 8P 1
AC QE 8O 3C 3P 2
AO QC TP 9E 9O 2
JE JO TE 2E 2O 3
KC TC 9C 7C 6C 6
AE AP JC 5O 5P 3

AC KC 6E 6O 6P 4
AE TE 9C 9O 7C 2
QE JC TP 9E 8P 5
QP JO 9P 2E 2O 2
TC 8C 8E 7E 7P 3
QC QO JE 8O 6C 2
AO KO 5O 4O 3O 6

AO KC QO 8E 8O 2
AC AP KO TO 7C 2
QC JE TC 9P 8C 5
JP TP 6P 5C 5P 2
9E 9O 2E 2O 2P 7
KE 9C 8P 7P 5E 1
QE JC TE 6C 5O 1

JC TP 7C 6O 5O 1
QO 3E 3P 2E 2O 3
AE KO 9C 8C 8P 2
AP TC 9E 9P 6P 2
AO QC QE 7E 7P 3
QP TE TO 9O 8O 2
AC KC KE JE 6E 2

KO QE JO TC 8P 1
AP QO TP 9O 4P 1
QP JC JP 9E 9P 3
AC KC KE 9C 8O 2
AE AO QC 7P 6O 2
TE TO 8C 6E 6P 3
JE 4E 4O 3E 3O 3

AC AO QP TP 9P 2
KE JP 4E 4O 4P 4
QO TC TE 9C 5P 2
KO QC JC 2E 2O 2
AP KC 7E 7O 6E 2
AE 9E 9O 8E 8O 3
QE JE 8P 6P 5O 1

KE JC JO 6C 6O 3
KC 9O 8P 6E 5C 1
QO TO 9P 7C 6P 1
AO KO QE 4E 4P 2
AE 8C 7O 7P 5P 2
AP QP JP TP 2P 6
AC QC 8E 5E 5O 2

AC AE QC TC 5E 2
9C 9E 8C 6O 5P 2
AO AP KC JO TE 2
KE QE TP 2E 2P 2
JE TO 8E 6C 5O 1
KO QO 9O 3C 3P 2
QP JP 9P 8P 6P 6

AO QC JE 7C 7O 2
KC 8C 8E 4C 4E 3
KE QE 6C 6E 6P 4
AE 9C 9O 7E 7P 3
TC 9P 2E 2O 2P 4
JC JP TP 8O 8P 3
AP QO QP JO TO 2

QE TC 3C 3O 3P 4
KE KO 8C 8O 6P 3
9C 8E 7P 6O 5O 5
QP JC JO TE 9O 2
AE AO QC QO 8P 3
AP TO TP 9E 9P 3
KC JE JP 7C 7E 3

AE QP TP 5C 5O 2
JC JP 9E 6C 5P 2
AO JO 9O 7C 7P 2
AC KE QC 8P 6O 1
QE 4C 4E 2C 2O 3
8E 8O 7E 7O 6E 3
AP KC KO TC TO 3

AE AO QP 6C 6E 3
KO QO 8P 7C 6P 1
AC 8C 2C 2O 2P 4
TC TO 9C 9E 9O 7
JC JO JP 4C 4P 7
AP KE QC QE 8E 2
KC JE TP 9P 7P 1

QP JC JP TE 8C 2
AC 3C 3P 2C 2O 3
AE KC JO 4C 4O 2
AO AP QO 7E 5O 2
KO QC TC 2E 2P 2
JE 9E 6E 6O 6P 4
KE QE TO 9O 8O 1

AP KE KO 4C 4E 3
AC AO QO TE TP 3
AE JC TC 9O 8E 1
QC JP 6E 5E 5P 2
8C 7C 7P 6C 6P 3
QP JE 9E 9P 8P 2
9C 8O 7O 6O 5O 5

KO QE QP JP 8C 2
AC AO KE JE TO 2
AP JC 9C 9P 6O 2
KC QC TC 4C 3C 6
AE 7O 7P 5C 5E 3
TP 9E 8E 6E 6P 2
QO JO TE 8O 7C 1

QO 9E 8C 5P 4E 1
AE QC QE TE TO 3
KC KE TC 8E 8O 3
AO JE 7E 2O 2P 2
AC KO JC JO 9O 2
5C 4C 3P 2C AP 5
TP 9P 8P 7P 6P 9

AC KE QE 9E 4O 1
AO JE TE 9C 9O 2
9P 8C 7C 6E 5O 5
QO JO TC TO 8O 2
AP KO TP 7E 6C 1
KC JC JP 4C 4P 3
5C 4E 3E 2E AE 5

AO 6C 6O 2E 2P 3
KO QO JP TC 9C 5
QC JC TO TP 9P 2
AC JO 7C 7E 7O 4
5O 4P 3O 2C AP 5
KC 8C 8E 8P 7P 4
AE QE TE 4C 4O 2

TE 7E 7O 2E 2P 3
AC KC QC 9P 5E 1
AE AP TO 3E 3O 3
JE JO 8P 4O 4P 3
QE JP TC TP 6P 2
QO QP 8E 6C 6E 3
AO KE JC 7C 7P 2

AO QP JP 8E 5O 1
KE 9E 9P 8P 6C 2
AE KC TE 9C 6O 1
AC QE JC JE JO 4
QC TC TP 8O 5P 2
AP QO 9O 6E 6P 2
KO TO 8C 2C 2P 2

KE 9E 6P 2C 2O 2
QP JC TE 9C 8P 5
KC JO JP 3C 3O 3
AE QC 9P 7O 7P 2
AC QO TP 8O 7E 1
KO QE JE TO 9O 5
AO AP 8C 5C 5E 3

AE AO KE TO 9O 2
QO JE 5C 3C 3O 2
KO 9C 9E 7E 7P 3
QC QP TE 9P 8P 2
AP JO 8E 8O 7O 2
KC QE 7C 6C 5E 1
AC JP TP 6P 5P 1

AO QO JO TO 7O 6
KC JC TP 8C 5O 1
KO QP JP 4C 4E 2
AC AE TC 9E 6O 2
AP QC 9C 8E 5E 1
KE QE JE TE 6E 6
7P 6P 5P 4P 3P 9

AC AE KE QP TO 2
AP JO JP 9O 8E 2
KO QO TP 9C 7E 1
KC JC 5C 4C 2C 6
TC 9E 9P 7P 6P 2
QC TE 8C 8O 7C 2
AO QE JE 4E 4O 2

AC 6E 5E 5O 5P 4
QC JO 9E 8C 7O 1
KC 8O 8P 7E 7P 3
QE QO QP JE TO 4
KE KO 9C 8E 7C 2
AO AP TE 2O 2P 3
AE JP TC TP 9P 2

AO TP 9O 8O 6C 1
AP KO TC 7E 5C 1
QO 7P 6E 3C 3E 2
AC KE JP TO 9P 1
QP 6O 6P 4O 4P 3
AE JE JO 9C 9E 3
QE JC 8C 8P 7O 2

AO TE TP 8C 5C 2
KC 6E 6P 4O 4P 3
AC QC TC 9C 2C 6
AE JC 7P 3E 3O 2
JP 8O 8P 6C 6O 3
AP QO JO TO 9E 1
KE KO QE 9P 8E 2

AC KC QE JC TP 5
AE QO 9O 9P 6O 2
AO TC TO 7C 7E 3
AP QP JP 7P 5P 6
8O 7O 5O 4O 3O 6
JO 8E 8P 2E 2P 3
9C 9E 4E 4P 3E 3

QC TC 9O 8C 7E 1
KC JC 9C 9E 8E 2
AC AP KE KO 6E 3
AE TE TO 7O 5E 2
QE JE JO 3C 3P 3
AO JP 9P 7C 4O 1
QO TP 8O 8P 7P 2

AO KO QO JO 5O 6
JP TC 2C 2O 2P 4
AC KE 9C 7O 4O 1
JC 9E 9O 6E 6O 3
AP TE 7E 3E 3P 2
QC QP TO 6C 5P 2
TP 9P 8E 8P 7C 2

JO JP 7P 5O 5P 3
AO AP QC QE TO 3
QO 9E 7C 6E 6P 2
JC JE 9C 8O 8P 3
KC KO TE 9O 9P 3
AC QP TC TP 8C 2
5C 4C 3C 2C AE 5

AP JC JO TE 8O 2
AE QC QE JE TC 2
KC KE JP TP 7C 2
AC AO 8E 7O 5P 2
QP 9O 7P 6P 4C 1
TO 9C 9P 8P 4E 2
QO 6C 6E 5C 5E 3

AC AE 9E 6E 6P 3
KO JO JP 4O 4P 3
AP KE QE JE TE 5
AO QP TP 2E 2P 2
5C 5O 5P 2C 2O 7
9P 8O 8P 4C 4E 3
QC JC TC 9C 8C 9

KC JC 8C 7C 3C 6
AP QP TC 9C 8E 1
AO KE JO 5O 5P 2
AC AE 9E 9O 7O 3
KO TE TO 6C 6P 3
QC JE 7P 5E 4E 1
QE QO JP 3O 3P 3

AC AE TE 6O 5P 2
TC 9C 9E 4E 4O 3
QC JC JE 8O 5O 2
KC QO 8C 7O 6E 1
QE QP TO 9O 7C 2
AP KO JO 8P 7P 1
AO KE 9P 8E 7E 1

AE QE QO JC TP 2
AO 9P 8E 8O 8P 4
KC KE QC 3E 3O 3
AC KO QP JE TO 5
JP 8C 7E 6E 5E 1
AP JO TE 4C 4O 2
6P 5P 4P 3P 2P 9

AO KC JO TP 9E 1
KO QP JE 8O 4P 1
AP QE QO TE 6P 2
KE JC JP TO 7P 2
AC AE 9P 8P 7E 2
6C 5C 4O 3C 2E 5
QC TC 9C 8C 7C 6

QO QP JP 7E 6E 2
AO QC TP 8E 6O 1
AE AP KC JC 6P 2
TO 9E 9O 8C 8O 3
KO QE JE JO TE 2
AC KE 9P 2C 2E 2
9C 4C 4P 3C 3E 3

KE KO QE JE 8C 2
TC TO 9C 8O 8P 3
AC AO AP JC JO 7
AE KC QC 6C 6P 2
QO 9E 9P 7P 5E 2
8E 7E 6E 5O 4E 5
QP JP TE TP 9O 2

QP JC TC 3O 3P 2
KO QE TO TP 9P 2
AC JP 8E 6C 4P 1
QC 9C 8C 7C 5C 6
AE AP KC 5E 5P 3
KE JE TE 9E 7E 6
9O 8O 7O 6O 5O 9

AO JO 9C 7C 5O 1
TC 9E 8P 7E 6O 5
AE JC JE TO 8E 2
AC QE QP 3E 3O 3
AP KE KO QC QO 3
8C 4E 4P 2E 2P 3
TP 9P 7P 6P 4C 1

8C 7P 2E 2O 2P 4
QC TO TP 9C 8P 2
KC JP TE 9P 6O 1
AC QP JO TC 8O 1
AE QO 9O 7C 7E 2
KE KO JC JE 9E 3
AO QE 6E 4C 4E 2

AO KE JO TC 9E 1
JP 9C 7E 5E 5O 2
QE QO 9P 5C 5P 3
8C 8E 8P 6C 6E 7
AC TE TO TP 8O 4
AP KO QP JC JE 2
KC QC 4C 3C 2C 6

AO KC 8C 8E 7C 2
KO JC TO 7E 7P 2
QE JO 9E 2E 2O 2
AC KE TC TE 8P 2
AE JE 4E 4O 4P 4
AP QC QO 8O 7O 2
9C 9O 9P 3E 3P 7

JP TO 9O 8O 7O 5
QO QP JO 8P 6E 2
7E 6C 5E 4P 3C 5
AP KO 9P 3E 3P 2
8C 7P 6P 5C 4C 5
AE KE QC JC TC 5
AO KC JE 2E 2O 2

KC JP 9C 3E 3P 2
TO TP 9E 9O 7C 3
AC AO QP JC JO 3
QO 8E 8O 4E 4O 3
AE QE JE TE 2E 6
KE KO TC 6P 4C 2
AP 8P 7P 4P 2P 6

AP QC QP 8C 7E 2
JO JP TE 2C 2P 3
AC QE JC 4C 4O 2
KC TP 9E 5C 5P 2
KO JE 9C 6O 6P 2
AE KE 8E 6E 4E 6
AO QO TO 9O 8O 6

AE KO 9O 8O 7C 1
JE 4E 4O 3E 3P 3
AP KE TO 6O 6P 2
AC JP TC 8C 8E 2
JC TE 9P 8P 7E 5
QC QE QO QP TP 8
AO KC 9E 6C 6E 2

KE QP JE 4C 4P 2
JO TC 9C 8C 7P 5
AC QO 8E 7E 6E 1
AE KC JP 9P 8O 1
KO JC 9E 7C 5E 1
AO AP TO 9O 8P 2
QC QE TP 2C 2O 3

AC KE QE 2C 2P 2
AO AP 9O 8E 7O 2
JO TC 6O 3C 3O 2
KC QP JE 4E 4P 2
JP TE 9E 5C 5O 2
KO QO JC TO 7C 1
AE 7E 7P 6E 6P 3

7O 6O 5O 4E 3P 5
AO KO QO 8O 2O 6
AP JO TO TP 9O 2
QP JP 9P 8P 7P 6
5E 4C 3C 2C AC 5
9C 8C 7C 6C 5C 9
KC QC JC 9E 7E 1

QE TE 9P 2E 2P 2
AC 9E 7P 5C 5P 2
KE QO TP 8P 7E 1
QP JP 7C 6E 6O 2
JE TC 9C 8C 8E 2
AO KC 7O 3E 3P 2
AE QC JC JO TO 2

AC QP JP 9E 7E 1
KE QE JE TE 6E 6
8O 5O 5P 3C 3P 3
AP JC TP 8P 7C 1
AO 8C 8E 6O 6P 3
QC TC 9C 4E 4O 2
KO QO JO TO 9O 9

TP 9O 8C 7C 6E 5
QP JE 8P 2O 2P 2
AC TE TO 8E 7E 2
KE 9C 9E 7O 4C 2
AO QE JO 8O 6C 1
AP KO TC 9P 5O 1
KC QC QO JC JP 3

AO KC 9O 8O 7C 1
QC JC JE TE TO 3
AC JO JP 3E 3P 3
QE 7E 7O 5C 5O 3
AE KE KO TP 8E 2
AP QP 9P 6P 4P 6
9C 9E 8P 7P 6C 2

AP KO QP JC 7C 1
AE QC JO 7O 7P 2
AO TC TE 5C 5O 3
TO 9O 8P 7E 6E 5
AC JE 8E 4E 4P 2
KE 9E 9P 2C 2E 3
JP TP 9C 3C 3E 2

KC 9O 8E 8O 7E 2
KE QO 9C 9E 9P 4
AC QE JE TC TE 2
6O 5C 4C 3O 2E 5
QC TO TP 7O 4P 2
AE JO 7C 4E 4O 2
AP KO QP JP 6E 1

AC AE JP 8E 7E 2
TC TE 9P 8P 5E 2
AO KC JC JE 9E 2
AP QC QE TP 7P 2
KE TO 9C 5C 5P 2
QP 8C 7C 6E 4O 1
QO JO 9O 8O 7O 6

TC TP 8C 8O 7E 3
KO 9C 6E 6O 5O 2
KE 9E 9P 2E 2P 3
8P 7O 6C 5C 4C 5
QC JC 7C 3C 2C 6
KC QE JE TO 9O 5
AE AO JO 3E 3O 3

AC AP KE 5O 5P 3
TC TO 9C 9O 8E 3
AE TP 8C 7O 4O 1
QC QE QP JC JO 7
AO KC KO QO 9E 2
TE 9P 7C 2C 2O 2
JP 7E 7P 6E 6P 3

QC TE 7E 5C 5E 2
KE 8E 6C 3C 3P 2
AO JO TO 5O 4O 6
AP JC JE 7C 6E 2
QO 9P 8C 7O 7P 2
JP TP 8P 6P 5P 6
AC KC KO 9E 9O 3

AO AP KO QP 9O 2
QO TC 9E 7C 7O 2
AC 9C 9P 6E 4C 2
KE 8C 8P 3C 3O 3
QE JC JP 5C 5P 3
QC JO TO TP 6C 2
AE TE 8E 7E 4E 6

KO JP 9P 7C 6C 1
QE JO TO 9O 8C 5
AC AE AO KE QO 4
TE 3C 3P 2C 2O 3
AP JC TP 5E 5P 2
JE TC 8P 7P 6P 1
QC 8E 8O 5C 5O 3

AE KC KO 2C 2P 3
KE QP JP 7P 4E 1
AC AP TE 9C 9P 3
JE 6C 6E 3C 3O 3
QE 8E 8P 7C 7E 3
AO TO TP 5C 5O 3
JO 9O 8O 7O 6O 6

KC QC JC JP 9O 2
AE 9C 8E 8O 6E 2
AC TC 2C 2E 2O 4
QO 5E 5P 3E 3O 3
KE JE TE 9E 7E 6
AO QE TO 7C 6O 1
AP KO JO TP 7P 1

TC 7C 7E 6C 6P 3
KE KO QP 3E 3P 3
JE 9P 8E 8P 4E 2
AE AO KC TO 9C 2
QE JO TP 9E 6O 1
AC AP QO TE 7P 2
QC JP 7O 6E 5C 1

AO JC JO TP 7E 2
JP 9E 8C 8P 5O 2
KE KO QC QO QP 7
AP TE TO 7C 6C 2
AE KC QE TC 9C 1
AC 9P 7O 3C 3P 2
JE 9O 8O 5P 4E 1

AE JP 8P 6O 5O 1
TO 8C 7O 2C 2E 2
QP 9P 8E 5E 5P 2
AC AP KC QO TP 2
JE 9C 9O 7P 5C 2
KO QE JC JO TC 2
AO KE QC TE 9E 1

AC KO QE TP 8O 1
8C 7C 7O 7P 5O 4
JP 9E 8P 3E 3O 2
KE QP 9O 9P 5C 2
KC TC TE TO 9C 4
QC JC JE JO 5E 4
AE AO QO 8E 7E 2

QE TC 7P 5O 5P 2
AE JC TE 9O 8C 1
QP JE TO 8P 7O 1
AC AP KO JO 8O 2
KE QO 7E 3O 3P 2
AO TP 9C 9P 8E 2
KC QC 9E 6E 6P 2

AO KE QP TP 9P 1
KC QO TO 9E 4P 1
AP KO JO 9O 8C 1
AC JE TE 7P 6P 1
QE JP 8P 4C 4O 2
TC 9C 8O 7C 6C 5
AE 6E 5E 4E 3E 6

AE AO KO JP TO 2
QC JC TC 6C 6P 2
AC QP 7C 3E 3P 2
AP 8P 7P 5P 2P 6
KC 9O 9P 8C 6O 2
JE TE 9E 8E 4E 6
7O 5O 4O 3O 2O 6

AC 9C 9O 9P 8P 4
QC TE 7C 5C 5O 2
AP JC JE TC TO 3
AE KC QO 3C 3O 2
AO KE QE JO 8O 1
KO 5E 5P 4C 4E 3
JP TP 9E 6E 6P 2

9O 8O 7O 6O 5P 5
JO TO 9E 6E 5E 1
AC 8C 8P 3E 3O 3
KO 5C 5O 4C 4P 3
TE 9C 8E 7E 6C 5
AO KC QC JC TC 5
AE TP 9P 2E 2O 2

QC QP 9C 7C 7E 3
TC 9P 8E 3C 3P 2
JE JO 8O 7O 7P 3
AP QE TE 9E 9O 2
AC AO KE 4C 4E 3
QO TO 4O 3O 2O 6
KO JC TP 5C 5O 2

QE JE 9O 2C 2P 2
8E 8O 5E 5O 5P 7
QO TC TO 4E 4O 3
AO QC 9E 7E 6E 1
KC KE JC 7P 6C 2
AE KO 9P 8C 8P 2
AP JO JP TE TP 3

AC QO JO 7E 5C 1
QC JC JP 7C 7O 3
TC 9O 9P 2C 2O 3
AE KC KO TO 6E 2
AP 8C 8E 8O 8P 8
QP TE 9E 4O 4P 2
AO KE JE 7P 6P 1

KE TP 8P 5O 5P 2
QC JO TO 9O 7O 1
AO QO JP 8C 8E 2
QE QP 8O 7E 5C 2
KC KO TC 9C 6E 2
AE AP JC TE 9E 2
AC 7C 6C 6P 4O 2

QE TE 9O 4C 4E 2
KC 9P 8P 6O 5C 1
AC KE QC 6C 6E 2
AO KO QP 2C 2O 2
5E 4O 3E 2E AE 5
AP 8E 8O 7C 7P 3
TC TO TP 5O 5P 7

AC JO TE TO 9C 2
QP JC JE TC 5E 2
QC TP 6C 6E 6O 4
KC QO JP 7E 6P 1
KE KO 9E 8P 7P 2
AE AP QE 9O 9P 3
5O 4O 3O 2O AO 9

JP TE 9E 3O 3P 2
AC QP TP 8O 8P 2
AO JE 2E 2O 2P 4
AP 9O 7O 4C 4O 2
KE QE JC JO TO 2
KO QO 8E 5C 5P 2
AE KC QC 6C 6P 2

AP QC QO 2E 2O 3
QE JO TC TO 8O 2
QP 3O 3P 2C 2P 3
KO 9O 8C 4C 4P 2
TE 7E 7O 4E 4O 3
9P 8P 7P 6O 5C 5
AE KE 8E 6E 5E 6

AC QC TO 9E 8E 1
KO 9O 8O 5O 3O 6
AE KC QE 6C 6O 2
KE JE 2C 2E 2P 4
AP QO 8C 4C 4P 2
QP 9P 8P 7P 6P 6
JC JP TC TP 9C 3

AE AO TP 6E 5C 2
JE TE 9C 8C 5E 1
KE QE 9E 8E 7E 6
TC 9O 6O 2C 2E 2
KO 8O 7O 5O 4O 6
QO JC JO TO 8P 2
AC QP 7P 4C 4P 2

AO JO TO TP 6C 2
TC TE 9P 2C 2E 3
QE JE JP 8P 7C 2
KC QO 8C 7E 7O 2
AE KE KO QP 9E 2
AP QC JC 9C 6O 1
AC 9O 8E 4C 4P 2

AC AP KC 2C 2O 3
AE JC 6C 6O 6P 4
QP JO JP TO 5E 2
KO QO 9C 7C 7O 2
QC 8O 7P 3O 3P 2
TP 8E 8P 4C 4P 3
JE TE 9E 7E 4E 6

AC JE JO TO 8P 2
KE QE 9P 6C 5E 1
QO TP 8E 7E 7P 2
AE AP KO 4E 4O 3
7C 6E 5C 4C 3C 5
KC QC 9E 9O 8O 2
QP JP TE 9C 8C 5

AC QO TE 8E 8O 2
KE JC JE 2E 2P 3
QC 9C 9P 6O 5P 2
AE AP KC JO 5O 2
9O 7C 7O 5C 5E 3
TC TO TP 6E 6P 7
AO KO QE QP 9E 2

AO KC KE QO JP 2
AE TC 9C 5C 5O 2
AC QE JC 7O 5E 1
KO QP 9E 2E 2P 2
QC TE TO 8E 8O 3
JE 8C 6O 4E 4O 2
8P 7P 6P 5P 4P 9

AE QE 9E 9P 8O 2
AO KE JE 8P 5E 1
JP TP 9O 7O 6O 1
QO JC 8E 6C 6E 2
KO QC JO TO 8C 1
AC KC 9C 2C 2O 2
AP TC TE 3O 3P 3

KE JP TE 9E 7P 1
AC JC JE TO TP 3
AO QE QO 8E 5P 2
AP KO 6P 3C 3O 2
TC 9C 4C 4O 4P 4
QP JO 9O 8P 7C 1
AE KC QC 9P 8C 1

QO JC JE TE 6O 2
9C 8O 7O 6P 5E 5
TP 9O 6E 3C 3P 2
AE KE KO JP TO 2
AP 9P 8C 8E 5P 2
AO QP 9E 7P 6C 1
AC KC QC 7C 5C 6

AE KC JO 3O 3P 2
AC QO 7C 6E 4E 1
JE 9C 9P 5C 5E 3
AP TC TO 6O 6P 3
TP 9E 9O 5O 5P 3
AO KO QC JC 7P 1
KE QE JP 8P 7O 1

8C 8O 8P 3E 3P 7
AC QE JO 9O 6P 1
AO QP 4C 4O 4P 4
KC 9C 9P 2C 2O 3
AE KE TC TP 7O 2
JP 9E 8E 6C 5C 1
QC QO JC JE TE 3

KC JE TO 3E 3O 2
AC TE 8P 4C 4O 2
AP QE QP 7C 6C 2
KE 7E 6E 5E 2E 6
AO JC JO 8C 8E 3
AE TC 9C 8O 7O 1
KO QC QO 9O 5P 2

KE QE JE 9E 4E 6
TO 8O 5O 4O 3O 6
AE QO TC TE TP 4
AO 7E 7O 4C 4P 3
QP JP 9P 8P 5P 6
AC QC JC 5C 2C 6
KC 8C 8E 6C 6O 3

QE JE 8E 7E 5E 6
AO KC KE QO 7P 2
KO TO 6C 6E 6P 4
AE AP TC TE 7O 3
JC JO 9P 8O 5O 2
AC 9O 8C 7C 5P 1
QC QP JP TP 9C 2

AO KE QC 8O 6E 1
AP 8C 8E 8P 7E 4
KC KO TO 4C 4P 3
QP 9P 7P 6P 5P 6
JO TP 9C 7C 7O 2
AE JC JP TC TE 3
JE 9E 5E 4E 3E 6

8O 5O 4O 3O 2O 6
AC KO QO JP TP 5
QP TO 9O 5C 5P 2
9E 8C 8E 3E 3P 3
AE TE 9C 7C 6O 1
AO QE JC JE JO 4
KC KE QC 4E 4P 3

AO KE QC 5C 5P 2
AP JO 9C 9O 5E 2
KC QO JC TC 6C 1
AC AE KO 6O 6P 3
JP 9P 3C 3E 3P 4
JE TE 9E 8E 7E 9
QE QP TO TP 7O 3

AE AO AP KE TE 4
KO JP TP 8E 5O 1
AC JC JE 8O 8P 3
QC QO QP JO TO 4
7C 6C 5E 4O 3O 5
9P 5P 4P 3P 2P 6
KC TC 9C 9E 7P 2

AC AO KE 2C 2O 3
8C 6C 5C 4C 3C 6
JC TC 9C 8P 7E 5
AE KC QC 9E 9O 2
KO 9P 8E 3E 3P 2
JE TP 7P 6E 6P 2
QO JO TO 8O 6O 6

AP QE QP JP TC 2
AE KC KE JE 7P 2
AC JC TE TP 7E 2
AO KO TO 9E 9P 2
8O 8P 3C 3O 3P 7
QC 6C 6O 4C 4P 3
JO 9C 9O 8C 7O 2

TE TP 9E 2C 2O 3
AC KC QP JE TO 5
AP 8P 7P 6P 2P 6
AE QC QE 3C 3E 3
6C 5C 4E 3P 2E 5
JC TC 9C 8E 7E 5
AO JO 8O 4O 3O 6

AC QC QP JE TE 2
AE AO QO 7E 5C 2
KE QE JO TO 9P 5
TP 8C 8O 8P 7C 4
6E 5E 4C 3C 2C 5
JC TC 9C 6C 6O 2
AP KC KO 4E 4P 3

QC QO JC 5C 5E 3
JP TO 8C 7C 6O 1
AC AO KE 7E 7O 3
AE QP 8E 7P 5O 1
TE 9C 9E 9O 9P 8
KC JE JO 2E 2O 3
AP TC TP 6C 6P 3

AE 9P 7C 3C 3E 2
AP KC KO 8C 8E 3
JE 3O 3P 2C 2O 3
QE QP TE TP 9O 3
AO KE 5E 5O 5P 4
AC JC TC 6E 6O 2
QC QO JO 7O 7P 3

AC AE AO 2O 2P 7
JO 9E 7P 5C 4C 1
KE 9O 6C 6E 5E 2
TC 8P 7C 5P 4P 1
JC TE TP 9C 9P 3
AP KC QC QP JP 2
QE QO JE 7E 7O 3

AC QE QP JE TE 2
AP KE 9P 7E 7P 2
QC 5E 5P 2C 2P 3
AO JP TO TP 7C 2
6C 5O 4P 3P 2O 5
QO JO 9C 8C 7O 1
KC KO TC 9E 8E 2

AP KE TO TP 9O 2
JC JO TC 9C 8E 2
AO KO QO 4C 4E 2
AE QP 7O 3E 3P 2
AC 9E 8P 7C 7E 2
KC QC JP 9P 5P 1
QE JE TE 6O 5O 1

QO 7E 6E 3E 3P 2
AC AE AP KC TE 4
KO QE JC JE 4P 2
KE 9E 8E 5E 4E 6
AO QC TO TP 9P 2
8P 7O 6O 5C 4C 5
QP JO JP 9C 9O 3

AE KE QC QP TP 2
9P 8O 6O 6P 5P 2
JP TO 8P 4O 4P 2
AC 7E 7O 7P 4C 4
AP QO JO 9O 7C 1
KC JC TC 9C 8C 6
QE JE TE 9E 8E 9

AO KE JO TC 7C 1
AP QP JC TP 9C 1
AE QC QO 8E 5E 2
AC KO 9E 8C 8P 2
QE JE TE TO 9P 2
KC 5C 5O 2E 2P 3
9O 8O 7O 6O 5P 5

JO TE 9C 8E 7C 5
AP QE 8P 7P 6P 1
AO KE JE 5C 5P 2
KO QO TC 4C 4P 2
AC TP 9P 8C 7O 1
QC QP JC JP 5O 3
9E 8O 7E 6E 5E 5

AC AE KC JP 5E 2
JO TP 9E 9P 5P 2
AP QO 6P 3E 3P 2
TE 8E 8P 5C 5O 3
AO QP JE 8C 7C 1
QE JC TC TO 9C 2
KE KO QC 8O 7E 2

AC KO TP 6C 6O 2
KC KE QP JP 7O 2
QE TC 9P 3C 3E 2
AP TE 8O 4C 4E 2
JC 9C 9E 8C 7C 2
AE AO QC JE 9O 2
QO JO TO 6P 5P 1

KC KE QE TE 9O 2
AO JE TC 9P 8E 1
AC JC TP 9E 8C 1
QC TO 7C 6C 6O 2
JP 7E 7P 4E 4O 3
AE AP QP 6E 4C 2
KO QO JO 9C 7O 1

JE JP TO 7O 5O 2
KE QE QP 8O 6C 2
AO JO 8P 6O 6P 2
QC JC TC 9P 8E 5
KC KO 9O 7P 5C 2
AC AE TE TP 7E 3
AP 9E 7C 4C 4E 2

QE JP TP 9O 8P 5
AC AO KE QC TO 2
KC QO JO 9P 4P 1
AE JC TE 8O 7O 1
KO QP JE 7P 6P 1
9C 8C 6C 4C 3C 6
AP TC 8E 7C 5O 1

AO KE 9E 3E 3O 2
AC KO QE TE 8O 1
AP JO TP 7C 5O 1
9C 9P 8C 2C 2P 3
7O 7P 6E 6O 6P 7
QO JP TC 9O 8P 5
KC JC 6C 5C 4C 6

AE QE 9C 8O 6E 1
AO KC JC JO 8E 2
AC QO QP 9E 7E 2
KE QC JE TE TO 2
9O 7O 6O 3O 2O 6
AP KO JP 7P 6P 1
TC TP 9P 8P 6C 2

AC AO KO 8E 8O 3
AP 7C 7P 2C 2E 3
AE KC QP JE TE 5
JO 5C 5P 3C 3P 3
QE 8C 8P 6C 6E 3
KE 9C 9P 6O 6P 3
TO 5O 4O 3O 2O 6

KE KO 9P 6O 5O 2
TC TE 9C 7E 7O 3
AO AP 9E 6C 6P 3
QP TP 8P 7P 4P 6
AC QE JP TO 9O 1
KC QO 5E 2C 2E 2
AE QC JC JO 8C 2

AE TE 9P 3C 3P 2
AP QO TC 8C 7E 1
AC QC JC JO TP 2
KC 5C 5E 4C 4E 3
KE QE 9C 6C 6P 2
AO KO JP 9E 6E 1
TO 9O 8O 6O 5O 6

AE QC JO 3O 3P 2
JE 9E 8E 7O 7P 2
JP 8O 7C 5C 5P 2
KE TC TO 9C 9O 3
AC AP KC QP TE 2
KO QO JC 6P 5E 1
AO QE TP 9P 7E 1

AE QP TC 9E 9P 2
6O 5O 4C 3O 2C 5
AO TE 8C 6C 6P 2
QE JE JO TP 9C 2
5E 4O 3P 2O AP 5
9O 8O 7O 6E 5C 5
KC KO QC QO 8E 3

AC QC JP TC 8E 1
AE AO QO JC 6P 2
QE TE 5E 5O 5P 4
AP KO 9C 7C 7E 2
QP JO 8C 8O 8P 4
KC JE TO TP 7O 2
KE 9E 9P 6O 4C 2

KC KE JC JP TP 3
QO QP TE 9O 9P 3
AP KO TC 9C 8O 1
AC JE 8C 6E 6O 2
AE QC QE 8P 4P 2
5E 4E 3E 2E AO 5
JO 9E 8E 7E 5O 1

AO KE 5C 5E 5O 4
QO TP 9O 9P 6C 2
KC TO 8P 4E 4O 2
AC KO 8C 7C 7O 2
AP QP JP 6O 6P 2
AE 9C 9E 3C 3P 3
QC JC JO 7E 6E 2

QP TE 7P 3C 3P 2
AC AE JE JO 6P 3
AP QO 9C 9E 8P 2
AO QE JC 9P 7O 1
TP 8C 7E 4O 4P 2
KO JP TC 7C 6O 1
KC KE QC 8E 8O 3

AC QP TC 6O 5O 1
AE KO QC TP 7P 1
QE JO 5P 3C 3E 2
TE 9E 8E 7E 5E 6
AP KC QO 9C 9O 2
JC JE TO 9P 7C 2
AO KE JP 8P 4P 1

AC KE JO 3O 3P 2
AE QO QP JE TE 2
TO 7P 6O 5E 5P 2
AP KO QC 9C 8P 1
AO KC QE TC 6P 1
8C 6C 6E 4E 4P 3
JC JP 9E 8E 8O 3

AC AE AP 2C 2O 7
KO 9E 8C 3C 3P 2
AO TE 9C 7C 5P 1
KC JE 7O 7P 6P 2
QE JO JP TO 8P 2
QC QP JC TC 8O 2
KE 8E 6E 4E 3E 6

AO QO TE 9O 8O 1
AC KE KO 6C 4O 2
QE TO 9C 9P 7C 2
JE TP 8C 2C 2E 2
AP JO JP 4C 4P 3
QP 8P 7P 3P 2P 6
AE 9E 5E 4E 3E 6

AC 3C 3E 2C 2O 3
JO 8E 8O 6E 6O 3
KE QO TE 9P 7O 1
AO 8C 8P 7C 6P 2
QC TC TO 9C 9O 3
AE KC KO JP TP 2
AP QP 9E 4E 4O 2

QO 9P 8P 6O 5O 1
QP 8O 7O 2C 2E 2
AP KO JC TC 9C 1
KC JE JO TO 9O 2
7P 6P 5E 4O 3P 5
AC AE TP 8E 6C 2
TE 9E 7E 6E 3E 6

AC KE QO JC TC 5
7E 7P 5P 3C 3P 3
KC QE JO TP 9P 5
KO QC QP 4C 4E 3
9O 8C 7C 6C 5C 5
AE TE 9E 8E 3E 6
AO JE 7O 5E 5O 2

JE TO 9O 8C 7C 5
TC 6E 6P 3C 3E 3
KE 8E 8P 7P 6C 2
AE KO 4C 4E 4O 4
KC QC JC TP 9P 5
QE JP TE 5C 5E 2
AO JO 8O 7O 6O 6

JO TC TO 7C 7E 3
KO QP JC 9P 8E 1
KC QO TP 5C 5P 2
7P 6P 5O 4P 3C 5
AE AP JP TE 7O 2
AC 8O 8P 3O 3P 3
KE QE JE 3E 2E 6

AO 9E 8E 7C 6C 1
QO JO TO 9O 8O 9
AP KO 6O 2C 2P 2
TC 9P 8P 7P 6P 5
QP JC JP TP 8C 2
KC QC JE 3E 3O 2
KE TE 7E 6E 5E 6

AO TC 7C 5O 5P 2
AC KC TP 9C 8C 1
AP JO TO 8O 8P 2
QP JP 9P 6P 4P 6
QC QE QO 2E 2O 7
AE KO 9O 4C 4E 2
KE 6C 6E 3C 3O 3

AE AP KO 4E 4P 3
AC TE TP 9E 5P 2
AO KC QC QE TC 2
KE QO JP 3C 3O 2
JE 8E 7O 7P 6E 2
JC 9O 8O 5O 4O 1
QP JO TO 9P 8C 5

AC AE AP TC TO 7
AO QO TE 8O 7E 1
QC QE JE 8E 8P 3
KC KE KO 9E 6E 4
6O 5O 4P 3C 2O 5
9P 7O 7P 6P 5P 2
JP 9O 8C 5C 4C 1

QE JO 7E 5E 5O 2
AP KE KO QO JP 2
AE AO TE 2E 2P 3
9O 4E 4P 3C 3P 3
AC KC QP TP 8P 1
TC 9C 8C 7C 6C 9
QC JC JE 8E 7O 2

KO 4C 4P 3C 3P 3
AE AO JC 2C 2E 3
QC 9P 8E 8P 7E 2
AP KC QO TE 9E 1
AC 6C 6P 5E 5O 3
KE QE TP 8C 7C 1
QP JO TO 9C 8O 5

QP TE 9C 7P 5C 1
JC JP TC 5O 5P 3
AC AO JE 4E 4O 3
AE KC KO QC QO 3
AP KE TP 6E 6P 2
QE TO 8P 7E 4C 1
JO 9E 9P 8O 7O 2

AC AP KO JC 9P 2
AO QC 2C 2O 2P 4
QP TC 8E 8O 6C 2
7E 6E 5C 4P 3C 5
KC QE JP TE 9O 5
KE JE TO 6O 6P 2
QO JO TP 9C 8C 5

9O 8O 7O 4O 2O 6
AC AP TO 2E 2P 3
QC JC 8C 3E 3O 2
KC KO QP 8P 6P 2
JO 9C 9P 7C 7E 3
AO JP TP 8E 6O 1
AE QO JE TE 9E 1

AC AE JC 9O 5O 2
AO KC 6P 2O 2P 2
TC 7C 7P 2C 2E 3
QP JP 8C 8P 7E 2
QC TO TP 9C 9P 3
KE QE JE TE 9E 9
KO QO 8O 7O 6O 6

KO QC JE JO 8P 2
QO QP 9O 9P 8O 3
AC AP 6C 4O 4P 3
AO TO 9E 5C 5E 2
TC TP 9C 6E 6P 3
QE JP TE 8E 7E 1
KE JC 8C 7C 7O 2

AP QP 9C 5C 5E 2
JO 6C 6O 2E 2P 3
QC QE JC JE TO 3
AE KE KO 8O 7E 2
AO KC 9P 8E 4O 1
AC 9O 8C 5O 5P 2
QO TE TP 4E 4P 3

TC TP 3C 3O 3P 7
KE JP 8P 2C 2E 2
KO QO 9P 7P 4C 1
AO TO 7O 6O 5O 6
AP JO 9O 6C 6E 2
9C 9E 8C 8E 7C 3
AE KC QC JC TE 5

QP JC 4C 4O 4P 4
TC 7C 7O 6O 5O 2
KE QC JE 8O 8P 2
AC JO JP 9E 9O 3
AO AP KO QO 8C 2
AE TP 9C 9P 7E 2
TE 8E 6E 5E 4E 6

KE QE JO TE 7P 1
QC TP 9P 5E 5P 2
AO JE JP 8P 7O 2
QP 9C 9O 2O 2P 3
AC KC QO TC TO 2
AE AP KO 9E 6C 2
7C 6O 5C 4C 3E 5

JO TC 9E 8E 7E 5
AO QP JE 2O 2P 2
QE JC TO 6C 6E 2
KC KE KO QC QO 7
9O 8O 7C 6O 5P 5
AC 7P 6P 2C 2E 2
AE JP TP 8C 8P 2

AC AE QC QP TC 3
6C 6O 6P 2E 2P 7
JO 8E 8P 7C 7E 3
KC JE JP TO 5E 2
KE KO QO 4C 4O 3
AO AP QE 9E 6E 2
9C 9O 8C 8O 7O 3

QO QP 9C 4E 4O 3
KC JC 9E 8E 8P 2
AC AO KO 3C 3O 3
AE AP KE QC TC 2
QE JE JO TE 6O 2
TO 9O 9P 8O 6P 2
JP TP 7P 5P 4P 6

AC QC JC TC 9P 1
AO KE QP 7E 6P 1
KC JP TO 8E 7P 1
AE AP JO 9C 6E 2
TE 9E 8O 7O 6C 5
JE 9O 8C 7C 5C 1
KO QO 6O 5O 2O 6

AO KC QE JP 6O 1
AC AE QC 7C 6P 2
QO TO 9E 9O 8C 2
KE KO JO TP 8P 2
TC 9C 9P 2C 2O 3
QP JC 8O 5C 5O 2
5E 4E 3P 2P AP 5

AC AO KE 6O 5O 2
JC TC 8P 4E 4O 2
TP 9P 8O 6E 5E 1
AE QO QP 9E 6P 2
QE JP 9O 7C 7O 2
QC JO TE TO 9C 2
KC KO JE 7E 7P 3

AP KO TE 9O 9P 2
QO QP JO TO 8E 2
KC TC 8O 5O 5P 2
QC JC 6E 6O 6P 4
AC 9E 8P 7O 7P 2
AE KE JE JP TP 2
AO QE 8C 7C 5C 1

AC TE TO 8O 8P 3
JE JP 9O 9P 6C 3
QE JO TP 8C 7C 1
AO KE QO QP JC 2
KC KO 9C 4C 4P 3
AP QC TC 4E 4O 2
AE 8E 7E 7P 6E 2

QO QP 9E 7O 6C 2
AP KE TC 6E 6P 2
QE TO 9C 7E 6O 1
JC JE JP 8O 7P 4
JO TE 9P 8P 7C 5
AO KO TP 8C 8E 2
AE KC QC 5E 5O 2

KE JC 2C 2E 2P 4
AO KC TP 6C 6O 2
QE JO TO 7C 7P 2
AP QO TC 9C 8E 1
QC QP JP 3E 3P 3
AC AE KO 9E 6P 2
TE 5C 5E 4C 4E 3

AE AO QP 4C 4E 3
AP QE JC 3E 3P 2
KE KO JO 9E 7O 2
AC JP 9O 2O 2P 2
QO 9C 8P 7E 5O 1
QC TC 7C 5C 3C 6
KC JE TE 9P 8E 1

AE QC QE JO TO 2
9O 8P 7E 6C 5O 5
AO KC JC 8E 8O 2
QP JP TP 9C 9E 2
JE TE 9P 6O 6P 2
6E 5E 4O 3C 2C 5
AP QO TC 7O 4P 1

AE KE TC 7O 7P 2
KO QO JC 9C 8P 1
AP QC JE 2E 2O 2
AC KC JP 9E 6C 1
AO QE JO 6E 6P 2
TE 8C 7E 3C 3O 2
QP TO 9O 8E 8O 2

KC QC JO TC 9P 5
AO KO QO TE 6E 1
QP JP 9E 7E 7P 2
AP 9C 8P 6C 6O 2
KE 8E 5E 4E 3E 6
AE QE JE TP 5C 1
AC 8O 6P 2C 2O 2

AP JP 9O 4C 4E 2
AC QP TC 9C 8O 1
AE KO JC TO 9E 1
KC JO 9P 8C 8P 2
QO 7C 6C 6O 5O 2
QC QE TE TP 7E 3
AO KE JE 8E 6P 1

AC QC TC 7C 2C 6
KC JE 9P 3C 3P 2
AE 9C 9O 6C 6O 3
QE TE 9E 7E 2E 6
7O 6E 5E 4E 3E 5
KE TP 8E 8O 5O 2
AP KO QO JO JP 2

KC JC TO 9O 8O 1
AE QP JO TC 6O 1
KO QC 7C 4E 4P 2
KE QO JP 6E 6P 2
AC TE 9P 5E 5O 2
8C 8E 8P 3C 3P 7
AO QE JE 9C 9E 2

AC KE KO JE JO 3
QC QO 3C 3E 3P 7
KC QP TP 7E 7O 2
JP 8E 7C 5O 5P 2
AO QE TO 9C 8O 1
AE AP 9P 7P 6P 2
JC TC 8C 6C 5C 6

QE JE 5E 5O 5P 4
KO QP JO 6E 6O 2
AO 8C 8O 7C 7E 3
AC JC TC TP 9E 2
KE QO JP TO 9O 5
AP KC 8E 6P 5C 1
AE QC 9P 8P 7P 1

QC QO JC TO 6C 2
AE AO KC 4C 4O 3
TP 9P 7C 6O 5O 1
9O 8C 7O 6E 5E 5
AC KE JO JP TE 2
AP 8P 7P 3P 2P 6
TC 9C 9E 6P 5P 2

AO AP JE 3C 3E 3
5C 4C 3O 2P AC 5
AE TE 9E 4E 2E 6
KC QC TO 6C 6O 2
JC JO TC 9C 5E 2
KO QO 8E 7E 7O 2
TP 8P 7P 6P 5P 6

AC AP TE 4E 4O 3
AE KE QO TC 9O 1
KC QE QP JE 8E 2
JC JP 3C 3O 3P 7
9P 8O 7C 6C 5E 5
QC TO 8C 2C 2O 2
KO JO 9C 7E 5C 1

JE 7E 7P 2E 2P 3
QC QE QO 6C 6P 7
KE JC 8P 5C 4C 1
AO 8E 7C 3E 3O 2
AP 9C 9P 5E 5O 3
QP JP TC 9E 8C 5
AE TE TO 9O 7O 2

QC 8O 8P 6C 6O 3
QO QP JO TC TO 3
AC KE JC 7C 7O 2
KO JE 5C 2C 2E 2
AP TP 9P 4P 2P 6
AE KC JP TE 6P 1
7E 6E 5E 4E 3E 9

QO 8O 4O 3O 2O 6
AP QC 9O 9P 5P 2
JO JP 7E 2C 2P 3
AO TO 9C 5E 5O 2
KE JC 7C 6O 6P 2
KO 8C 8P 7O 7P 3
AE KC QP TP 9E 1

AO AP QC JE 9P 2
AE KC QE TP 6C 1
KE KO QO JO 8C 2
5E 4E 3E 2O AC 5
8P 4O 4P 2C 2E 3
JP 9C 9E 5O 5P 3
JC TE 9O 8O 7P 5

QO QP 4O 3C 3O 3
KC 5C 5O 4C 4P 3
AE AO 8O 6E 5P 2
AC AP QC 7P 6P 2
9C 9O 8C 8P 7C 3
KO TC TE 9E 8E 2
KE QE JC TP 9P 5

AC QO TE 3E 3P 2
AO JP 8O 7P 5E 1
AP KE 9O 8C 8P 2
QP TO TP 9P 6E 2
KC QC 9C 6C 3C 6
AE JE TC 7C 7E 2
JC JO 9E 6O 4E 2

QE QO 7P 6P 5C 2
KE JP TE 6C 6O 2
AC QC QP JO TC 2
AE JE 7E 5E 3E 6
TO 9E 8E 6E 5P 1
9C 8C 8O 2E 2O 3
AO 9O 5O 4O 3O 6

AC KC TE 9O 7P 1
AE TO 8C 6E 6O 2
QC TC 8E 8P 6P 2
JC JO 9E 8O 7O 2
KO 9C 9P 2E 2P 3
AP QP JP TP 4P 6
KE QE JE 5E 4E 6

AE JC TC 3O 3P 2
TE TP 7C 4E 4O 3
AC KC KO QC JO 2
AP KE 9E 8P 6P 1
QP JE JP TO 8C 2
AO QE QO 8O 7P 2
9O 9P 5C 5O 5P 7

6C 5C 4P 3P 2P 5
AE AO QO QP 5P 3
TC TO 9C 9O 7C 3
AP JO 9P 8C 6P 1
KO QE TP 8P 7P 1
QC JC TE 8O 7O 1
8E 7E 6E 5E 4E 9

KO QE QP 7C 7E 3
QC TC 9C 8C 5C 6
AE KC 9P 7P 6O 1
TO TP 9O 8E 8P 3
AC KE JP 2E 2O 2
6C 5E 4C 3E 2C 5
AO AP JE 9E 8O 2

AO KE TE 3E 3P 2
JC JO TC 7E 6E 2
AE KC QC QE 8O 2
TO 9E 8E 6P 5C 1
AC 9P 7C 7P 6O 2
QO JP TP 8C 8P 2
AP KO QP JE 4O 1

AE AP JP 8E 8O 3
AC KO QP 9O 8C 1
KE QC TO 6C 6E 2
AO TP 9E 2C 2E 2
QE 7E 7P 6O 5P 2
KC JC TE 4C 4E 2
JO 7O 5O 4O 2O 6

7E 6E 5E 4E 3E 9
AC QP JE JO TO 2
QE TE 9E 9O 8E 2
6O 5O 4O 3C 2C 5
AO KC JP 7C 7P 2
AE JC TC 8O 7O 1
AP KO QC QO 6P 2

AP QC JC JP 6E 2
QO TE 6P 4C 4O 2
AE 3E 3P 2E 2P 3
AC KO JO TO 8C 1
9C 9O 8E 8O 8P 7
AO KC KE 9E 9P 3
QE QP 7P 6C 4P 2

QC JO JP 7O 5E 2
JE TC TE 7C 7E 3
TP 6E 6P 5O 5P 3
AC 8E 8P 6C 6O 3
KC KE QE 9P 8C 2
AE AO 9C 9E 8O 3
QO JC 2E 2O 2P 4

AC KO QP JC JP 2
AE AO KE 2C 2P 3
QE 9E 8P 7C 6P 1
KC QO TP 9O 5C 1
AP JE 9C 7E 7P 2
QC JO TC 4E 4P 2
TE 8E 8O 5O 5P 3

TC 9C 8E 7E 6C 5
AP KC QP JC 9E 1
AE KO 8O 7O 6E 1
JO 9O 6O 5O 3O 6
KE QO TE TO 7P 2
QE JE TP 8C 8P 2
AC AO JP 2E 2O 3

AO QE 8P 7C 5O 1
QP JC TP 9O 9P 2
KO JO 8C 7E 7P 2
AC KC QC JE TO 5
9C 6C 6E 4E 4O 3
AP QO TC 8E 8O 2
5E 4P 3P 2P AE 5

AC QO JE 2C 2P 2
5E 4C 3O 2E AO 5
QC JP 8O 5C 5P 2
TO 8C 8E 6E 5O 2
KO QE TP 9C 9E 2
AE KE QP JC TC 5
AP 9P 6P 4P 3P 6

QO JP TO 9E 6O 1
AP KO JE TC 9P 1
8C 8O 7C 7O 6C 3
JO 9O 8E 6P 5P 1
TE 9C 8P 7P 6E 5
AC QP 2C 2E 2O 4
AE KC QC QE 7E 2

AC JE TC 9C 8P 1
QE JC JP TP 8O 2
AO QC 9O 5O 5P 2
AE KE QP 9E 7C 1
TE TO 8C 4C 4O 3
KC JO 9P 7O 7P 2
AP KO QO 7E 6E 1

AP QC JC JP TP 2
7C 4E 4O 3E 3O 3
KC QP TE 8P 6C 1
AC 6E 6P 5E 5O 3
QO JE 8O 3C 3P 2
AE KO QE 8C 8E 2
AO KE TC 9C 9O 2

JE 5O 5P 2O 2P 3
AE 6C 6O 4C 4P 3
AP KE KO TO 9O 2
QC 9E 9P 3C 3O 3
KC 8C 8E 7C 7E 3
AC AO QE TE 9C 2
QP JP 8P 2C 2E 2

KC QC QE TC 5P 2
JE TE 8P 6C 6O 2
AO AP JC TO 9E 2
AE QO JO 9O 9P 2
AC KO JP TP 9C 1
QP 8E 5C 5E 4E 2
KE 4C 4O 3C 3O 3

QC TC 7O 3E 3P 2
AE JP 8C 7E 5E 1
KE 8E 8O 6E 6P 3
KC 9E 9P 4C 4P 3
AC TE TP 5C 5O 3
AO AP JC JE 9C 3
QE JO TO 9O 7P 1

AC AE TP 7O 7P 3
KE 8P 6O 6P 5C 2
7C 6C 3C 3O 3P 4
AO QE QP 9P 8O 2
TC 9C 9O 8C 8E 3
KC QC JC JE TO 2
AP KO QO JO JP 2

KO 9O 8O 6O 4O 6
AO KE JC JO 7P 2
QO TC TO 3O 3P 3
JE TE TP 5O 5P 3
AC QP JP 8E 8P 2
KC QC 5C 4C 3C 6
QE 9E 5E 4E 2E 6

AC TC TO 8E 7O 2
AP JE 8C 8O 6C 2
AO KE KO 9C 7C 2
KC QC JC 2O 2P 2
AE QP 9E 9O 8P 2
QE 5E 5O 3E 3O 3
QO 6E 6O 4O 4P 3

AE QE 9P 8C 7C 1
AO KE JO TC TE 2
AC QO TP 2E 2O 2
KO QC JP 5C 5P 2
KC 9C 9E 7E 6C 2
AP 6E 6P 5E 5O 3
JE 8P 7P 4O 4P 2

AE JE JO 6C 5C 2
QC QE 6P 5E 5O 3
AC KC TE 8E 6E 1
TC 4E 4P 3C 3P 3
9E 8O 7O 6O 5P 5
AO AP KE KO 9O 3
QO TO TP 7C 7P 3

AE TP 9O 6P 5E 1
JC TE TO 2E 2P 3
JO 4E 4P 3C 3P 3
QO QP JP 7C 7O 3
8O 7E 6E 5O 4O 5
AC AO AP KO QC 4
QE JE TC 9C 8C 5

KE TE 9P 2E 2P 2
AC TC TP 7C 7E 3
AO KC QE TO 9O 1
9E 8C 8E 4O 4P 3
AE JE JO 5E 5P 3
AP QO JP 8O 7O 1
JC 5C 4C 3C 2C 6

QC TE TP 9C 9E 3
KC QE JO JP 8P 2
AE KE TO 8O 6O 1
KO QO 9O 7C 7E 2
AP TC 8E 6P 4C 1
AO QP JC JE 9P 2
AC 8C 6C 5C 3C 6

AE KC QP JE JO 2
AO 7C 7P 4E 4O 3
AC AP KO QO 8P 2
KE QE TP 6O 5O 1
9O 8O 7E 7O 5P 2
QC TC 8C 4C 3C 6
JC JP TE 6C 6P 3

7P 4O 4P 2C 2P 3
KE JC TO 9P 8P 1
AE AO KO 3C 3P 3
QC QE JO 2E 2O 3
AC TP 9C 4C 4E 2
AP TE 9E 9O 7C 2
KC QP JP 8C 7E 1

AC KC QC JP TP 5
AE KO JO 6P 4C 1
AP 4E 4O 2C 2P 3
8P 7E 7O 6C 6E 3
8C 8E 8O 5C 5O 7
KE JC JE TC TE 3
5P 4P 3P 2O AO 5

AE QE TE 6E 5E 6
KE KO 2C 2E 2O 7
AP 4E 4P 3C 3E 3
QC 9P 7E 7O 5O 2
KC TC TO 6C 6P 3
JO TP 9E 8E 7C 5
AC AO QP JE 8O 2

AO KE QE 4E 4O 2
QC QO QP TE 9E 4
AC KC 9P 2C 2O 2
JE 9C 8P 7P 5O 1
TP 7C 7O 6C 6O 3
KO TC TO 8C 8E 3
AE AP JC 7E 6P 2

JC TE 9O 8E 7O 5
5O 4O 3C 2O AC 5
AE QO TO 4C 4P 2
AP KO JE 9C 9E 2
QE 7P 6O 5C 5P 2
AO KE JO JP 8C 2
QP TC TP 9P 8P 2

AE QE QP 5E 5P 3
JC 9E 9P 8O 6E 2
AC KC JP 6C 6P 2
KE 9C 8C 7C 7E 2
QC TC 9O 8E 4O 1
AO KO 7O 6O 2O 6
AP QO JO TO 4P 1

QO 9C 5O 2C 2O 2
QE QP JO 6E 6O 3
QC 7C 7E 3E 3P 3
8E 7P 6P 5E 4P 5
KE JE TE 9E 4E 6
AE AO JP TC TP 3
KO TO 9O 7O 4O 6

QE QO 5E 5O 5P 7
AC AO KO 6C 6E 3
KC KE TO 7E 7O 3
AE AP JC JE TE 3
9P 4O 4P 3C 3O 3
TC 8E 8O 3E 3P 3
QP JP TP 8P 7P 6

7O 7P 6E 6O 6P 7
AP 4C 4E 2C 2P 3
AO QC QE 8P 7C 2
JE JP 9C 5C 5P 3
KC QO 9E 9O 9P 4
AC AE QP 3E 3O 3
JC TC TO 8E 7E 2

AC JC TE 5E 5O 2
QC JP 7P 6E 6O 2
AE KC 8E 3E 3O 2
QE JE TO 9E 9P 2
JO 9O 8C 8P 7O 2
AO KE QO 9C 8O 1
AP 6P 5P 4P 3P 6

TP 7C 7P 6P 5C 2
QC QP JC JO TC 3
AC QO JE 9P 8P 1
KC TO 7E 6C 5E 1
AE KO JP 9C 9O 2
AP QE 7O 6E 4C 1
AO KE 9E 8E 6O 1

KE 8C 8E 7C 6O 2
AO TE 9P 7E 5P 1
AC AP QC 9O 6C 2
AE 9E 5C 5E 5O 4
QE JE TC 9C 8O 5
KO QO JO TP 7P 1
QP JP 8P 6P 4P 6

4C 4O 4P 3E 3O 7
KC JC JP TP 8E 2
QC QO QP 5E 5O 7
AE AO AP KE 6C 4
TO 8C 8P 2E 2O 3
JO TE 9E 8O 7O 5
AC JE 9O 9P 6P 2

KC JC TC 9C 4C 6
AC JE 9O 8E 6P 1
KO JP 7P 6C 6E 2
KE QE 9P 7C 6O 1
QC 8C 8P 7E 7O 3
AP QO TO 8O 5P 1
5E 4E 3E 2E AE 9

6O 5P 4P 3C 2E 5
KE QP TE 7C 5O 1
AP QC QO 3E 3O 3
8E 7E 6C 5C 4E 5
QE JE 9C 8O 5E 1
AO TC TO 9E 9O 3
JC JO 9P 7O 7P 3

QE JP 8E 8P 7C 2
AE KE 9P 3C 3E 2
AO TE TO 9O 8O 2
JE TP 6C 4C 4O 2
AC QP JC JO TC 2
QC QO 9C 8C 7P 2
AP KC KO 7E 6E 2

KC QC JC TC 6C 6
8C 7C 6O 5E 4P 5
AE JP TE TP 9C 2
AC TO 6E 4E 4O 2
QE JE 9E 8E 7E 6
AO QO JO 8O 7O 6
AP 8P 7P 3P 2P 6

QC JC TC 9P 8E 5
AP JE TP 9E 9O 2
AE AO KC KE QE 3
KO QO JP TO 7O 1
AC QP 9C 3E 3P 2
8O 8P 7P 6E 5P 2
7C 7E 5C 5E 4C 3

AO AP 8E 5E 5P 3
AC KC QC QE QP 4
QO TP 9P 2O 2P 2
JP TE 8C 3O 3P 2
JC 9C 7C 6C 3C 6
AE JE 6E 4E 3E 6
KE TC TO 7E 7O 3

QE TE 9E 9P 8P 2
AC 8C 5C 3C 2C 6
TO 8E 7P 6C 6O 2
AO KE QC JE TP 5
AE KO JP 4C 4O 2
JO 9C 7C 5E 4E 1
AP KC JC TC 8O 1

AE 9C 9E 2O 2P 3
QP 9O 9P 4C 4E 3
AC 7O 7P 5C 5P 3
TC 8C 7C 6C 2C 6
AO KC QC TP 8P 1
TE 8E 7E 6E 5E 6
KO JO 8O 4O 3O 6

KC 9C 8C 5C 2C 6
QC QO JC JO 8E 3
AE JE TC 7E 6E 1
AP KE KO 2E 2P 3
9E 8P 7P 6P 5E 5
AC AO TE 9O 9P 3
6C 6O 4C 4E 4O 7

KC KO QO 6O 5P 2
AC TO 9P 6E 6P 2
KE 7E 7O 2C 2E 3
AE AP QC JE JO 3
AO QP 3E 3O 3P 4
JP TP 9C 8C 7C 5
JC TC TE 9E 8E 2

QP JP 9P 3O 3P 2
5E 4E 3E 2C AC 5
KO JO TC 6E 4C 1
QO TO TP 4O 4P 3
AO AP QC 8E 8P 3
AE KC 9C 8C 7C 1
KE QE JE TE 9E 9

7P 6E 5E 4E 3O 5
AC AE QE JP 6O 2
KE 9E 7E 3E 2E 6
AP QO TE 8E 8P 2
KO QP JE 8O 6P 1
TO 9C 9P 7O 6C 2
KC TC 8C 7C 4P 1

AC AE 7P 6O 4E 2
6C 6E 6P 4O 4P 7
AO JC JE 8O 7O 2
KO QO TE 5C 5E 2
QC JO TC 9C 9O 2
KC QP TO 8E 8P 2
AP KE QE JP TP 5

AC KC 2C 2E 2P 4
TP 6C 6E 5O 5P 3
AO AP JP 9P 7C 2
QP 8E 8P 3C 3O 3
8C 7P 6P 5C 4O 5
KE QC JC TO 9C 5
AE QE 5E 4E 3E 6

AC KC KE JC 9C 2
AO QO 8O 6O 2O 6
TP 9P 7C 7P 6E 2
QC 9O 6C 6P 4E 2
AE KO QP JO TC 5
AP TO 8C 7E 5P 1
QE 9E 8E 5E 3E 6

7O 6C 5P 4C 3P 5
TE 7C 7P 6P 5C 2
QE QP 8C 8O 8P 7
AC AE AO 9C 9P 7
QC JC TC 3C 2C 6
QO JO 5O 4O 2O 6
6E 5E 4E 3E 2E 9

TE TP 8C 8P 7O 3
AC QE JC 5C 5E 2
AP QP JE 2E 2P 2
KE JO TO 9O 8O 1
AO QO 9P 2C 2O 2
KO QC JP 8E 6P 1
AE KC TC 3E 3O 2

AP QE JC JO 9O 2
AC QC TE TP 9P 2
KC 7E 5O 2E 2O 2
AE AO JE 7C 4C 2
KE QP JP TO 7O 1
KO QO 8O 6C 5C 1
TC 9E 8E 7P 6E 5

AP QE QO JE 6O 2
QC JC TC 6E 4P 1
8E 7E 6C 5O 4O 5
AC KE QP 9O 8O 1
AO KC KO TE TO 3
AE JO 8C 8P 7P 2
JP TP 9C 9P 4C 2

AC 9C 9P 2C 2E 3
KO QO TO 6O 2O 6
KE QC 5C 5E 5P 4
AP 9E 3C 3O 3P 4
AO KC JC JE 6P 2
AE 7C 7E 7O 7P 8
QP JO JP TC TP 3

AC QE 2C 2E 2O 4
AE AO KC KE TE 3
QC 9P 6O 3E 3P 2
JE 9E 7E 6E 5E 6
JO JP 7O 6C 6P 3
QP TC TP 8C 8O 3
AP KO QO TO 7C 1

AC QO JO JP 7O 2
AO KO 9E 5E 5O 2
KC QP 9C 9O 8C 2
AE TO 8O 7P 6P 1
AP 8E 8P 4E 4O 3
KE QE 2C 2O 2P 4
TC TP 5C 5P 4P 3

AP 9P 8O 7E 7P 2
AC KE KO QC 9O 2
KC QP JP TP 9C 5
AO JC TC TO 7C 2
AE JO 8E 3C 3P 2
QO JE TE 5E 5O 2
QE 6O 6P 4E 4P 3

AC JP TE 9C 7P 1
AE QP TP 9O 6E 1
KO JC 8E 8P 7C 2
QC 9P 7O 5C 5O 2
KC JO 8C 2E 2P 2
KE QE JE TC 9E 5
AO 6O 4O 3O 2O 6

AC AP QP 7C 6P 2
TO 9O 8P 7O 5C 1
QC QO JC 9P 7P 2
AO KC KO JO TE 2
AE JP TP 9C 8C 1
TC 8O 6O 4E 4O 2
9E 8E 7E 6E 5E 9

AC JO TE TP 6C 2
KC QP 8C 8E 8O 4
AE JC JP 9E 9O 3
5C 5O 5P 4E 4O 7
QE QO 7C 7P 5E 3
AP KE KO 6E 6P 3
AO TO 6O 3O 2O 6

JE 7C 7O 2C 2P 3
JO TE 9O 8O 7P 5
AO KE QE TO 8C 1
QO TC TP 9C 8P 2
AE AP KO 4C 4E 3
AC QP JP 5E 5P 2
JC 6C 6P 5C 5O 3

AC AE KE 4E 4P 3
AP TO 6E 2C 2P 2
QC JO 8E 7E 7P 2
AO KC 9C 9E 9P 4
TE TP 5C 5O 5P 7
JP 8C 8P 7C 7O 3
QE JC JE TC 9O 2

AE QP 8C 4C 4P 2
5C 5E 5O 4E 4O 7
AO AP KO 6E 6P 3
9C 9E 8E 7C 7O 3
JC TC 9O 8P 7P 5
AC KC QC JE TE 5
QO JO TO 6O 3O 6

AO KC KE QE 9C 2
QC JC JP 9O 8P 2
AE TO 8C 7C 6E 1
QP JE JO TC 8O 2
AC 9P 8E 2C 2P 2
AP KO QO 5E 5O 2
7O 6O 5P 4C 3P 5

AC QE TP 3E 3P 2
KC JP 9E 8E 7C 1
AO QP 5E 5O 5P 4
JC TE 9C 8C 7E 5
AE AP JE 8O 8P 3
KE 9O 6P 3C 3O 2
KO QC QO TC TO 3

QC QO JE TC 6O 2
AP QE TE 3O 3P 2
KO 9O 7O 5O 4O 6
JP 8O 6E 2O 2P 2
AE JC JO TO 9P 2
KC 8C 8P 7E 7P 3
AC KE TP 2C 2E 2

KE JP 5E 2C 2O 2
AC AP QO QP 9E 3
QC JC TO 6C 6O 2
QE JO 9O 7C 6E 1
AO KC TC TE 9C 2
AE 7E 7P 2E 2P 3
8P 6P 5P 4P 3P 6

AC AO QE JE 7P 2
KC QP JP 9E 8P 1
JC 9C 9P 7E 5E 2
JO 8C 8E 2E 2P 3
AE KE TC 6C 5C 1
QC QO TE 7C 7O 3
AP KO TP 4E 4P 2

JO TO 8C 8P 7E 2
AP KO QO 7P 4P 1
AE QC 8E 6E 5P 1
JE 9C 6P 3E 3P 2
QP JP TP 9E 6C 1
AC JC TC TE 9P 2
AO KC KE QE 7O 2

QP 7C 6C 3O 3P 2
JP 9E 8C 2C 2E 2
AC AP JC TO 8E 2
KE 7E 7P 5C 5P 3
KO QC QE JE 9C 2
KC TC TP 9P 7O 2
AE QO 9O 8O 6E 1

AC AP JP 3C 3P 3
JC JO 7C 7E 5C 3
QP 7P 6P 5P 2P 6
TC 9C 8C 6C 4C 6
AE KC QC TP 9P 1
TE 9E 8E 6E 5E 6
AO KE KO QE JE 2

KC KE JC TP 9C 2
AC QP JP 8C 7O 1
KO TC TE 8O 5C 2
AO QC 9E 9O 9P 4
AE JE 8E 7E 2E 6
7P 6P 5E 4E 3O 5
AP QO JO 4O 4P 2

AP JE JO 8C 8O 3
JC 9O 8E 5P 4E 1
AO KO QE QO 6P 2
AC JP TO 3C 3P 2
9C 8P 7P 6E 5C 5
KE TE TP 9E 9P 3
QC TC 7C 2E 2O 2

KE QE JP 5O 4C 1
AO 6O 3E 3O 3P 4
TC 9E 8C 7O 6C 5
QO QP JC JO 9C 3
AE KC QC 6E 5E 1
KO TE 8E 7E 7P 2
AP JE TO 8O 8P 2

KC JP 6O 5E 5P 2
KO 8O 8P 6E 6P 3
JC TC 9P 6C 4C 1
QO 9E 8C 4O 4P 2
AE QC QE TP 7O 2
AC AP QP 9O 7P 2
JE JO TE TO 8E 3

QC TP 9P 4E 4O 2
AE QE QP 2E 2P 3
AC QO 7E 3C 3E 2
KO JP TE 5E 5P 2
AO KE JE 8O 5C 1
AP TO 9O 6C 6O 2
9C 7C 7P 4C 4P 3

QE JO TC 9O 8P 5
AC AO KE TE TP 3
6E 5C 4E 3C 2C 5
9C 7C 7O 4C 4O 3
KO QC JP 9P 8C 1
AP QO TO 3E 3P 2
AE KC 8O 7E 5E 1

QC QO 9O 7C 6O 2
AP KO JE 9C 8C 1
AC KE 4C 4E 4P 4
AO QP JC JO 7O 2
AE KC TC 8O 8P 2
JP 2C 2E 2O 2P 8
8E 7E 6C 5C 4O 5

JC TE TP 8E 7P 2
AO JO JP 9E 7C 2
AC QE 9P 2O 2P 2
KC KE 9C 4C 4O 3
JE 8O 8P 5O 5P 3
AE AP QC QP 9O 3
KO QO TC TO 5E 2

AC JE TE 9E 7P 1
KE QE 7O 6O 4P 1
AO QC QO 7C 7E 3
TC 9C 8P 3O 3P 2
8E 8O 6P 4E 4O 3
AE AP KC KO JP 3
QP TP 6C 2E 2P 2

AC KE JO TO 8O 1
KO QO JE 6E 5C 1
AP JC JP 9O 8P 2
TE 9C 8C 7P 4E 1
9P 8E 7E 3E 3O 2
AO 7O 6O 5O 4O 6
QC TC 6C 3C 2C 6

AC JE TE 6C 4C 1
QC 9C 8O 4E 4O 2
QE TP 9E 8C 6P 1
AO KE KO 9O 6O 2
QO QP JP 2O 2P 3
KC JC 7C 7E 7O 4
AE AP JO TC TO 3

AC KO QO 7E 7P 2
AP JO 9C 9E 9O 4
JC TC TO 2C 2P 3
5C 4P 3C 2O AO 5
AE KC QC 8C 8P 2
QE TP 9P 7C 6E 1
KE QP JE 8E 7O 1

AE AO KC KO QP 3
9E 7C 7O 2E 2O 3
QO 5C 5E 4C 4P 3
AC QE TC 8C 6E 1
AP QC 8E 8O 8P 4
KE JE JO 9O 9P 3
JP TP 7P 3P 2P 6

JC JE 8C 6C 5C 2
AP KO QE TP 7E 1
AC AO KC KE QC 3
8E 7C 6P 5P 4C 5
JP TC TE 2E 2O 3
QP 5E 5O 3O 3P 3
QO 9O 9P 8P 7O 2

AP KO TP 9O 8P 1
QC JP TO 8O 7O 1
AO 8C 8E 7E 5E 2
AC KE TC 6E 6O 2
QE JC JO TE 9C 2
6P 5P 4O 3O 2O 5
KC QP 9P 5C 5O 2

JE TC TE 9C 8C 2
KE KO QE QO TP 3
AP QC QP 5C 5O 3
AE KC JP 6P 5E 1
9E 8E 8P 4C 4E 3
AC AO 9P 7P 6E 2
9O 8O 7E 7O 6C 2

9C 9E 9O 8C 8P 7
AP QO QP JC 7C 2
5E 4P 3O 2P AC 5
TP 9P 7P 6P 5P 6
JP 7E 6E 4C 4O 2
AE KE QE 3E 2E 6
AO JE 8E 7O 5O 1

AC KC JE JO TE 2
KO QP 8E 6C 5C 1
QE 9E 8C 8P 7P 2
AP KE 9O 3O 3P 2
AO JC JP 9P 6P 2
AE QC TP 2C 2E 2
TC 8O 7E 7O 6O 2

KC 6E 6O 5O 5P 3
AE QO JC TC TO 2
QC 8C 8E 2C 2P 3
AC TE TP 5C 5E 3
AP QP 7C 7E 6C 2
AO KE QE JE 9C 1
KO JO 7P 4O 4P 2

AC AP JO 7C 7O 3
QE 7E 6E 4E 3E 6
AO 9C 9O 2E 2O 3
TO 8E 8O 6C 6P 3
QO JC JE 9E 8P 2
JP TE TP 9P 6O 2
KC KO QC TC 8C 2

-1 0.00E+00
1 1.63E-01
2 4.07E-01
3 2.10E-01
4 3.76E-02
5 7.24E-02
6 7.57E-02
7 2.14E-02
8 2.38E-03
9 1.05E-02
10 0.00E+00
