2
1
1
1
2
1
2
2
1
1

1
2
1
1
1
2
1
3
1
6

1
1
3
2
1
1
1
1
2
6

2
2
1
6
2
1
1
1
1
1

1
2
1
1
1
2
2
3
2
1

1
2
1
2
2
1
3
2
1
6

2
2
2
2
1
1
2
1
2
2

1
1
1
1
1
2
1
2
1
9

1
1
2
1
1
1
1
1
1
1

2
3
4
2
2
1
1
2
1
2

2
1
2
1
2
2
1
1
2
2

1
2
1
2
1
1
2
2
1
2

2
1
1
2
2
1
6
1
1
6

1
2
1
2
1
2
5
1
2
6

2
2
1
2
1
2
1
1
1
1

1
1
2
2
2
2
2
1
2
2

2
2
2
1
1
2
2
2
2
1

2
1
1
2
1
1
3
1
2
1

4
1
1
1
3
2
2
1
1
2

1
1
1
1
1
2
3
2
1
1

2
1
1
2
1
1
2
1
2
5

1
2
2
1
2
1
3
1
1
1

1
2
2
2
1
1
1
1
2
1

1
1
2
3
1
1
2
2
1
5

2
1
2
2
1
3
2
2
1
1

3
1
2
1
1
1
2
1
2
2

1
2
1
1
2
2
1
1
1
2

1
2
2
2
1
1
2
2
2
2

2
1
1
1
2
1
2
2
1
1

2
1
2
1
2
1
2
1
1
3

1
2
1
4
4
2
2
2
2
1

1
1
2
1
2
1
2
4
1
1

3
4
2
1
1
2
2
2
2
1

1
2
2
2
2
1
2
2
2
2

1
2
2
2
1
2
2
1
6
2

1
2
2
2
1
2
1
2
2
1

3
2
2
1
1
2
1
4
1
1

2
1
1
3
1
1
2
2
1
1

1
1
1
1
1
2
1
2
1
1

1
2
1
1
1
4
1
1
1
1

2
2
1
1
2
1
2
1
1
1

2
1
1
1
2
1
1
1
2
9

1
3
1
1
2
2
2
2
1
9

2
1
2
2
1
2
1
2
2
2

1
2
1
2
1
1
1
1
1
2

2
1
1
2
2
1
2
1
1
2

1
1
1
1
1
2
1
2
2
2

1
1
1
3
2
2
2
1
1
2

2
2
2
1
1
1
1
1
1
1

2
1
2
2
1
1
2
1
1
1

1
2
2
1
1
2
1
2
1
5

2
2
2
1
2
3
3
3
2
1

1
1
1
1
2
2
2
1
2
2

2
1
2
2
1
2
1
1
3
1

1
1
2
2
1
1
1
2
1
3

1
1
1
2
1
1
1
2
2
1

1
2
1
1
2
2
1
1
4
6

2
4
1
3
1
2
1
5
2
2

2
1
1
1
6
1
2
6
2
6

1
2
2
2
1
1
3
3
2
1

2
1
2
1
1
2
2
1
1
1

1
2
3
3
2
3
4
1
3
2

1
1
2
1
1
2
4
2
1
2

1
1
2
5
1
1
1
1
1
1

1
1
3
2
2
3
6
2
1
1

2
1
2
1
1
2
1
1
1
2

1
2
2
2
1
2
1
2
2
2

2
1
1
1
2
2
1
1
2
2

1
2
2
1
2
1
1
1
1
1

1
6
1
1
1
1
2
1
1
1

2
1
1
1
2
1
1
1
1
1

1
1
1
2
1
2
2
2
1
1

2
1
2
2
2
2
1
1
2
1

1
2
1
2
2
2
1
1
1
1

1
2
2
2
1
1
1
3
1
1

2
2
2
2
1
1
1
1
1
2

1
1
2
1
2
2
2
1
2
6

3
2
2
2
1
1
6
1
1
6

1
1
2
1
1
2
1
2
1
1

2
1
1
2
1
2
2
1
1
2

1
1
2
2
2
2
3
2
1
1

1
1
2
2
2
1
2
1
1
2

1
2
2
3
1
2
2
2
1
6

2
1
1
1
2
1
1
1
3
1

2
2
1
1
1
2
1
1
2
1

1
2
1
4
1
2
1
1
1
5

1
1
1
1
2
2
1
1
1
1

1
2
1
2
2
1
2
2
6
2

2
1
1
1
1
1
2
1
1
2

1
1
1
1
1
1
1
2
1
9

1
1
1
1
1
1
2
1
1
6

2
1
2
2
1
3
1
2
2
1

2
1
2
2
2
1
1
1
2
1

2
1
1
2
2
2
2
4
1
2

2
1
2
2
1
1
1
1
2
2

1
4
2
3
1
2
2
1
1
1

2
2
1
2
1
3
1
2
2
2

1
1
2
1
2
1
5
3
2
2

2
1
2
2
1
1
2
3
1
1

1
2
1
4
2
1
2
1
2
1

2
1
1
2
3
1
2
5
2
1

1
1
2
2
4
1
1
1
1
1

2
2
1
1
1
2
2
2
1
2

2
1
3
1
2
2
1
1
1
2

2
2
2
1
1
2
1
2
1
6

2
2
1
1
1
2
1
1
1
2

2
2
1
1
2
2
2
2
2
1

1
1
2
1
1
1
3
1
2
9

1
1
1
1
1
1
1
1
1
1

1
1
2
1
3
1
4
1
2
1

2
5
1
2
2
2
2
1
1
1

1
1
1
3
4
3
2
1
2
1

3
1
2
1
2
2
2
1
1
1

2
1
1
2
1
1
3
1
2
1

2
2
2
2
2
2
6
1
1
6

1
1
2
2
1
1
2
1
1
1

1
1
2
2
1
2
2
2
1
1

1
1
1
2
2
2
1
2
2
1

1
2
1
1
4
2
2
9
1
6

2
2
1
2
2
2
2
1
1
2

2
1
1
1
1
3
2
1
2
1

1
2
1
2
2
1
4
3
1
2

2
1
1
1
2
1
5
2
2
2

2
2
2
1
2
1
5
1
1
2

2
1
2
2
2
2
4
2
1
1

1
2
2
3
2
3
2
1
1
1

7
1
1
1
1
1
1
2
1
2

2
2
1
3
2
2
1
1
1
1

2
1
2
1
1
1
2
1
1
1

1
1
3
2
1
1
2
5
1
2

2
1
1
1
2
2
1
2
2
1

1
2
1
2
1
1
1
2
1
1

1
1
1
1
1
1
1
2
2
2

2
1
1
1
1
1
1
2
2
2

1
2
1
2
2
2
2
2
2
1

1
1
2
1
1
2
2
2
1
1

2
1
3
1
2
1
1
2
1
2

1
1
2
1
1
1
1
3
1
1

1
1
1
1
3
1
3
2
1
1

1
2
2
2
2
2
1
1
1
2

2
2
3
1
2
3
2
3
2
1

1
1
2
2
2
1
1
1
1
1

1
1
2
1
3
3
2
1
1
2

1
2
1
1
2
2
1
1
2
1

2
2
2
2
1
1
1
1
2
2

1
2
2
2
2
1
2
1
3
1

2
1
2
1
1
2
1
5
1
1

4
1
1
1
1
2
1
3
1
1

2
2
4
2
1
1
1
1
1
1

1
2
1
1
1
1
2
2
1
1

1
2
2
2
1
1
1
2
1
3

3
1
1
1
1
1
2
1
1
1

1
1
1
1
1
2
1
1
1
6

2
2
2
1
1
1
1
1
1
1

1
1
2
1
1
2
1
1
1
6

1
2
2
1
1
1
1
1
1
6

1
3
2
1
2
1
1
2
2
1

1
1
1
2
2
2
1
2
2
1

1
2
1
2
1
2
2
2
2
1

2
6
1
2
2
1
2
2
2
2

2
2
2
2
2
2
2
1
2
1

3
2
1
2
1
3
1
1
1
2

1
1
2
1
2
2
1
2
2
1

2
2
2
1
1
1
2
1
1
2

1
1
1
2
1
2
2
1
2
2

1
2
2
2
2
2
1
2
2
1

2
2
1
1
2
1
3
1
2
1

1
2
2
2
2
1
1
2
1
1

1
2
1
2
2
1
2
1
1
2

1
1
2
3
2
2
1
2
1
2

4
1
2
1
2
2
1
2
2
5

1
2
1
1
2
3
1
2
2
6

1
2
2
1
2
2
1
1
1
1

1
2
1
1
1
2
1
2
2
1

2
2
2
3
2
2
2
1
2
3

3
2
1
2
2
2
2
2
2
1

1
1
1
1
1
2
2
1
1
1

1
1
2
2
1
1
1
1
2
1

1
2
1
1
1
2
2
2
1
2

2
2
2
2
2
2
2
2
2
1

2
2
1
1
1
2
2
2
2
2

2
1
1
1
1
3
1
1
1
2

4
2
1
1
1
2
2
2
1
2

1
1
1
1
2
1
1
2
1
2

2
2
1
2
1
2
1
2
1
2

1
2
2
2
2
2
2
2
2
1

1
2
1
1
2
3
1
1
2
1

2
1
1
1
2
1
2
2
1
1

2
1
3
2
2
1
5
1
2
1

1
1
1
1
2
1
1
4
2
1

2
1
7
1
2
3
1
2
2
1

2
1
2
2
1
1
1
1
1
1

2
1
2
1
1
1
1
1
1
1

3
2
1
1
2
1
1
1
1
6

3
2
1
1
2
1
2
2
1
2

1
2
1
1
1
1
2
1
1
2

2
2
1
1
2
1
2
1
1
6

1
2
1
2
1
1
2
2
2
6

1
2
1
1
2
2
2
2
2
5

3
3
1
1
2
4
3
2
2
2

1
1
1
1
1
2
1
1
4
1

1
2
2
1
1
2
1
2
1
6

1
1
1
1
2
2
2
1
2
1

1
2
2
2
1
2
1
1
1
2

2
2
2
3
1
1
1
1
1
9

3
2
2
1
3
1
1
1
1
1

2
2
1
1
1
2
2
2
2
2

2
1
1
1
1
2
1
2
4
2

9
2
2
1
1
1
1
1
1
1

1
2
1
2
1
1
2
3
1
2

2
3
1
1
2
1
2
2
2
1

2
2
2
1
2
1
1
2
2
6

5
1
2
1
2
1
2
2
2
2

1
1
1
2
2
2
3
2
2
1

2
1
2
1
2
1
1
5
1
6

1
2
1
3
1
2
5
2
1
1

1
2
1
1
1
1
2
1
1
1

1
2
2
1
1
1
1
1
1
6

2
2
2
2
3
1
2
2
1
2

1
1
2
1
2
2
1
1
1
2

1
2
1
2
1
2
3
1
1
1

1
1
3
4
3
2
2
2
2
1

1
2
1
1
2
1
2
6
1
1

1
3
1
2
1
1
1
2
2
2

1
2
2
1
1
2
1
1
1
2

1
1
2
1
1
2
2
2
1
1

1
1
2
1
2
2
2
2
2
5

1
3
3
1
1
1
3
1
1
9

1
1
1
1
1
1
1
2
1
1

1
2
2
1
1
1
1
1
2
2

1
1
1
2
1
1
1
1
1
1

2
2
1
2
5
2
4
2
1
1

2
3
2
3
1
2
2
2
1
2

1
3
7
2
1
1
2
2
2
1

1
2
1
2
2
2
1
2
2
1

1
2
2
1
1
1
1
1
2
1

2
1
2
2
1
1
6
2
2
1

2
1
2
2
1
2
2
2
4
1

4
1
2
1
2
2
2
2
1
2

1
1
3
1
1
2
1
1
1
6

1
1
3
1
1
2
2
1
1
1

1
1
2
2
4
1
2
1
6
1

2
4
1
3
3
1
2
1
1
2

2
1
1
2
1
1
3
1
1
1

1
2
2
2
1
2
1
2
2
1

1
1
3
2
2
2
1
2
2
1

1
1
1
1
2
2
1
1
1
1

1
3
1
1
1
1
2
2
2
3

2
3
1
1
2
2
1
1
2
2

2
1
1
2
2
1
1
1
1
1

2
4
2
1
1
2
1
4
1
6

1
1
2
1
1
1
1
2
1
4

2
1
2
2
1
4
4
2
3
2

2
1
3
1
2
1
2
1
1
1

1
1
3
1
1
1
1
2
2
1

1
3
2
1
2
2
1
1
1
1

2
2
2
2
2
1
1
3
1
1

2
1
1
1
2
1
1
1
1
1

1
3
1
3
3
2
1
6
2
1

2
1
1
1
1
2
2
1
2
2

1
1
1
1
3
1
1
1
2
4

2
1
1
5
2
3
2
1
2
1

2
1
2
2
1
2
2
2
2
1

2
2
1
1
2
2
2
2
1
1

1
1
1
1
1
1
1
1
2
2

2
1
2
1
1
2
2
1
1
1

1
1
1
1
2
1
1
1
1
1

1
1
1
1
1
1
1
1
3
6

1
1
3
2
4
3
2
2
2
6

2
1
1
1
1
1
1
1
1
2

2
1
2
2
2
1
4
2
1
1

1
2
2
3
2
2
2
5
1
1

2
1
1
1
2
2
2
2
1
3

2
1
1
4
2
1
2
1
1
1

1
3
1
2
2
1
2
3
1
1

2
3
2
1
1
1
1
2
2
6

2
2
1
1
2
1
1
2
1
2

2
1
2
1
1
2
1
1
2
6

1
2
1
2
1
2
2
2
1
1

1
2
2
1
1
2
1
2
1
1

1
2
1
2
1
2
1
1
5
1

2
1
1
1
1
3
5
2
2
1

1
1
2
1
1
2
1
2
1
2

2
1
1
1
1
4
1
2
1
3

2
1
7
1
1
2
1
2
2
2

1
1
1
1
2
2
1
2
3
2

2
1
1
4
1
1
2
3
2
1

1
2
3
1
2
2
2
2
2
1

1
1
2
2
1
2
2
2
2
1

1
2
1
2
1
2
1
1
1
6

1
2
1
1
1
1
2
2
5
2

1
1
3
2
2
2
2
1
1
1

2
2
2
2
1
1
4
2
1
1

2
1
1
1
1
1
2
3
1
2

1
1
2
1
2
2
1
1
1
1

1
2
1
2
1
2
3
1
1
5

2
2
1
1
2
2
2
2
6
6

1
1
2
1
1
1
1
1
1
2

3
2
2
2
1
2
2
1
1
1

2
1
2
1
1
1
1
2
2
2

-1 0.00E+00
1 5.14E-01
2 3.93E-01
3 4.70E-02
4 1.60E-02
5 9.33E-03
6 1.63E-02
7 1.33E-03
8 0.00E+00
9 3.00E-03
10 0.00E+00
