AC JE TE TO 9P 2 AC TC TE 9C 9P 3 2
KC JC 6E 4C 4P 2 KC JC 7E 5C 5P 2 2
KE QC QE JP TP 2 AO KE QC QE JP 2 2
AE 7O 6P 2C 2O 2 QO JO 7O 3O 2O 6 2
AP KO 9E 9O 8E 2 AP KO 9O 8E 8O 2 1

AE JC JE TP 7O 2 JC TO TP 5E 5P 3 2
QC JO 9O 7C 7P 2 AC QC JO 9O 8O 1 1
AO KE TC 8C 8P 2 AO KE QP TC 6E 1 1
KC QE 9P 2C 2E 2 KC 3C 3O 2E 2O 3 2
9E 8E 7E 4E 3E 6 JP 9C 9E 8E 7E 2 1

AP TC TE 6C 6O 3 QE JC TC 6C 6O 2 1
KC QC JP 9E 8E 1 KC QC TP 9E 8E 1 1
AE KE 9C 9O 5O 2 AE KE 9O 7O 4P 1 1
AO KO QP 7C 7P 2 AO KO QP 7C 7P 2 0
TO 8O 7E 5E 5P 2 AC TO 7E 6E 5E 1 1

QP JO JP 3C 3P 3 QE QP JP 8P 4C 2 1
QO 9E 6E 6P 5P 2 AC 8E 6E 6P 5P 2 2
KE TP 9P 7P 5C 1 KE TE TP 7O 5C 2 2
JC JE 8C 8O 7C 3 JC JE 8C 6C 6O 3 1
AO KC QC 9C 9O 2 AO KC QC TC TO 2 2

QP JE TP 8C 8P 2 JE 8C 8P 2E 2O 3 2
AC KE 9C 7C 6C 1 JP 9C 7C 6C 5P 1 1
AO KO QE JC JO 2 AO KO QC 3C 3E 2 1
9P 5C 5O 4C 4P 3 9P 7P 6P 4P 3P 6 2
QO TC TO 9E 8O 2 AE KC TO 9E 8O 1 1

QO TO TP 8C 7C 2 QO TO TP 7C 7E 3 2
AE AP KC JC TC 2 AE KO JC TC 7O 1 1
KE JE 5E 3E 2E 6 JE JO 5E 5P 3E 3 1
JP 7P 6P 4P 3P 6 QP TE 9C 7P 6P 1 1
AC AO QE 9E 9P 3 AC AO QC QE 9E 3 2

KC JC 8C 3E 3O 2 AP KC TC 8C 7O 1 1
KE 9C 9O 4E 4P 3 9C 9E 9O 4C 4E 7 2
AO JO TO 4O 2O 6 5C 4O 3P 2O AC 5 1
KO TE 9P 6E 6P 2 KO QO TE 6C 6E 2 2
AE JE 8E 2C 2E 2 AE JE 8E 7E 2E 6 2

AO KO 7O 6O 4O 6 AO JP TC 7C 7O 2 1
KC QE QO TP 9C 2 KC QE QO 2C 2P 3 2
AE KE QC QP JC 2 AE QC JC 5O 5P 2 1
JO 8O 8P 7E 6P 2 JO TO 9O 8P 7E 5 2
AC JE 3C 3E 3P 4 AC AP 3C 3E 3P 7 2

AC JP TE 9E 6E 1 TE 9E 8E 6E 4E 6 2
KO 9C 8P 5C 5E 2 KO JE 9C 4O 4P 2 1
AE QO 7E 6O 6P 2 AE AP 6O 6P 5O 3 2
AO KE QE QP 8O 2 AO KE QE TP 8O 1 1
QC JO 9O 9P 7C 2 QC JO TO 7C 7P 2 1

JP 9E 8P 7O 5E 1 9E 8P 7O 6P 5E 5 2
AP QC 8O 3C 3E 2 AP QC 9O 9P 4C 2 2
AC TE TP 5C 5O 3 AC KC TO 5C 5O 2 1
AE QP TC 6C 6O 2 AE TC 9C 4E 4O 2 1
KE KO QE JC 8E 2 KE KO QE JC JE 3 2

AC QE JO 6E 6O 2 AC QE JO 9P 7P 1 1
AP KE 8P 7E 7O 2 AP 8P 7E 4O 4P 2 1
AO 3C 3E 2C 2O 3 8E 5E 5O 3C 3P 3 2
KC JP 9E 9O 8O 2 KC QP JE 9E 9O 2 2
KO QC QO TO 9C 2 KO QO TO 9C 8C 1 1

AC QP JP TP 7C 1 AC JP TP 6E 6P 2 2
KO 9O 7O 7P 6O 2 KE KO 9O 5C 5E 3 2
AO KC 8P 6C 5P 1 AO AP KC 9P 6C 2 2
JE TE 9E 8O 7E 5 QO JE TE 9E 7E 1 1
AE QE JO TC TO 2 AE TC TO 9C 8C 2 1

7C 7P 6P 4C 4E 3 8C 7C 6P 5P 4E 5 2
AE TP 8E 7E 5E 1 AE AO TP 8E 8P 3 2
QP JP 9C 9E 9P 4 JP 9E 9P 5C 5O 3 1
AC KO QO JC JE 2 AC KO JC JE JO 4 2
KE QC TE 6E 4O 1 KE QC QE TE 6C 2 2

QC JP 9O 8P 6P 1 QC QP JO 9O 8P 2 2
QO JC 9E 9P 5C 2 JC 9E 7E 6E 5C 1 1
AC QE 8O 4E 4O 2 AC TO TP 4E 4O 3 2
AP KO 9C 2E 2P 2 AP KC 9C 2C 2P 2 0
KE JE TC 7O 7P 2 AE KE JE 3E 3P 2 1

QC QE TO 2E 2O 3 AP QC QE 9O 4O 2 1
9P 8P 7C 6O 5O 5 KO JO 9P 8P 6O 1 1
QO JE TC 4C 4E 2 QO JE TC 9C 8C 5 2
AE KC JC JP TP 2 AC AE KC JC JP 3 2
QP TE 9E 8E 5P 1 QP TE 9E 8E 7O 1 2

QE 9E 8E 7P 6O 1 AP QE 9E 8O 7P 1 2
JP TE 7O 6E 5O 1 JP TE 7O 2O 2P 2 2
AE KE QC JE TC 5 AE KE QC JO TC 5 0
9O 9P 8C 4E 4P 3 AO 9C 9O 4E 4P 3 2
AC KO QO JC TP 5 AC KC KO TO TP 3 1

AC 9C 5C 4C 3C 6 AC QE 9C 7E 6C 1 1
KC KO JO 5E 5O 3 KO JO 5E 5O 5P 4 2
AP QP JP 7P 2P 6 QC QP JC JP TC 3 1
9E 6E 4E 3E 2E 6 AE 8P 7O 3E 3P 2 1
KE JE TE TP 8E 2 KE JE TP 9P 6O 1 1

AP JP TO 9C 8O 1 AP JP 8O 3E 3O 2 2
KC KE 7C 7P 5O 3 9P 7C 7P 4E 4O 3 1
QP JC JO 2E 2P 3 QP 8C 8P 2E 2P 3 1
AO 9O 6E 6O 5E 2 AE AO QC 6E 5E 2 2
KO QO 8E 5P 4C 1 AC KO QO 8E 7E 1 2

KE QP 6C 6E 6P 4 KE QP 6C 6E 6P 4 0
AC AO TC 3C 3E 3 AO KO JP 2C 2P 2 1
AE QC 9P 8O 7O 1 AE QC 9P 8P 7O 1 0
QO JC 9E 8C 7C 1 JC 9C 8C 7C 4C 6 2
AP TE TO 5E 5O 3 AP KC TE TO 9O 2 1

AC AE KE 9O 8E 2 AC AE KE JO 9O 2 2
QC JE TO 9C 7P 1 QC QE TO 7O 7P 3 2
AO AP TE 9P 6E 2 AO AP QO QP 9P 3 2
KC KO 9E 8O 5P 2 KC TC 8O 2O 2P 2 1
JP TP 8P 2C 2E 2 JC JP TP 8P 4C 2 2

AC KC JP 3C 3P 2 AC JP 9E 6E 4E 1 1
AO KE 7O 5C 5E 2 AO KE QO 7O 5C 1 1
AE QE TE 8E 7E 6 TE 9P 8E 7E 4C 1 1
QC JC 9C 8O 6O 1 JE 9C 8O 5O 5P 2 2
QP TC TO 8C 7P 2 TC TO 9O 2C 2P 3 2

AO 9E 8E 2O 2P 2 AO 9C 9E 2O 2P 3 2
AC AP QO JE JP 3 AC AP JE TC TE 3 1
QE 8O 4C 4E 4P 4 JC 8O 4C 4E 4P 4 1
KE 6E 6P 5C 5E 3 KE KO 9O 5C 5E 3 2
JO TO TP 7C 7P 3 JO TO 9P 8P 7C 5 2

AC KE TC 5E 5P 2 AC KE TC 5E 5P 2 0
JC JO 9E 7P 5O 2 AE JC JO 2C 2O 3 2
KC QE 8C 7O 6E 1 KC QE 8C 7O 6O 1 0
AP QC 9P 8O 8P 2 AP 9P 8O 6C 5C 1 1
JE TE TP 7C 7E 3 AO JE JP TE TP 3 2

KC 5C 5O 4E 4O 3 KC KE JO 4E 4O 3 2
QO JP TE 9E 7E 1 TE 9E 8C 7E 6E 5 2
AC AO KO QE QP 3 AC AO KO QE JE 2 1
AP QC TP 2C 2O 2 AP QC TC 9O 8O 1 1
AE 9P 7C 7O 6P 2 AE TO 9P 7C 6P 1 1

AE 5C 5E 2E 2O 3 5C 5E 5O 2E 2O 7 2
AO QE QO JE JO 3 AO QE QO JE TE 2 1
KO JC TP 8E 8P 2 KO TP 8E 8P 7O 2 1
AC JP TO 7E 7P 2 JP TC TO 7E 7P 3 2
AP QP 9P 5P 2P 6 QP 9C 9P 3E 3P 3 1

KE QO TC 7O 5O 1 KE TC 7O 6C 6O 2 2
AO QE JE 9P 8O 1 AO QE JC 8O 7E 1 1
KC KO 8E 5C 5P 3 KO TE 8E 7P 5P 1 1
AP JO 9C 9E 9O 4 AP JO TO 9C 9O 2 1
QC QP TP 2E 2P 3 AE QP TP 8P 6P 1 1

AO 4E 4O 2C 2O 3 AC AP TE 2C 2O 3 2
QC QP 6O 5E 5P 3 QP 9O 8C 5E 5P 2 1
AE KO JE 9C 7C 1 AE KO TO 9C 5O 1 1
KC TC 7E 7O 7P 4 KC QO TC 7E 7O 2 1
KE JO 9P 8E 6C 1 KE 9E 9P 2E 2P 3 2

9O 8C 8P 4C 4O 3 QC 9O 8C 6E 6P 2 1
JE 9E 8E 7C 7O 2 AE JE TE 7C 7O 2 2
AO AP KE QE 9P 2 AP QE TP 3C 3O 2 1
TO 9C 8O 6O 5O 1 QO TO 8O 7P 6O 1 2
AC KO QP JP 6C 1 AC QP JO 2C 2P 2 2

QE TO 9C 9E 6E 2 AC 9C 9E 3E 3P 3 2
AP QP TP 4O 4P 2 4O 4P 2C 2O 2P 7 2
KC KE QC JP 9P 2 KC KE QC JE JP 3 2
AE JC TC 8E 7P 1 AE JC TC 7E 7P 2 2
TE 8O 8P 6C 6P 3 AO 8O 8P 6C 6P 3 2

AC QO QP 3E 3O 3 AC KE KO TC TO 3 2
AO JO 8O 7C 5E 1 AO QE JO 9O 8O 1 2
JP TP 8C 6E 5C 1 JE JP TP 6E 6O 3 2
AE AP 9P 8E 5O 2 AP 9P 8E 3C 3P 2 1
TE 9C 9E 7O 7P 3 TE 9C 8P 7P 6C 5 2

AC JC 3C 3E 3P 4 AC AO JC 3E 3P 3 1
AP JE TE 9P 8P 1 JE TE 9P 8P 7P 5 2
QE 9C 8E 8O 6O 2 QE 9C 8E 8O 7C 2 2
QC TC TP 6E 6P 3 AE 6E 6P 4O 4P 3 1
KC KO QP 9O 6C 2 KC KO QP JP 9O 2 2

KC JE 9P 4C 4O 2 KC 8P 7C 4C 4O 2 1
KE TO 9O 7P 5C 1 TE TO 9O 8O 5C 2 2
QE QO QP JP 6C 4 QE QO QP 2O 2P 7 2
AP KO JO 7O 6O 1 AC AP TC 7O 6O 2 2
JC 8C 6E 6P 5P 2 JC TP 9C 6E 6P 2 2

QE QP 9C 8O 4P 2 QE QP 3C 3E 3O 7 2
AC AE 8C 6E 4C 2 AC KE TE 6E 4C 1 1
QC JC TC 7C 5C 6 JC TC 7C 7E 7O 4 1
AO TO 9O 8E 5E 1 AO KC JE TO 8E 1 2
KO QO JO 6O 5O 6 KO QO 6O 5O 4O 6 1

KO JC TC 9O 7P 1 KO TC TO 3C 3O 3 2
AP JP 6E 6P 5C 2 7C 6E 5C 4C 3E 5 2
AO KC QO JO 7E 1 KC QO JE JO 7E 2 2
AC QP TE TP 9E 2 AC QP TE TP 9E 2 0
KE QC QE 9C 9P 3 AE KE QE 8E 2E 6 2

AO JE 8C 7C 5E 1 AO 8C 8O 7C 7P 3 2
AC QE QP JC TE 2 AC KE QP JC TE 5 2
AE AP JO TO 9O 2 AE AP QO JO TO 2 2
KO QC 7E 5C 5O 2 KO 9P 7E 5C 5O 2 1
8P 6C 6O 3C 3P 3 9C 7O 6C 3C 3P 2 1

9C 2C 2E 2O 2P 8 9C 9O 2C 2E 2P 7 1
JO TO 8E 7O 6O 1 JC JO TC TO 8E 3 2
KE QC QP 7E 6E 2 KE QC JP 7E 6E 1 1
AE AO KC 8P 7P 2 AE AO QO 9E 8P 2 1
AC AP KO 4O 4P 3 AC AP TP 4O 4P 3 1

KE QE 7C 7O 5P 2 QE 9P 7O 5P 4E 1 1
QO JE TC 5E 5O 2 JE 9C 9E 5E 5O 3 2
AO QC TP 8P 7P 1 AO QP TP 8P 7P 1 0
JP 6E 6O 2E 2O 3 JP TE 8O 6E 6O 2 1
KC JC JO TO 9O 2 AC JO TO 9O 5C 1 1

KE KO 8C 6C 6P 3 KE KO 9C 8C 8O 3 2
TO 9P 8P 2O 2P 2 TO 7C 7P 2O 2P 3 2
JE JP TE 4O 4P 3 JE JP TP 4E 4O 3 0
KC QE QP 5E 5O 3 KC QE JO TC 9E 5 2
AC AE AO JC 9O 4 AE AO QC 9O 7O 2 1

JE 9E 9P 2C 2O 3 AP 9E 8P 2C 2O 2 1
AE KC JC TC 6O 1 KC JC TC 7P 6O 1 1
QE TP 8E 7E 7O 2 QE TE TP 7O 4E 2 2
KO QC QO 9O 8O 2 KO QO 9O 8O 5E 1 1
AO 9C 8C 5C 5O 2 AO KE TO 9C 7C 1 1

AE AP KO 8P 5O 2 AP KO 8P 7P 6P 1 1
AC JC JP 6C 6O 3 JP 6C 6O 3C 3E 3 1
QC 9P 8C 7E 4P 1 QC 9C 9P 8C 5C 2 2
KC QP TE 4C 4E 2 KC TC TE 9E 7C 2 2
QO JE JO 8E 8O 3 QO JE 8E 8O 7O 2 1

JC JE JP TC TO 7 AO QC JC JP TC 2 1
AP QE QP 5C 5P 3 QE QP JO 5C 5P 3 1
AE KC QO 9O 8E 1 AE KE 8E 6E 3E 6 2
7E 6C 5O 4O 3C 5 9P 4E 4O 3C 3P 3 1
7C 6O 5E 4P 3O 5 TP 9C 7C 6O 5E 1 1

KE QO JE 8C 6E 1 KE 8C 8E 5E 5O 3 2
KO JC TC 8O 7O 1 TC 8O 7C 7O 5C 2 2
JP TE 9E 9O 7P 2 QE QP JP 9E 9O 3 2
AE 7E 6C 4C 4E 2 AO QC 7E 6C 4E 1 1
AC KC JO TO 9C 1 AC AP KC 9C 9P 3 2

AC QE 9C 9E 5O 2 QE 9C 9E 3O 3P 3 2
QO JC JE 9P 6C 2 JC JE 9P 8O 6O 2 1
QP JO TP 7C 5P 1 QP JO JP TE 7C 2 2
KC QC TC 8C 4C 6 KC QC TC 8C 5C 6 2
AE KE 7E 6E 5E 6 7E 6E 5E 4E 3E 9 2

KE TC TE TP 7E 4 KE TC TE TP 7E 4 0
AC QE 9E 8C 6O 1 AC QP JP 8C 6O 1 2
AE AP JE 9C 7C 2 AE JE 9C 4C 4E 2 1
AO QC QO 8E 4P 2 QC QO JC 6E 4P 2 1
9O 8O 7O 7P 5O 2 KC 8O 7O 5O 4O 1 1

AC AE KE TC TE 3 AC AO KE TE TO 3 0
AP TP 9O 8P 5C 1 AP 9O 8O 6E 5C 1 1
QC QP JC JO 9P 3 QC QP JO JP 6C 3 1
KO JE 9E 3E 3O 2 KC KO QO JE 7P 2 2
8C 8E 7C 7E 5O 3 8C 8E 7C 5O 5P 3 1

AC QE QO 3E 3O 3 KE QE JE TO 9O 5 2
KC QP JO TC 7C 1 KC JP TC TE 7C 2 2
AO KO QC 5C 5O 2 KO 9C 9E 5C 5O 3 2
AP JC 7O 6O 4P 1 JC 9P 7O 2C 2P 2 2
AE TP 8P 7P 6E 1 AE TP 8O 6E 6P 2 2

JO 9O 8E 8P 6E 2 9O 8C 8E 6C 6E 3 2
AC KO TO 9P 8O 1 KO TO 9P 7E 6O 1 1
QO QP JE JP 9E 3 QO QP JP TP 9E 2 1
AP QC TC 7P 5E 1 AP QC TC 7O 7P 2 2
KC 4E 4P 3E 3P 3 AE 4E 4P 3E 3P 3 2

AC KC TO 8C 8O 2 KC JO TO 9C 8O 1 1
QO TE 2E 2O 2P 4 QO 2C 2E 2O 2P 8 2
AE KO JC 3C 3O 2 AE AO KO 8E 5P 2 2
QC TC TP 7P 6P 2 QC TC TP 9E 8P 2 2
AP JP 6C 5C 5E 2 AP 5C 5E 4C 4E 3 2

JE TE TO 8C 5P 2 KC TE TO 5E 5P 3 2
QE JO 8O 2C 2E 2 QE JC JO TP 8O 2 2
AO 8E 8P 4E 4O 3 8P 7P 6P 5O 4E 5 2
7O 6O 5C 4C 3E 5 AE QP JP 9O 7O 1 1
AC KO 9C 9E 9P 4 AC KO QC QO 9E 2 1

AC AO TE 7C 7P 3 AC AO KE 8O 7P 2 1
KC QC 8C 8P 6P 2 AE QC JE 8C 8P 2 2
QE TC 9E 2C 2O 2 TC 3E 3P 2C 2O 3 2
6E 5C 4C 3O 2E 5 KO JC 9O 9P 6E 2 1
QO JO JP TO TP 3 QO JO JP TP 8E 2 1

AC QO JE JP TE 2 AC AO QO QP JE 3 2
QE JO 7C 7E 6C 2 QC QE 7C 7E 5O 3 2
TC TP 8P 7O 6O 2 TP 9P 7O 2C 2O 2 1
AE KC KO 9C 5P 2 AE KC 9C 5E 5P 2 1
AP JC 8O 6E 5C 1 KE 8E 8O 6E 5C 2 2

QE JO 8C 7E 5O 1 QC QE 8C 7P 5O 2 2
TC 6E 6O 3E 3P 3 TC 6E 6O 3E 3P 3 0
AC QO 9E 8E 5C 1 AC KE QO 9E 9P 2 2
AE KO JE TE 8P 1 AE JE TE 9O 7O 1 1
AO AP KC JC 8O 2 AO AP KC TO 6P 2 1

AC TC 8C 6C 5C 6 AC TC 8C 8P 7E 2 1
AO QC JC 9C 9P 2 AO QC JC 9P 8E 1 1
KC JP 9E 9O 5P 2 AE JP TP 9E 9O 2 2
JE TE 6E 5E 2E 6 JE TE 6E 5E 4E 6 2
KO JO TO 8O 7O 6 JO TO 8O 7O 6O 6 1

JE 8E 7E 3E 2E 6 TP 9C 8E 7E 6E 5 1
JP 9O 5O 2C 2P 2 TE 8O 5O 2C 2P 2 1
KC QE QP TO 9E 2 KC KE QP TO 9E 2 2
7C 6C 5C 4O 3O 5 KO 8P 7O 6C 6P 2 1
AP QO JO TC 8C 1 AO AP QO JO TC 2 2

QE JC JO 6E 6O 3 QE JC 9E 6E 6O 2 1
QO JE TC 8P 7E 1 KE QO TC 9C 7E 1 2
AC KC QC 6C 4C 6 KC KO 8E 7P 6C 2 1
AE AO QP 3C 3P 3 AE QP 7C 7O 5O 2 1
JP TP 8C 5C 4P 1 JP 9O 8C 8O 4P 2 2

AP 8C 7C 7O 7P 4 7C 7O 7P 2E 2P 7 2
AC KC QC 6C 2C 6 AC AE KC KO 5P 3 1
9C 9O 7E 6E 6P 3 KE 9O 7E 6E 6P 2 1
AO JO TC 8E 8P 2 AO JO TC 8E 8P 2 0
QE QP JC JE JP 7 QE QP JE JP TE 3 1

AP KC KE 9C 8P 2 AP KC KE JO 9C 2 2
AO TP 9P 2C 2P 2 AO KO TP 9P 8E 1 1
6E 5P 4P 3O 2O 5 QO TO 6E 3O 3P 2 1
QP JC JE JP 6O 4 AC JC JE 9E 6O 2 1
AE TE 8C 7C 7O 2 AE TE 8C 8O 7C 2 2

9E 9O 8O 5C 5O 3 9E 8O 7C 6O 5C 5 2
QC JC JO TE TO 3 KO JC JO TC TO 3 2
8C 7O 6P 5E 4P 5 QE JE 8C 7P 5E 1 1
KC TP 8P 2O 2P 2 AP KC QO 2O 2P 2 2
AC AO KE JP 7E 2 AC AE JP 7E 4O 2 1

KC 7E 7O 6C 6E 3 KC 9C 9P 6C 6E 3 2
QP 9E 8O 4C 4E 2 7P 6O 5E 4E 3O 5 2
AC KO JE JP TE 2 KO JE JP TE 8E 2 1
AE AO KE TP 9O 2 9O 8C 7C 6P 5C 5 2
QC JC JO 2E 2O 3 AP QC JC TC 8P 1 1

AC AE JC 9E 7C 2 AE JC JO TE 9E 2 1
KC KE QC 8O 7E 2 KC KE 8C 8O 7E 3 2
AP QP TP 4P 3P 6 AP TP 8E 4O 4P 2 1
AO QE JE JP 7O 2 AO KO QE JE 7O 1 1
QO 9O 8P 2C 2P 2 TO 8P 2C 2E 2P 4 2

AC JP TP 9E 4E 1 TE 9E 8E 4E 2E 6 2
5E 4O 3O 2C AE 5 AE AO QC JC 5E 2 1
QE JE 7E 6E 3E 6 KO JE 7E 7P 6E 2 1
6P 5C 4P 3P 2O 5 AP KE TC 2O 2P 2 1
9P 8O 7O 6C 5P 5 9P 8O 7O 6O 5O 5 0

KC QE TC 9P 8O 1 QE TC 9P 6C 6P 2 2
KO QO JC 5C 5E 2 QO JC TP 9C 6E 1 1
AC AO JO JP 7C 3 AO JP 7C 7E 5O 2 1
QP TO 8C 2E 2P 2 AE QC QP 2E 2P 3 2
AP TE 9E 9O 8P 2 AP TE 9E 8E 8P 2 1

KE TC 8O 4C 4O 2 AO TC TE 4C 4O 3 2
JC 9E 9O 7O 6E 2 JE JO 9O 7O 6E 2 2
QE QO JP TO 9C 2 AE QO JP 9C 7C 1 1
AC AP QP 5O 5P 3 AC AP QP TP 5O 2 1
KC KO 8C 3C 3P 3 KC KO QC 8C 6O 2 1

QO 8O 5O 4O 3O 6 QO TC 9C 8O 8P 2 1
AC AO KE JO 7O 2 AE KE QP JO 7O 1 1
AP KC KO 9O 9P 3 KC KO 6E 6O 6P 7 2
8C 4C 4P 2E 2P 3 JE 8C 6C 4C 4P 2 1
QC JC JP 9E 7P 2 QC JC JP TP 9E 2 2

AE AO QO 9P 4E 2 5C 4E 3E 2P AE 5 2
AC KC 8E 8P 7C 2 AC KC TO 8P 7C 1 1
AP KO JE TP 6O 1 AP KO JE 5E 5P 2 2
QC QP JO JP 7O 3 QC QP JC JO 9E 3 2
QE TE 8C 8O 7E 2 QE TE 8C 6C 6E 2 1

QO QP 6O 5C 5P 3 AE QO QP 6E 5P 2 1
KO 6C 6P 5E 5O 3 AP 7E 7O 6C 6P 3 2
JC TC 9O 8E 7C 5 JC TO 9O 8O 7C 5 0
KE QE JE JO 9E 2 KE QE JE JO TE 2 2
AO 9C 9P 2E 2P 3 KC JP 9P 2E 2P 2 1

AP JP 9P 7O 5O 1 QP 9E 9P 7O 5O 2 2
AC KC TC 9C 2C 6 KC TC 9C 6C 2C 6 1
8E 8O 7C 4E 4O 3 AE 8O 4C 4E 4O 4 2
AO JC 9O 8C 6E 1 AO JC 9O 6E 6O 2 2
KE QE JE TE 7E 6 KE QC QE TE TO 3 1

AC QC QO TP 6C 2 QC QO TP 7E 6C 2 1
AP TE 9C 4E 4P 2 AP KO 9C 8E 7C 1 1
JE JP TO 9E 6P 2 QP JE TO 9E 8C 5 2
JO 9P 7O 6E 6O 2 QE JO 9P 7O 6E 1 1
AO KC TC 5C 5O 2 AO KC KE 5C 5O 3 2

AE KO JO JP 6C 2 JO JP 9C 6C 5C 2 1
AC TP 9E 5E 5P 2 AC TP 9E 8E 6P 1 1
QP JC JE 7E 4P 2 JC JE 7C 7E 6E 3 2
KE QC QE TE 7P 2 QC TC 8C 4C 2C 6 2
AO QO 9O 4O 3O 6 QO 9O 9P 8P 4O 2 1

AE QC JP TE TP 2 AE KE QC JP TP 5 2
AC KC QP 5E 5O 2 AC QO 6O 5E 5O 2 1
TO 9O 8O 7O 3O 6 TO 9O 7O 6C 6E 2 1
AO KO 8E 4E 4O 2 AO 7C 7E 4E 4O 3 2
AP JC TC 9C 9E 2 JC JE JO 9C 9E 7 2

AC JC 9C 7C 7E 2 AC AO JC JE 8O 3 2
AP QP 8P 2O 2P 2 QP 6P 2E 2O 2P 4 2
TE 9P 7O 7P 6C 2 QO TE 7O 7P 6C 2 2
KC TP 9E 8E 5E 1 KC QC JO TP 9E 5 2
AE KE JP 9O 8C 1 AE KE QE TC 9O 1 2

JC JP 9E 9O 7E 3 JC 9E 9O 7P 6P 2 1
KO QP TO 6E 6O 2 QP TO 7O 6C 6O 2 1
AC AE QE QO JO 3 AC AE QE QO JO 3 0
5P 4O 3O 2O AO 5 KE QC 5P 2C 2O 2 1
AP TP 9P 8C 7C 1 TP 9P 8P 3P 2P 6 2

JE TO 9P 6E 6P 2 QE TE 9P 6E 6P 2 2
KE KO QO 9O 8C 2 KE KO QO JO 9O 2 2
AC AO 8P 5C 5P 3 AC AO 5C 5O 5P 7 2
AP QP TP 9E 8E 1 QP JP 9E 2C 2P 2 2
KC QC JC TC 9C 9 AE KC QC JC TC 5 1

TC 9C 8C 5C 2C 6 TC 9E 8O 6E 5C 1 1
QC QP 7P 4E 4O 3 QC QP JC 4E 4O 3 2
KC JP 9P 6C 6O 2 JO 9P 6C 6O 5O 2 1
AC AE KE 7C 7E 3 AC KE TO 5E 5P 2 1
AO QO 9O 3O 2O 6 AO QO 9O 7O 3O 6 2

AP TE TO 5E 5O 3 AP KE QO TE TO 2 1
AC TP 9C 6E 6P 2 AC TP 7E 6E 6P 2 1
AE KC 2C 2E 2O 4 AE KC QE 2E 2O 2 1
AO TC 9P 3E 3O 2 AO KO 9P 8P 7P 1 1
QP JE 9E 4C 4O 2 QC QP JE 8O 7O 2 2

QE 9C 9E 6E 6P 3 QE JC TP 9C 9E 2 1
KO 9O 8C 8P 7O 2 KO 8C 8P 7C 7O 3 2
AC AE KE QC TC 2 AC AE KC KE TE 3 2
QP JP 7E 2C 2E 2 QP JP 7P 3C 3E 2 2
AP JE TO 8E 5E 1 AO AP JE 8E 5E 2 2

AC 9C 9E 2O 2P 3 AC AO AP 9C 9E 7 2
JO 9O 6E 6O 4O 2 QE 6E 6O 2C 2E 3 2
TC TE 8E 8O 5E 3 TE 8E 8O 5E 5O 3 1
QO QP JP 8C 7E 2 QO JE JP 5C 5P 3 2
KO TO 9P 8P 7C 1 KE KO JC TO 9P 2 2

AP QP 9C 9P 6P 2 AP KC QP TO 9C 1 1
AC JC TC 7C 6C 6 AC JO TC 7C 7E 2 1
AE TE TP 3C 3O 3 AE QC TE TP 9E 2 1
AO KE QE 8C 6O 1 AO KE QE JE 8C 1 2
KO QO JP 2C 2P 2 KO QO 9O 2C 2P 2 1

AC AE KE QE 8P 2 AE KE 9E 8P 6E 1 1
AO TE TO 9C 9P 3 AO TE TO 9P 8E 2 1
JP TC TP 6C 6O 3 JE JP TC TP 7O 3 2
AP QP 9O 8O 5P 1 AP 9O 8O 2C 2E 2 2
QO JC JO 8C 6P 2 QO JC JO 7C 7P 3 2

KC QP JC TC 9O 5 KC KE QP JC 9O 2 1
AO QC TE TP 6C 2 AO TP 6C 2C 2O 2 1
QO 7O 7P 6O 6P 3 QO JE 7O 6O 6P 2 1
AE JO JP TO 9P 2 AC AE TO 9P 8P 2 2
AP QE 9C 9E 7C 2 AP KO QE 9C 8C 1 1

AE JE JP 9O 8O 2 AC AE JE JP 3C 3 2
KE QO 8E 7C 7E 2 QO 9P 8E 7C 7O 2 1
JO TP 6C 6P 5O 2 JO TO 6C 4E 4O 2 1
AP QP TC TE 9E 2 AP QC TE 9E 6O 1 1
KO QE 9C 8C 7P 1 AO QE 9C 5C 5P 2 2

5O 4E 3E 2E AP 5 AP 5O 5P 4E 4O 3 1
6O 5C 4C 3O 2C 5 6O 5C 4P 3O 2C 5 0
AO KE QP JO 8O 1 KE QP JO TE 8O 1 1
QO 7C 7P 2O 2P 3 KO 7C 7P 6C 6E 3 2
JP TP 9P 6P 3P 6 JP 9C 9P 8C 8E 3 1

AE KC QC JE TO 5 AC AE AO TO TP 7 2
QP JC TC 6P 5E 1 JC 9P 6P 3C 3O 2 2
AP QE QO JO 8E 2 QE QO 8E 5P 4E 2 1
KE TE 9E 6E 3E 6 KE TE 9E 2C 2O 2 1
8C 7C 6C 5O 4P 5 JP 8C 8O 7C 7O 3 1

AC AO QO 2C 2O 3 AC AO QO 5E 5O 3 2
9C 8C 7P 6P 5C 5 KC QP 9C 5C 5P 2 1
QC 4C 4E 3E 3O 3 4C 4E 4P 3E 3O 7 2
AP JC JE 7C 7E 3 AP JC JE 7C 7E 3 0
KO TO TP 8E 8P 3 KO TE TP 9E 9P 3 2

AO QE QO JO TE 2 QE QO JO 7E 7P 3 2
AE KC 9O 2E 2O 2 AC AE KC JE 9O 2 2
KE JC TO 6E 4C 1 JC TO 5O 3C 3E 2 2
AP TP 7C 6C 5C 1 AP KO 7C 6C 6O 2 2
TC 8C 8O 4E 4P 3 TC 9C 8O 7O 6P 5 2

AP JC JO TC 7O 2 AP JC TC 7O 5C 1 1
KC KE TE 4E 4P 3 AO KC KE 9P 7C 2 1
AC JE TO 6E 5E 1 AC KO TO 5E 5O 2 2
QC 9O 8O 6C 6P 2 QO 9O 6C 6O 6P 4 2
QP JP 9E 7P 4C 1 QP JP TP 8P 4C 1 2

8O 6C 6P 4E 4P 3 QC 9O 6C 6P 5E 2 1
JE TE 9P 8E 7C 5 KE JE TE TO 8E 2 1
AO QO JO 7O 5O 6 AO KC QO JO 9C 1 1
AE QP JP 8C 6O 1 QP 8C 7P 6E 6O 2 2
AP KO JC TC TP 2 AP JC 2C 2O 2P 4 2

KC QE QP JP 8E 2 AC QE QP JO JP 3 2
5C 5E 4C 4E 4O 7 6P 5C 4E 3P 2C 5 1
AO QO JC 9O 7O 1 QO JC 9O 8C 7O 1 1
AP TE TO 7C 7E 3 AP QC TE TO 9E 2 1
AE KE JE TC 6C 1 AE KE TC 9C 8O 1 1

TC TO 9E 9O 6E 3 TC TO 2C 2O 2P 7 2
QO QP JO 8P 7P 2 QO QP JO 8P 7O 2 0
JE TE 9P 8E 7E 5 KO JE TE 9P 8E 1 1
AO QE 9C 3O 3P 2 AO KE TP 3O 3P 2 2
AC AP JP 8O 6O 2 AC JP 6O 5O 5P 2 1

KO QO JC 9C 5O 1 KO 9C 6P 4C 4O 2 2
KC JE TO 7P 6O 1 JE TO 9O 8O 7P 5 2
AP KE QC JO 7O 1 KE QC TC 5E 5P 2 2
AE QP 8P 2C 2E 2 QP TP 8P 2C 2E 2 1
AC JP 9P 7C 7E 2 AC AO QE 7C 7E 3 2

AP JC JP 7P 5O 2 KC JP 7P 5O 4P 1 1
TP 6O 6P 5E 5P 3 TO 6O 6P 5E 5P 3 0
QE TE 8P 4E 4O 2 AC AE QE 4E 4O 3 2
QP 9P 8O 7C 7E 2 QP 7C 7E 6C 6E 3 2
KE KO 9C 9O 8C 3 KE KO QO 9C 9O 3 2

AE KC 8O 8P 7P 2 8O 7P 6E 5E 4E 5 2
KO JE 9O 8E 7E 1 KO QC JE 8C 8E 2 2
QO JO TO 7O 6O 6 JO TO 7O 2C 2E 2 1
AO AP QE 9E 9P 3 AO QE TE 9E 9P 2 1
TP 6C 6P 5O 5P 3 JC 6C 6P 3E 3O 3 1

AC JC 9O 8O 4E 1 AC KE QP JC 9O 1 2
KO QE QO TE TO 3 KO QE QO JO 8P 2 1
AP TP 4P 3P 2P 6 7E 6C 5C 4P 3P 5 1
JP 9P 8C 7C 7P 2 JP 9P 7P 6P 5P 6 2
KC QC JE TC 8E 1 AE KC QC TC 9C 1 2

QO QP 9C 2O 2P 3 QO JP TE 2O 2P 2 1
AC KO QC 9E 4O 1 AC QC 9E 4E 4O 2 2
AP JE JO 6E 6P 3 QE JO 9P 6E 6P 2 1
KE TP 8E 3C 3E 2 AO TP 8E 6O 5O 1 1
TC 7C 6C 5C 4C 6 TC 7C 6C 5C 4C 6 0

KO QO JC 7C 7P 2 QO 9P 8P 7C 7P 2 1
JP TP 6O 3C 3E 2 JP TE TP 3E 3P 3 2
QP 5E 5P 4O 4P 3 AP QP JE TO 8E 1 1
9E 8C 7E 6E 5C 5 AC KC 9E 6E 6P 2 1
AE AO KE TC 9C 2 AE KE QE JO TC 5 2

TO 8E 7C 7P 6C 2 TO 9P 8E 7C 6C 5 2
AP JO JP 9C 9O 3 JO JP 9C 9O 8C 3 1
TC TE 8O 8P 6O 3 JC TE 8P 4C 4E 2 1
AC AO QC 7O 6P 2 AC AO KC QP 7O 2 2
KO QE QO 7E 5C 2 QE QO TP 7E 5C 2 1

TE 9P 8P 7O 6C 5 TE TP 9P 8P 7O 2 1
7E 6O 5C 4C 3P 5 AE KC JP 9O 7E 1 1
QC QE JE TO 7C 2 AC AO QC QE JE 3 2
KO QP JO 8C 8O 2 KO QP JO 6E 6P 2 1
AP KE QO 7P 5O 1 KE 7P 5O 4E 4O 2 2

AE KE QE 6E 4E 6 KO 6E 6P 4C 4E 3 1
KC JC JO TE 8E 2 KC TE TP 8E 6C 2 1
9C 8C 7C 6O 5O 5 AO 6O 5O 4O 2O 6 2
QC 9O 9P 7O 5P 2 QC JE JP 9O 9P 3 2
AP QP TO 7E 7P 2 AC AP QO QP TO 3 2

KC JC TE TP 7O 2 KC JC TP 4C 4P 2 1
JE 8O 7E 7P 6C 2 JE 8O 7C 7E 7P 4 2
AC QO TO 9O 6P 1 QO TO 9C 9O 8C 2 2
AE KO QC TC 9P 1 AE KO JO 8E 8P 2 2
AP QE QP 9E 4E 2 QE QP JP 9E 6E 2 1

AC AE 2C 2E 2P 7 AE KC QO 2C 2E 2 1
AO 9P 8C 8P 6P 2 9P 8P 7P 6P 5E 5 2
QP JC JO JP 6E 4 QP JO JP TP 6E 2 1
9C 9E 7C 7E 7O 7 TC 9C 8E 7C 6C 5 1
8O 5O 4O 3O 2O 6 KE QE 5O 4O 4P 2 1

AC AO TC 6C 6E 3 AC KE JO TC 7P 1 1
KO QO TE 8E 7E 1 TE 8E 7E 5O 4O 1 1
AP 6O 6P 5E 5P 3 AP JC 8O 5E 5P 2 1
QE JE 9E 4E 3E 6 QE JE 9E 9O 9P 4 1
AE KC TO 8C 4C 1 AE KC QC 3C 3P 2 2

KE TO 9C 9E 8C 2 KE 9C 9E 4E 4O 3 2
AO JP 9P 7P 6E 1 9P 8P 7P 6E 5O 5 2
QP TP 7E 6O 4C 1 QP TP 9O 7E 7O 2 2
QE TE 8E 8O 6C 2 QE JE TE 6C 5C 1 1
AP KO QO JC TC 5 AE AP KO JC JO 3 1

KE QE 9P 8O 6O 1 KC KE 9P 6O 5O 2 2
JC JO 8P 7O 6C 2 JC JO 8C 6C 6P 3 2
AC KO QP 9C 9O 2 AC QP TO 9C 9O 2 1
AP 7P 5P 4P 2P 6 AP QO 7P 5C 5P 2 1
AE AO QC JE JP 3 AE AO QC 7C 7E 3 1

AC TE 9E 2C 2O 2 AC JC TE 2C 2O 2 2
TP 8E 8O 7O 5P 2 JP TP 8E 8O 6C 2 2
AE KC JE 3C 3E 2 AE AO KC QE JE 2 2
KE QC QP JO TO 2 KE QP JO TO 9O 5 2
5C 4E 3P 2E AP 5 AP KO QO TC 4E 1 1

KC 8P 7E 5C 4P 1 KC 8P 7E 7P 6C 2 2
AP KO TP 9P 8E 1 KO TP 8E 5E 5P 2 2
AC AE KE QP JP 2 AC AE KE QP 6P 2 1
JC JE TC TE 9E 3 QC JC TC 8C 3C 6 2
AO QE 7O 6O 4C 1 AO 7O 6O 4O 3O 6 2

KE QP JP 6E 6P 2 KE QP JP 6E 6P 2 0
JC 7C 7E 4C 4P 3 AC JC JE 7C 7E 3 2
AO KO QC TE 8E 1 AO KC KO 9C 8E 2 2
QE 9P 7O 5O 4O 1 QE 9P 7O 6O 4E 1 2
AE QO TO 9O 5P 1 AE AP TO 9O 8O 2 2

AC AE JC 9P 8P 2 AE JC 8P 5E 5P 2 1
8C 8E 7E 6C 6P 3 TC 8C 6C 3C 2C 6 2
JE TE TP 3E 3O 3 JE TE TP 9E 7C 2 1
AO KC QC JP 9C 1 AO KC KE QE JP 2 2
QO JO 8O 7O 6O 6 8O 7O 6O 5O 4O 9 2

AC KC QE 9E 8E 1 AC QC QE 8E 8P 3 2
AP KE JE TE 6P 1 AE AP JE 5C 5P 3 2
AO 6O 4O 3O 2O 6 JO 9C 8C 7P 6O 1 1
QO JP TP 3C 3E 2 JP TP 9P 8O 7O 5 2
KO TC TO 4C 4E 3 KO TC TO 9O 7C 2 1

AP KC QP 5C 5P 2 AC AP TO 5C 5P 3 2
AO QC 9P 2E 2O 2 AO KE 8O 2E 2O 2 2
AE QE QO 9O 8E 2 AE QO JO 9E 8E 1 1
JE TE TP 3E 3O 3 JE TE TP 8P 7P 2 1
TC 9C 8C 4C 3C 6 TC 9C 8C 3C 2C 6 1

JC TC 9C 8C 7C 9 JC TC 9C 9P 7C 2 1
AC QC QE QP JE 4 KC QE QP 8E 8O 3 1
JO 9E 9O 6P 5P 2 JO 9O 6E 6P 5P 2 1
TE TO 8P 7E 7P 3 AE TE TO 7E 7P 3 2
KO 6C 6O 3E 3P 3 AO KO TP 6O 5O 1 1

AO KO JO 8O 7O 6 AO KO JO 9P 8O 1 1
QE JE 8E 3E 2E 6 QE JE 8E 7E 2E 6 2
QP TE 6C 6O 6P 4 TE 8C 8P 6C 6P 3 1
AE JC TC 7C 7P 2 AE KE JC TC 7P 1 1
AP 3C 3O 2C 2P 3 5P 4C 3C 2C AP 5 2

KE TC TO 9C 7C 2 KE TC TO 4O 4P 3 2
JE JO 7O 6C 6P 3 AO JE JO 6C 6P 3 2
AP QE QO 9P 6E 2 QE TE 9E 6E 4E 6 2
AC KO 8O 6O 5P 1 KO 9O 8O 6O 2O 6 2
QP JC JP 8E 7E 2 QP JC JP 8E 8P 3 2

KO 8P 7C 5O 5P 2 8P 5O 5P 2C 2P 3 2
QO 9C 9P 6O 6P 3 QO JO 9P 3C 3E 2 1
QE JP TE 5C 5E 2 TC TE 8O 5C 5E 3 2
AP KC KE QC JC 2 AP KC KE 9E 9O 3 2
AC AE QP JE 7P 2 AC QP JE TO TP 2 1

AO TP 8P 6O 4E 1 AO TP 7P 6O 6P 2 2
AC AP JE 4O 4P 3 AP JE 9E 9P 7O 2 1
KE JP TE TO 9O 2 KE JP TO 9O 8O 1 1
AE QE QP JO 6C 2 AE KO QE QO 6C 2 2
TC 9C 8C 7C 5C 6 TC 9C 8C 5C 4C 6 1

JO 9O 8C 5E 5P 2 AC JO 9O 4C 4P 2 1
AP 8E 8P 3C 3E 3 AP QC 8P 3C 3E 2 1
KE JE JP TP 8O 2 JE JP TP 9P 7O 2 1
AE KO QP 9C 7E 1 AE 9C 9E 7C 7E 3 2
KC QE TC 6E 5O 1 KC QE JC TE 6E 1 2

AO JP 9E 7E 6P 1 AO JP 7E 5O 5P 2 2
AC AP QP JC JE 3 AP JC JE TO 7P 2 1
9C 7C 6C 5C 3C 6 KC 9C 7C 6C 5C 6 2
QC QO TC 8C 8P 3 QC TC TP 8O 8P 3 1
AE TE 8E 3E 2E 6 6O 5E 4P 3E 2E 5 1

AC AE QO JP TP 2 AC AE QO 8C 6P 2 1
KC QE JE 3C 3E 2 KC QE JE TE 6O 1 1
JC TC 9O 8P 7C 5 JC JO TC 9C 9O 3 1
QC 8O 6C 2E 2O 2 TO 9P 8O 2E 2O 2 1
KE KO QP 7E 7P 3 QP 7P 5P 4P 3P 6 2

AC 4C 4E 2C 2P 3 6O 5E 4C 3E 2C 5 2
JE 9O 6C 6E 6P 4 JE 7O 6C 6E 6P 4 1
AP KC KE 8O 7E 2 KC KE 8E 7E 5O 2 1
AO JP TO 8C 7C 1 AE JP TO TP 8C 2 2
KO QP JO TE 7P 1 KO QC QO TE 7P 2 2

AC KC KO 4E 4P 3 AC KC JP 4E 4P 2 1
QP TP 8P 7P 6P 6 JO TP 8C 7P 6P 1 1
9C 9O 9P 6C 6E 7 9O 8O 6C 6E 6O 4 1
JC TC 5C 4C 2C 6 AP TC TO 4C 4O 3 1
AE 8E 7E 3E 2E 6 AE TE 7E 3E 2E 6 2

AC QP TE 8P 6C 1 AC QP 6C 5C 5P 2 2
QE JE 9E 6E 5E 6 AE KO 6E 6O 6P 4 1
AP KE QO 8C 7C 1 KE QO 8O 2O 2P 2 2
AO TC 8E 7E 4P 1 AO 9O 7E 7P 4P 2 2
JC TO 9P 4E 4O 2 TO 9P 7O 4C 4E 2 1

TE TP 9C 8P 5C 2 AP QE TP 9C 8P 1 1
AE JC JE 6C 6E 3 AE JC JE TC TO 3 2
QC 9O 8E 4O 4P 2 AO KE 9O 4O 4P 2 2
KC QO JO JP 8C 2 KC JO JP 8C 8O 3 2
KO QP 7P 5E 4E 1 QP 7P 5E 3E 3P 2 2

AE 7O 7P 6C 6E 3 AE AP 9P 6C 6E 3 2
KE JC 8O 7C 7E 2 KE JC TP 7C 7E 2 2
KO TE 9E 9O 8E 2 QP TE 9O 8E 5P 1 1
AC JE JP 5E 5O 3 AC QE 5C 5E 5O 4 2
TO 9C 8C 8P 6O 2 QC 9C 8C 3C 2C 6 2

AC AP KE 9O 7O 2 AC QO 9O 2C 2E 2 1
QE TE 7P 4E 4O 2 KC TE 7P 4E 4O 2 2
JO JP 9P 6E 4C 2 6E 5E 4C 3E 2O 5 2
AE KO QC 8C 8P 2 AE KO QC JC TC 5 2
JE 8O 7E 5C 5P 2 JE 8E 8O 5C 5P 3 2

KE 6C 6O 2C 2E 3 6C 6O 2C 2E 2O 7 2
KO QE JO 9C 8E 1 QE JE 9E 8E 4E 6 2
AE AO AP JP 9O 4 AP JP 9O 8O 7O 1 1
QC TC TO 4C 4P 3 QC TC 6E 4C 4P 2 1
AC JC 9P 7C 7P 2 7C 7P 5C 5E 5P 7 2

QE 7C 7P 2O 2P 3 AO 7C 7P 3C 3E 3 2
AC JE JP 8C 7E 2 AC KO JE 7E 6E 1 1
KC QP 9O 9P 5O 2 KC QP TC 9O 8E 1 1
KE QC JC 9E 7O 1 QC JC 9C 9E 7O 2 2
JO TE TO 5C 5E 3 JO TO 8O 5C 5E 2 1

AC JC TC 4C 3C 6 AC JC TC 4C 2C 6 1
JO JP TO 5C 5E 3 AP QC JO JP TO 2 1
AE 8C 7E 4O 4P 2 8C 7C 7E 4O 4P 3 2
KC 9C 8O 6E 6O 2 KC 6E 6O 2E 2P 3 2
KE QO 9E 8E 8P 2 KE QO JE TE 8P 1 1

QC QO 8P 4O 4P 3 JO 8P 6O 4O 4P 2 1
TC 5C 5E 3E 3O 3 KC 5C 5E 3E 3O 3 2
AE AP 9P 5O 5P 3 AP TP 7O 5O 5P 2 1
AC KE 9O 6P 4E 1 AC KE KO 9O 8O 2 2
JC JP 7C 7E 7P 7 QP JC JP 7C 7P 3 1

JC TC 7E 3O 3P 2 TP 4E 4O 3O 3P 3 2
QC QE 8C 6O 6P 3 QC QE 9C 8C 8P 3 2
AE KC 5E 5O 5P 4 AE AO KC JE 9P 2 1
KE 9E 8E 6E 2E 6 KE 9E 8E 6E 2E 6 0
JO JP TE TO 8O 3 AP JO JP TE 8O 2 1

AO AP JC 9P 8O 2 AO JC 9P 3C 3P 2 1
KC JO 9O 7P 6O 1 KC JP TP 7P 6O 1 2
QO 9E 8P 6P 5C 1 KO QO 9E 8C 8P 2 2
AC QC TC 9C 6C 6 AC AE QP TC TE 3 1
8E 7E 6E 5E 3E 6 8E 7E 6E 5E 4E 9 2

AC KC TC 6C 3C 6 5O 4E 3C 2C AC 5 1
JE JO 9P 8C 7P 2 KO JE JO 8C 7P 2 2
AO QE JC 9C 9E 2 QE JC 9C 9E 7C 2 1
AE TE 8E 7E 6E 6 AE QC TE 7E 7O 2 1
KE QO TO 8O 8P 2 QO TO 8O 8P 5P 2 1

AO 9E 9O 2E 2O 3 JO 9E 9O 2E 2O 3 1
AP KC TP 9P 8P 1 TP 9P 8P 7P 5E 1 1
QO QP JE JP 5O 3 QO JE JP 3E 3P 3 1
JC 7C 7E 6C 6O 3 KO JC TE 7C 7E 2 1
AE KE QE 8C 8E 2 AE KE QE 8E 7O 1 1

QO QP JO 6C 6P 3 AO QO JO 6C 6P 2 1
9E 8C 6O 5E 5O 2 9O 5E 5O 2E 2P 3 2
KO QC JC TE 9P 5 QC QE JC 4E 4P 3 1
AP KE 8O 4C 4O 2 KE JE 8O 7O 5P 1 1
AE KC TP 8P 6E 1 AE TP 8P 7E 7P 2 2

AO KC KE KO 5C 4 AO KC KE 7C 7P 3 1
AE QC TO 3C 3E 2 AE TO 3C 3E 3O 4 2
AP QO 5E 5O 5P 4 AP QO JO 5E 5P 2 1
TC TE 9E 9P 8P 3 TC TE 9C 9E 9P 7 2
JC JE JP 9O 8E 4 QP JC JE JP TP 4 2

AO AP KE 6E 6O 3 KE TC 9P 6E 6O 2 1
QE 7E 7O 5E 5P 3 QE 8C 8P 5E 5P 3 2
JE 8E 8O 3E 3O 3 AC JE TP 3E 3O 2 1
QP JC JO JP 9O 4 KO QP JC JO TO 2 1
QC QO 7C 4E 4P 3 AE KC QO 2C 2E 2 1

AC AO QE TP 7C 2 AC QE QO 9E 7C 2 1
KE TE TO 6C 6O 3 KE QC JP TO 8E 1 1
KC QP 8C 2C 2E 2 JE 8C 6P 2C 2E 2 1
AE AP JO 9C 9O 3 AP 9C 9O 8O 7O 2 1
9P 5P 4P 3P 2P 6 KO TC 5C 5P 4P 2 1

KC 9C 8P 3E 3O 2 KC QC TC 3E 3O 2 2
TP 8C 7O 5O 5P 2 QO 7O 5O 4O 2O 6 2
AE JE JO 6O 6P 3 AE AP JE TE TO 3 2
QE JC JP 8O 4P 2 KO QE JC JP 8O 2 2
7E 6C 5C 4C 3C 5 QP 9O 7E 4C 4E 2 1

QE TP 7E 4E 4P 2 KC TP 8E 7E 5C 1 1
AE AO KE 9C 9E 3 AO KE KO 9E 9O 3 1
AC JP 6C 6O 6P 4 AC AP JP 6P 5O 2 1
JO 7C 7P 2E 2O 3 JO 7C 7P 2E 2O 3 0
QP TE 7O 3C 3E 2 QO QP JC TE 7O 2 2

AC AP TE 8O 7E 2 AC AP 9E 8O 8P 3 2
QC TP 9C 9P 8E 2 TP 9C 8E 4C 4P 2 1
JE JP TC 2C 2E 3 AE JE JP 6P 5P 2 1
AO KE QP 7C 6C 1 KE QE QP 6C 5C 2 2
9O 8C 7P 5E 5O 2 KC JC 8C 5E 5O 2 2

TO 9O 8O 7O 3O 6 QO TO 9O 8O 3O 6 2
KE KO JO 6C 5P 2 KE KO 5C 5P 4P 3 2
AO QC 9P 2O 2P 2 AO AP 9P 2O 2P 3 2
JC JE 8C 8P 7P 3 JC JE TC TE 8P 3 2
AE QE 6E 5E 3E 6 AE KC QE QP JP 2 1

AO KE TC 9P 7E 1 AO KE JP 9P 6O 1 2
KC TO 8O 7O 7P 2 KC KO 8O 7O 7P 3 2
AC JE TP 9O 5E 1 AE JE TP 9O 5E 1 0
AP QP JO 8P 6E 1 AP JC JO 3E 3P 3 2
QO 9E 8E 4C 4O 2 QE QO TE 4C 4O 3 2

KE 8C 7O 4C 4P 2 7O 7P 4C 4E 4P 7 2
AC JO 9C 8O 7C 1 JO JP 9C 7C 7E 3 2
KO TP 8E 8P 6C 2 KO 9O 8E 8P 6C 2 1
AP JC JE TC TO 3 AE QE JC JE TC 2 1
AO KC QC QP TE 2 AO QC QP 9E 9P 3 2

KE QC TP 8C 8P 2 TP 8C 8P 6C 6P 3 2
AC AE JC 7P 4E 2 AE AP JC JE 7P 3 2
QE QO TO 9O 9P 3 QE QO TE TO 4P 3 2
AO TC 7C 5C 5E 2 AO TC 9C 5C 5E 2 2
KC QP JP 5P 4O 1 QP JP 7E 2O 2P 2 2

8P 6P 5P 4P 3P 6 AC KE 8P 6P 5O 1 1
AE AO KO TC 9C 2 AE AO QO TC 9C 2 1
AP QE JP 3C 3O 2 QE QP JP 3C 3O 3 2
QC JC TP 9P 7P 1 QC JC TP 9P 6C 1 1
JO 8C 8O 5C 5E 3 KC 8C 7C 5C 4C 6 2

AE JP 9P 8C 8E 2 AE 9C 9P 6E 6P 3 2
QE JC TO 2O 2P 2 QE TO 2E 2O 2P 4 2
KC QC TC 7C 6C 6 KC QC QP 7C 7E 3 1
AC AP JO TP 7O 2 AP JO TE TP 9E 2 1
KE QO JE 8O 5C 1 AO QO 9O 8O 4O 6 2

QO JP TO 8P 6P 1 AO QO JP 6P 5E 1 2
AP KE 7O 3C 3O 2 KE JO 6C 3C 3O 2 1
KO QP 9P 7C 7P 2 AE QC QP 9P 8C 2 2
9E 8E 7E 6E 5P 5 JC 9E 9O 7E 6E 2 1
KC TC 9C 5C 2C 6 KC TC 5C 4C 2C 6 1

5P 4C 3E 2C AP 5 AP JE 9E 2E 2P 2 1
KE QO JO TC 7C 1 AC KE QO JO 5C 1 2
AE 5E 5O 3C 3O 3 AE 9O 7P 5E 5O 2 1
KO JC TO 9C 9P 2 KO JC TO 8C 8P 2 1
KC QC QE TE 8O 2 KC 8E 8O 4O 4P 3 2

KO QP JP 8O 5O 1 KO JP 8O 2E 2O 2 2
JC TE TP 9E 9O 3 AP JC TE TP 9O 2 1
AC AO 8E 4E 4O 3 AC AO TO 2C 2P 3 1
QC QO JO 4C 4P 3 KC 7C 7P 4C 4P 3 1
9C 8P 7E 6P 5C 5 QE JE 9C 8C 8P 2 1

AO KE QO JC 8C 1 AO KE JC 8C 8O 2 2
KO QC JE TC 9C 5 KO QC TC 9C 6E 1 1
KC QE JO 6C 5C 1 KC QE JO 6C 6O 2 2
AP TP 4P 3P 2P 6 AE AP TP 7C 7O 3 1
JP 9P 7E 5E 5P 2 JP 9P 8P 7E 7P 2 2

QC TC 9E 5C 5O 2 AE 5C 5O 3E 3O 3 2
AP JC 9C 8E 5P 1 AO AP TE 9C 8E 2 2
7C 7E 6C 6E 6O 7 8C 7C 6E 5E 4O 5 1
KC QE 9P 4C 4P 2 KC QE JE 4C 4P 2 2
KE QO JO 2O 2P 2 QO JO TO 9O 8O 9 2

KC QC JO TE 7P 1 KC QC JO TE 7P 1 0
AE AP 9C 8E 8O 3 AP 8E 8O 6E 6O 3 1
9P 8P 7E 6P 5P 5 QO 9P 7E 2E 2P 2 1
AC QP TP 9E 9O 2 AC QP TC TP 9O 2 2
JC 8C 7C 6C 3C 6 8C 7C 6C 5C 4C 9 2

AC KC QP TE 8C 1 KC QP TE 6E 6P 2 2
AO 7C 7E 3O 3P 3 KO 7C 7P 3O 3P 3 1
3C 3E 2C 2E 2O 7 AE 8O 7O 2E 2O 2 1
KE QE JE TP 8P 1 KE JE TP 4C 4O 2 2
QC 9C 9O 4E 4P 3 QC JC JP TC TO 3 2

KO TP 9O 9P 7E 2 KO JE TP 9P 7E 1 1
AE 5C 5P 4E 4P 3 AE KC QC 5C 5P 2 1
AP JO TE 9E 7P 1 AC AP QO TE 7P 2 2
KE QE QP JP 8P 2 KE QE QP JP 6C 2 1
JC 9C 7C 3O 3P 2 AO 4C 4O 3O 3P 3 2

TO 6C 6E 2C 2O 3 AO TO 9C 2C 2O 2 1
TP 9O 6O 4O 4P 2 JE TP 9O 4O 4P 2 2
AE KC KO QE TC 2 AE KO QE JO TC 5 2
KE QC JC 7E 7O 2 AC KE QC JC 8C 1 1
AP 9E 9P 8E 8O 3 AP JP 9E 9P 8O 2 1

QP TC 5C 5O 5P 4 QC JC TC 5C 4C 6 2
AP KC 7E 7P 4O 2 KC 7E 7P 2E 2O 3 2
KE 9C 9P 6O 6P 3 QO TE TO 9C 9P 3 2
AC AE AO QE JE 4 AE AO JE 2C 2P 3 1
7C 6C 5E 4E 3P 5 7C 6C 5E 4E 3E 5 0

AC QO 8O 6P 5P 1 QO 8C 8O 6P 5P 2 2
AP QC 9O 9P 6E 2 AP KO QC TE 9P 1 1
KC JC TC TO 6O 2 AE KC JC 6O 4E 1 1
AO QP JP 4C 4P 2 QP JP TP 8P 4P 6 2
JE 9E 8E 7E 5E 6 KE JE 9E 8E 7E 6 2

AO KC QE TO 8E 1 AO KC QE 7E 7P 2 2
QC 9E 9O 7C 7O 3 QC 9O 8P 7C 6C 1 1
AP 8C 8O 6O 6P 3 AP KE JO 8C 8O 2 1
KO TC 9P 2C 2P 2 KO QO JC TC 9P 5 2
AE QP TP 2E 2O 2 AC QP JP TP 5E 1 1

AE JP 9P 8E 5E 1 JP 9P 8E 5E 5P 2 2
TC 9C 8P 7O 6C 5 AC 8P 7E 7O 7P 4 1
AP QP 9E 8O 6O 1 AP QP JC 2C 2E 2 2
QE TP 9O 3C 3E 2 JE TE TP 3C 3E 3 2
AO QC TO 7C 6P 1 AO KE TO 4E 4O 2 2

AC AE AP KC 9E 4 AC AE AP QO 9E 4 1
KO QP TC TP 7C 2 KO QP TE 8E 7C 1 1
QC JC 9C 8C 3C 6 QC JC JE 9C 7E 2 1
QE JP TO 5C 4C 1 QE JO TO 9P 5C 1 2
6O 5E 5P 4E 4O 3 KE 6O 5E 5O 5P 4 2

KO 9O 9P 3C 3E 3 KO 8O 7O 5O 4O 6 2
AP KC KE QC JC 2 KC KE JC JO 9E 3 2
AC AE QO TE TO 3 AC AE AO TE 7C 4 2
JE 8E 6C 6O 4P 2 JE JP 6C 6O 4P 3 2
TP 8C 8P 5C 5P 3 QP TP 8C 8P 5C 2 1

AC AO KO TE 7E 2 AC AO KO JE 6C 2 2
AP KE QE JO 5E 1 AP KE JC 2C 2O 2 2
QP TC 9E 6E 5O 1 QP 9E 7C 6E 5O 1 1
QC TO TP 9C 8C 2 QC 8C 5C 4C 3C 6 2
KC QO 8E 8O 7O 2 AE 8E 8O 6O 6P 3 2

AC JO 9C 8P 6O 1 KO JO JP 9C 8P 2 2
KC KE 9O 9P 8E 3 KC KE 9P 8E 8O 3 1
JC JE TC TE TP 7 JC JE TC TO TP 7 0
QP 5C 5O 4C 4O 3 6C 6P 5C 5O 4O 3 2
QE QO 9E 2E 2P 3 AE QO 9E 7C 5P 1 1

AE AO JE 5C 5E 3 AE KE JE TE 5E 6 2
QE JC TC 8E 8P 2 QE JC TC 8E 8P 2 0
JO TO 9C 8C 7C 5 QO JO 9C 9P 8C 2 1
AC QP JP 8O 7O 1 AC QP 8O 7O 6O 1 1
AP KC KO QC 9E 2 AP KC KO QC 7E 2 1

9O 8C 8O 3C 3P 3 9O 6P 3C 3E 3P 4 2
KE QC QE TO 6E 2 KE QC QE QP 5O 4 2
AP KO JO 4C 4P 2 AP KO JC 9C 9P 2 2
AC QO TE TP 8P 2 KC QO TP 8P 7P 1 1
AO TC 9E 7C 7O 2 AO JE JP 7C 7O 3 2

9C 9E 8C 4C 4P 3 9C 9E 7E 4C 4O 3 1
QO TE 8P 7O 7P 2 QO TP 8P 7O 7P 2 0
AP KO JP 5E 5O 2 AE AP JP 2E 2P 3 2
KC QC JE TO 9O 5 AC QC QP TO 9O 2 1
AO KE QE 3C 3P 2 AO JC JO 3C 3P 3 2

TE 9P 5O 3C 3P 2 AC JC 4C 3C 2C 6 2
AP TO TP 9E 6C 2 QP TO 9E 9O 6C 2 1
JE 7C 6E 5E 5P 2 JE 6E 6O 5E 5P 3 2
KC JP 9C 8E 8O 2 AE KC 9C 8C 8E 2 2
AO QO JO 7O 4O 6 AO KE QO JO TC 5 1

KE KO QC JE TC 2 KE KO JE 6C 5P 2 1
AC AO AP 6E 6O 7 AO AP JC 6E 6O 3 1
KC JP 7O 2C 2P 2 JP 8E 5E 2C 2P 2 1
AE TE 8C 8O 8P 4 AE QP 9C 8C 8O 2 1
JO 9O 9P 7C 7P 3 JO 9E 9P 7C 7P 3 0

AE QP JO 2E 2P 2 QP JO 6C 6E 4C 2 2
KC 9E 8P 3C 3P 2 KC KO 3C 3E 3P 7 2
AP TE 9C 7C 7P 2 AP 7C 7P 6O 6P 3 2
QC JP 8C 7E 5P 1 KE QC TC 8C 5P 1 2
AC AO QE 9O 8O 2 AC AO QE 8E 8O 3 2

KC JE TO 9O 9P 2 JE TO 9O 8E 7C 5 2
QO 6O 6P 3E 3P 3 QO TC TP 3E 3P 3 2
KE QE JP 9C 6E 1 AC KE QE JP 9C 1 2
AP KO QP 8P 5C 1 AP QP TE 9E 5C 1 1
AE AO JC 2O 2P 3 AE AO QC 2O 2P 3 2

JO TP 9C 9E 7P 2 TP 9C 9E 2O 2P 3 2
TC 8C 8O 8P 6E 4 TE 8C 8E 8O 8P 8 2
KC KO QO 7E 7O 3 KC QO JE 9P 7E 1 1
AC AO QC QP 9O 3 AO QC QP 5O 5P 3 1
AE QE JP TO 6P 1 AE AP QE 3C 3O 3 2

AC JE 8P 3E 3O 2 AC KC QE 3E 3O 2 2
KO JC 8E 8O 7C 2 KO JO 8O 6O 5O 6 2
AE AO TO 9O 9P 3 AO TO 9O 7O 5P 1 1
AP KE QO 6P 5E 1 AP QC 6P 5C 5E 2 2
9C 9E 8C 7P 6E 2 TC 9C 8C 7P 6C 5 2

QC QE 5O 5P 4O 3 QC QE 5C 5O 5P 7 2
KE TE TO 6C 4C 2 KC KE TE TO 4C 3 2
JC JP TP 8C 7C 2 JC JO JP TP 9C 4 2
AO TC 8E 8O 7P 2 TC 8E 8O 7P 6P 2 1
KO QO JE 7E 7O 2 KO QO JE 9O 8P 1 1

TP 9P 7P 2O 2P 2 TC TP 9P 2O 2P 3 2
QP TE 9E 8O 6E 1 AC QP JP TE 9E 1 2
QC 5C 5O 2C 2E 3 AO KE 6O 2C 2E 2 1
AE KC KO 7E 7O 3 AE KC KO JC JO 3 2
9O 8C 7C 6C 5P 5 JE TO 8C 7C 5P 1 1

AO 4E 4P 3E 3P 3 QE TP 6O 4E 4P 2 1
AC JP 9O 5E 5P 2 AC TO 8E 5E 5P 2 1
AP 9C 7E 6E 6P 2 AP QC 9C 7E 5C 1 1
TC 9E 8C 7P 6C 5 KE QP TC 7C 7P 2 1
AE KC TE 9P 8O 1 AE KC JC TE 9P 1 2

9O 9P 6E 6P 4O 3 AP 9P 6E 6P 5P 2 1
AE JC 6O 2C 2P 2 AE KC JC 2C 2P 2 2
JO 9C 9E 7O 7P 3 JO 9E 7O 7P 5O 2 1
TE TO 8C 8O 8P 7 QC 8C 7C 6C 5C 6 1
KE QE JE TC TP 2 AO KE QE JP TP 5 2

KC KO TC 8E 7C 2 AO KC KO TC 8E 2 2
9O 5E 5O 4E 4O 3 JP 5E 5O 4E 4O 3 2
AC AE TE 9E 7O 2 AC QP TE 9E 7O 1 1
JE JO TO 9C 7E 2 JE TO 9C 8C 7E 5 2
AP KE QC QE 5P 2 AP QC QO JC 5P 2 1

AO 8C 8O 7C 7O 3 JE TE 9C 8C 7C 5 2
KE QC JC 7E 4E 1 KE QC QE TO 7E 2 2
AE KC QO QP 6O 2 AE KC QO QP 9O 2 2
JO TC 8P 3E 3P 2 AP 8P 5P 3P 2P 6 2
JP TP 9P 6P 4P 6 JP TP 9P 8E 7P 5 1

AO KO JO 4O 3O 6 AC AO KC 8P 4O 2 1
AP KE QC JC TE 5 KE QC TE 5E 5O 2 1
JP TC TP 9C 9P 3 JP TP 9P 3C 3E 2 1
AE QP 7E 7O 5C 2 QP TO 7E 2E 2P 2 1
9E 9O 8C 8O 6C 3 9E 9O 8C 7C 6E 2 1

KE TE 7C 2C 2O 2 QE TE TP 7C 6C 2 2
AE KC JC 8C 4C 1 AC KC JC 8C 4C 6 2
JE TC TO 8O 8P 3 JE TC 9C 9O 8O 2 1
AO JO 6P 3O 3P 2 QC JO 7P 3O 3P 2 1
9E 9P 8E 6E 6O 3 9E 9P 8E 4O 4P 3 1

AC 9E 9P 8E 8P 3 JP TE 9E 8E 7O 5 2
9C 8O 7C 2C 2O 2 9C 8O 7C 6O 4P 1 1
QE 9O 6C 4C 4E 2 KE QE JE 6C 5C 1 1
7E 6P 5O 4O 3P 5 AO JO TO 5O 4O 6 2
AP KC KO QO 8C 2 AP KC KO QC TC 2 2

AC JE 9P 8C 8O 2 AC JE 8C 8O 7C 2 1
AE AP KO 9C 9E 3 AE AP TC 9E 8E 2 1
KE JC TE TO 9O 2 KE QE JC TO 9O 5 2
AO KC JO 3C 3O 2 KC QC JO 3C 3O 2 1
QO 7P 6O 4E 4O 2 7E 6O 5C 4E 3E 5 2

JP TP 9P 8E 7E 5 AP JP 8E 7E 6O 1 1
AO KE QP 5O 5P 2 AO KE 9O 8O 5O 1 1
KC KO TE 8C 7O 2 KC JC 8C 7C 6C 6 2
TC TO 9C 9E 8P 3 AC TC TO 2E 2O 3 1
QC QO JE JO 4P 3 AE QC QO 3E 3P 3 1

KE TE 8E 7E 4E 6 KE TE 9E 8E 7E 6 2
AC JE JP 9C 9P 3 AC QE QO JE JP 3 2
AE KC QP 2C 2E 2 KC 9O 7O 2C 2E 2 1
QC JO 8O 3E 3O 2 AO JO 8O 5C 5E 2 2
5O 4C 3C 2O AP 5 AP KO TO 4C 4O 2 1

AP 9O 8O 2C 2O 2 TO 9O 8O 7O 6E 5 2
AC QO JC 7E 7P 2 JC JP TC 7E 7P 3 2
JO TP 9E 8E 7C 5 QE QP TP 9E 7C 2 1
AE TE 9P 6C 4O 1 KE TE 9P 6C 5P 1 1
QC JE 8C 5C 5O 2 KO QC 8C 8P 6O 2 2

JC TC 9E 8O 4P 1 JC 9E 7P 6C 4P 1 1
QC QE 5C 5E 5O 7 KC QE JO 5E 5O 2 1
TP 7C 7E 7O 6E 4 TP 7O 6E 4C 4O 2 1
AE 9C 9P 8E 8P 3 JP 9P 8E 8P 5P 2 1
KE QP JE TE 9O 5 AC KE QP JE TO 5 2

AE KE JC TP 8P 1 AE KE JC TE TP 2 2
TO 9O 8C 4E 4P 2 JE TO 9O 4E 4P 2 2
KC QC 9P 5C 5O 2 KC 9C 9P 5C 5O 3 2
AO AP JP 8E 7E 2 AO AP QE 8E 7E 2 2
AC KO QO JO TC 5 KO QO JO TC 9E 5 1

JP TC TE 9C 7O 2 KC JP TC 9C 8E 1 1
AE QE JC TO 8C 1 QC JC TO 8C 5E 1 1
AC JE JO TP 8O 2 AC JE 9E 8O 8P 2 1
AP QP 9O 7E 6E 1 AP QP 9P 7E 6E 1 0
KE KO QO 2C 2P 3 AO KE 7P 2C 2P 2 1

QO JC TC TP 8O 2 QO QP JC TC TP 3 2
QC JO TO 8C 8P 2 AC QC JO JP 8P 2 2
AE AO KC KO 8E 3 AE AO KC 8E 5P 2 1
9C 6C 6O 2E 2P 3 9C 9E 7C 2E 2P 3 2
QE JE TE 5E 3E 6 QE JE TE 3O 3P 2 1

QO TO 9E 7E 5C 1 AP QO TO 8O 7E 1 2
AO TE 9O 2E 2O 2 TE 9O 8P 7C 6P 5 2
AE KC QC JO TC 5 AE KC JC 4E 4P 2 1
9C 8C 7O 6C 5E 5 KE 7O 7P 5E 5P 3 1
QE JE 9P 8E 5O 1 AC JE 9P 4C 4O 2 2

KO TE 9E 2C 2P 2 KC KO 9E 2E 2P 3 2
AE KE 6E 4E 3E 6 AE 9O 8O 3E 3P 2 1
QP JC 8E 7E 5P 1 QP TP 7E 4C 4P 2 2
QC QE 5C 5E 5O 7 QE JE 9C 5C 5O 2 1
AC JP 9P 6C 6O 2 AO JP 8P 6C 6O 2 1

QE 8O 6C 6O 6P 4 QE QP 8O 8P 6O 3 1
KC QO TE 9C 9O 2 AP KC QO TE 9C 1 1
AC AO 8C 7O 5C 2 AO 8C 7O 4C 4P 2 1
JE TC 7C 7E 7P 4 KE JE TC 7E 7P 2 1
JC TO TP 9P 4O 2 JC TO TP 9P 8E 2 2

AC 9C 9O 6C 6P 3 TO 9C 9O 6C 6P 3 1
JO TC TE 2C 2P 3 TC TE 8C 7C 6E 2 1
AE QP TP 3C 3O 2 KO QO QP 3C 3O 3 2
AP 7E 7P 5C 5P 3 JC JP 5C 5E 5P 7 2
KC QC 9E 9P 6O 2 KC 9P 8P 6O 4E 1 1

KO QC 9C 9E 8C 2 AP KO QC 9E 9O 2 2
AC JC JE 2C 2P 3 AC JE TC TE 6E 2 1
KC KE 9P 7E 6P 2 KC KE TO 7E 6P 2 2
QE JP 8E 7P 6O 1 AE AO QE JP 6O 2 2
JO TP 8P 4E 4O 2 QP JO TP 8O 8P 2 2

AO QC JO 6E 6P 2 AC AO JO 9P 8P 2 2
7O 6O 5O 4P 3E 5 QE 5C 5O 4C 4P 3 1
KC KE 8O 7P 5E 2 KC KE QP 8E 8O 3 2
JC JP TP 9E 9O 3 AP 9E 9O 7C 7E 3 1
KO QO 3C 3O 3P 4 KO TE TO 3C 3P 3 1

JP TO 9C 8P 7E 5 KE 9C 8P 7C 7E 2 1
AO TP 8C 6E 6P 2 AC AO TP 8C 6E 2 2
KO QO JC TC 9P 5 KC KO QO QP JC 3 1
AP 9E 6C 2E 2O 2 AE QC 9E 2E 2O 2 2
QE JE 8O 4E 4P 2 QE JE TE 3O 3P 2 1

QP JC JP TO 8E 2 QP JC JP TO 6O 2 1
TC 9C 6C 6P 5P 2 AC TC 9C 6P 5P 1 1
AP 7C 7P 3C 3O 3 AP TP 9P 8P 7C 1 1
AE KC QC 8O 5E 1 AE AO KC 8C 8O 3 2
KE QE JE 9E 6E 6 KE KO QE JE TE 2 1

AE KO TP 9C 9P 2 AC AE KO 9C 6E 2 2
KE QC JO 7E 7P 2 KE QC 8E 7E 7P 2 1
JP 7O 6O 2C 2E 2 JP 7C 7O 2C 2E 3 2
QE QP JE 3E 3P 3 QE JE TE 9E 3E 6 2
AP KC 6C 5C 5O 2 AP KC QO 5C 5O 2 2

AC 9P 3C 3E 3O 4 QP 9P 3C 3E 3O 4 1
KC TO 8C 5E 5P 2 AO KC JP 5E 5P 2 2
QC JE TC 9C 8O 5 AE QC QE JC TC 2 1
7E 6E 5C 4C 3P 5 7E 7P 6C 6E 5C 3 1
AP KE TP 9E 8E 1 AP KE TE TP 8P 2 2

6C 6E 6P 3O 3P 7 KO 6C 6P 3O 3P 3 1
AC JP TP 8C 8P 2 AC JP TP 8O 7C 1 1
9O 7E 7O 4E 4P 3 9C 9O 8E 7E 7O 3 2
QP JE TC 9E 7P 1 JE TC TE 4C 4O 3 2
AO KC KE QE JC 2 AE AO AP KC KE 7 2

AC AO JE 6O 6P 3 AC 7C 7O 6O 6P 3 1
QE JC TC 5C 5P 2 QE JC 8P 5C 5P 2 1
KE QP JP 7E 7P 2 KE JP 8O 4O 4P 2 1
QC JO 9O 6E 5E 1 KC KO QC JO 9O 2 2
QO TO TP 3E 3P 3 AE AP TP 3E 3P 3 2

AP TP 9P 8C 5C 1 AP KO JO TP 8C 1 2
AC 8P 7E 7P 6E 2 AC 8E 7E 7O 7P 4 2
TO 9E 6C 5E 5P 2 JP TO 9E 6C 5E 1 1
AE QO TE 2O 2P 2 AE QO TC 9C 7C 1 1
AO QC QP JC JE 3 AO KE QC QE QP 4 2

AP QO TC 6E 5E 1 AC AP QO 9O 5E 2 2
KO JC 8P 7C 7E 2 QP JC 8P 7E 4E 1 1
KE QC JP 9C 8E 1 KE QC JP 8O 6O 1 1
KC TO TP 4C 4P 3 KC JE TO TP 9P 2 1
AE JO 9E 8C 6P 1 AE AO 9E 6C 6P 3 2

AE KC QC JP TP 5 AC AE KC KO JP 3 1
KE JE 8P 2C 2E 2 KE JE 8P 2C 2E 2 0
QP TE 8E 7C 6C 1 QO QP 7C 7O 6C 3 2
9E 8C 8O 6E 6O 3 9E 8C 8O 4E 4O 3 1
AO QE 9C 9O 9P 4 AP 9C 9O 9P 4C 4 1

TP 9C 9E 9O 8O 4 9C 9E 9O 8O 6C 4 1
AE KC KO QE TO 2 AO KO QE TO 8P 1 1
JC JE JO 4O 4P 7 JE JO TE 8C 7C 2 1
QO 9P 7P 6O 5P 1 QO 7O 7P 6O 5P 2 2
AC AP KE 8E 6P 2 AC KE QP JP 8E 1 1

JE JO JP 9C 7C 4 JO 9C 7C 3C 3P 2 1
9E 9O 8C 4C 4E 3 9O 9P 8C 4C 4E 3 0
QO TC TO TP 7P 4 QO JC TP 5C 5E 2 1
AC KO QP 6O 5P 1 KO QP 8P 6E 6O 2 2
AE KC QC 8E 7E 1 AE KC KE 7E 7O 3 2

QO JC 9P 8P 7O 1 KO JC 9P 8C 8P 2 2
KE QC QE TP 8E 2 AP KE QC QE TP 2 2
AE KC TC 2O 2P 2 AE QP TC 7C 5P 1 1
AC 4O 4P 3O 3P 3 JE 7P 4E 4O 4P 4 2
JP TE 9C 9E 6P 2 TE 9C 9E 6C 6E 3 2

QC 9C 8C 7C 3C 6 QC 9C 8C 7C 3C 6 0
AC JO JP 4C 4P 3 JP 5C 5O 4C 4P 3 1
AE JE TE TO TP 4 AE KC TC TE TP 4 2
QE QO JC 6O 5E 2 QE 8E 5E 4E 3E 6 2
AO KO 8O 4O 2O 6 AO 9E 7P 6E 4O 1 1

AP QO JC 2C 2O 2 AO QO JC 7P 6E 1 1
AC KC KO TO 8O 2 KC KO TO 4C 4P 3 2
QE JO TP 9O 7C 1 QE JO TP 7C 7O 2 2
AE TE 8E 7E 3E 6 AE JE 8E 7E 3E 6 2
KE TC 9C 8P 6P 1 KE 9E 8P 3O 3P 2 2

JP TC TP 4C 4O 3 TC 6C 6O 4C 4O 3 1
AC QP TO 6E 5C 1 QP TO 7E 5C 5P 2 2
KC JC TE 5E 5O 2 KC QC TE 8P 7O 1 1
9C 9P 8E 7C 7P 3 9C 9P 7C 7P 6P 3 1
AO QE JE JO 9O 2 AE QE JE 4E 2E 6 2

AE KE QO 9C 9P 2 AE KE TP 9E 9P 2 1
AP KO JC 5C 5O 2 AP KO JP 8C 6C 1 1
AO JO TE 7O 4P 1 AO JO TC 2E 2O 2 2
AC QE QP JE 8O 2 AC QE JE 4E 4O 2 1
TO 9O 7E 3C 3E 2 8P 7E 7P 3C 3E 3 2

AE QE QP TE TO 3 AC AE KE TE TO 3 2
AO 8E 6O 5C 5O 2 9E 9O 8E 5C 5O 3 2
AP TP 7O 2O 2P 2 AP KO TP 7O 4C 1 1
JC TC 9C 8C 6C 6 JC TC 9C 8C 7C 9 2
KC QC JO JP 4P 2 KC QO JP 6E 4P 1 1

KE JO 8O 3E 3O 2 KE QE JO 9P 8O 1 1
AC AP KO 8E 8P 3 AC KO TP 9E 8P 1 1
AO JE TE 8C 7E 1 JE JP TE 8C 5O 2 2
QP 9O 7C 6C 6O 2 QP 9O 7C 7P 6O 2 2
KC QC JC TC 9C 9 KC QC JC TC TO 2 1

QC 8C 7C 2E 2O 2 AC QC TC 8C 7C 6 2
AO QE JP 9P 8O 1 AO QE 9P 8O 7O 1 1
QP TE TO 9O 5E 2 TE TO 9O 8E 4E 2 1
QO JO TP 9C 9E 2 KO QO JC TP 9E 5 2
KC 4C 4P 3C 3P 3 AP KC 7E 7P 5P 2 1

TC 9C 8O 2O 2P 2 9C 8O 7E 7O 5P 2 2
QP 4C 4P 3C 3O 3 QO QP JP 4C 4P 3 2
TO 8P 7C 7P 6C 2 JO TO 9O 8P 7C 5 2
KE JC 9E 6E 4O 1 AC KE JC 6E 5O 1 2
AE KC QC JE TE 5 AE KC KO QC JE 2 1

AC AP KC QE JO 2 AP KC JC JO 8C 2 1
AE KE QO 9C 7E 1 AO KE 9C 6E 6O 2 2
JE TC 7P 2E 2O 2 JE TC 8E 7O 7P 2 2
KO QC TE 9P 6P 1 QC 9P 6C 6P 5P 2 2
TO 9E 9O 4C 4E 3 TO 9E 9O 8O 8P 3 2

9E 8E 7E 5C 4E 1 9C 9E 7E 5C 5P 3 2
AC KC QO TP 8P 1 AC KC QO TP 9P 1 2
JC JE TC 7C 7O 3 JC TC 8C 7C 4C 6 2
AE AO QC QE JP 3 AO QE JP 2E 2P 2 1
AP KE KO TO 6P 2 KO 5O 4O 3O 2O 6 2

JC TE 9P 6C 6O 2 JC TE 8O 3C 3P 2 1
AE 4O 4P 2C 2P 3 AC AE JE 4O 4P 3 2
AO JP TP 9O 7E 1 AO QO 9O 7E 5O 1 2
AP KO TC TO 9C 2 AP KO JO 5C 5P 2 1
KC KE QC QE QP 7 KE QC QP 8E 8P 3 1

KC 8E 8O 3E 3P 3 KC TC TP 3E 3P 3 2
TO 9O 8P 7C 6C 5 TO 9O 8P 7C 6C 5 0
AC AO KO JO JP 3 AO KO QC JO JP 2 1
AP QO JC 7E 7O 2 JC JE 7E 7O 5E 3 2
5P 4C 3O 2E AE 5 AE 9C 6E 2E 2P 2 1

AE 9C 9P 4E 4P 3 AE JC 9P 6O 4P 1 1
AC AO 8E 7P 5O 2 AC AO QC JE 8E 2 2
KC KE QE 9E 9O 3 KC KE 9E 9O 7C 3 1
TE TO TP 6C 6E 7 QO TE TO TP 8P 4 1
AP KO 2C 2E 2P 4 AP KO JO 8O 7E 1 1

TO TP 9C 8C 8P 3 TC TP 9C 8P 7P 2 1
AE JC 9P 7C 5P 1 AE JC 9P 4O 4P 2 2
QC JP 7E 6E 5C 1 JP 7E 6P 2E 2P 2 2
AC AO 9E 3E 3P 3 AC AO QP TE 8E 2 1
KE QE JE 7O 6O 1 KC KE 7O 6C 6O 3 2

AE QO 8P 3E 3O 2 AE AO 8P 7P 5C 2 2
KC TC 9P 2E 2O 2 KC TC 9P 7C 4E 1 1
AC KO TE 5E 5P 2 AC KO TE 5O 5P 2 0
AP QC QP JC 7O 2 AP QC JC 9C 8E 1 1
JE JP TP 6C 6P 3 JE JP TP 9E 8O 2 1

AC KO QE 2C 2O 2 AC KO TO 2C 2O 2 1
AP KE JP 5C 5P 2 KE 5C 5P 4C 4E 3 2
AE 8E 8P 7C 7O 3 AO 9P 8P 7C 7O 2 1
KC QC QP 3E 3O 3 KC QC JC TC 9C 9 2
JE TE 9E 6E 2E 6 JE TE 9E 7E 6P 1 1

QC TC 9C 8C 6C 6 KC QC TC 9C 8C 6 2
AC AE JC 6O 5P 2 AC AE JC 6E 6O 3 2
JP 9P 7C 2E 2P 2 AO JP 2E 2O 2P 4 2
KE QO 9E 8E 7P 1 KE QO 9E 7O 5C 1 1
JE TE 9O 8O 8P 2 QE 9O 8O 8P 5O 2 2

AE QO 9E 9P 6C 2 TE 9E 9P 5E 5O 3 2
TP 6O 6P 2E 2O 3 KC JP 7O 2E 2O 2 1
KO 8O 7C 7E 7P 4 KO 8O 7E 4E 4P 2 1
AC QE QP 8E 8P 3 AC QE QP 9C 9O 3 2
KE JO TC 8C 5C 1 TC 5C 4C 3C 2C 6 2

KE QO 8C 8E 6O 2 9C 8C 7C 6O 5C 5 2
JC TC 9E 8P 5P 1 JC 9E 8P 3C 3O 2 2
AP QC 6C 4O 4P 2 AO 5E 5O 4O 4P 3 2
KC JO 9O 7E 7O 2 AE KC JO 9O 9P 2 2
JE 6E 4E 3E 2E 6 KO JE TE TO 7P 2 1

AP QP TP 9E 8P 1 AP QP TP 9E 8O 1 0
JO 8C 7E 7O 5P 2 JO 7E 7O 3C 3P 3 2
6E 5E 4P 3E 2P 5 AC JE 7C 6E 6O 2 1
JP 9C 9O 9P 7P 4 JP 9C 9P 6C 6P 3 1
AE KC QE QO TC 2 AE KC QC QE QO 4 2

AC JP 8C 7P 5P 1 AC KE JP 3C 3O 2 2
QO TP 9O 9P 5E 2 AO QO JO TP 5E 1 1
AP QE QP TE TO 3 AP QE TO 4C 4O 2 1
AE JC JE 8P 7C 2 AE KO JC JE 8P 2 2
KC QC TC 9C 6E 1 KC QC TC 2E 2P 2 2

AE QO JO 6P 5O 1 8O 7E 6P 5O 4O 5 2
KO 9O 4C 4E 4P 4 KO QP 9O 4C 4P 2 1
KE 6C 6E 5E 5P 3 AP 8E 8P 6C 6E 3 2
AC KC 2C 2O 2P 4 AC 7C 7O 2C 2O 3 1
TC TE TP 9C 9P 7 TC TE TP 3C 3P 7 1

KO 9C 9E 2C 2P 3 KO QP JP 2C 2P 2 1
AC 7O 7P 4C 4O 3 TE 8C 7O 4C 4O 2 1
JC JE 9O 5C 5O 3 JC JE TC 9O 8E 2 1
AE KE QE 4E 3E 6 AE AO KC KE QC 3 1
AP QO JO TO 8O 1 AP QO TO 6E 6O 2 2

JE JO 7O 6E 6O 3 JE JO JP 6E 6O 7 2
AC QP 8P 5C 5P 2 AC KE QP 6P 5C 1 1
QO TC 9O 8O 5E 1 9O 8O 7C 6C 5E 5 2
KC KO QC JC TO 2 AE KC QC JC TO 5 2
QE TE 9E 8E 3E 6 QE TE 9E 7P 4P 1 1

KC JC 9C 9O 8O 2 KC 9C 9O 5C 5P 3 2
JE TO 7P 2O 2P 2 JE 7C 7P 2O 2P 3 2
AE AO QC QO TC 3 AE AO QC 9P 8P 2 1
KO QP JO JP TP 2 QP JO JP 4E 4P 3 2
KE QE TE 9E 6E 6 KE QE TE 9E 7E 6 2

KC KO JP 8E 8P 3 KC JP 8E 6O 5C 1 1
AP TC TE 9C 9E 3 AP TC 9E 4E 4P 2 1
AC AO 7C 7O 6C 3 AC QP 7C 7O 5P 2 1
JE 8C 8O 3C 3O 3 JE 9O 8C 5O 4C 1 1
KE QC QE TO TP 3 KE QC JC TO 9P 5 2

AO QP 9E 8O 6O 1 AC AO 9E 6O 4C 2 2
KE QE TE TO 7O 2 KE TE TO 7O 6E 2 1
QO JO 9O 3C 3O 2 QO JO JP 3C 3O 3 2
JE TP 7E 4E 4P 2 JE 9P 7E 6P 5E 1 1
AE KO JC 8E 8P 2 AP JC TC 8E 8P 2 1

AE 7O 7P 6O 6P 3 AE JP TE TP 7O 2 1
KC JO TC TO 9P 2 AP KC JO TC TO 2 2
AC QP JE 9O 7C 1 AC QP 9O 3E 3P 2 2
AO QE QO 8C 6C 2 AO KO QE JC 8C 1 1
9E 8E 7E 6E 5P 5 QC 9C 9E 8E 7E 2 1

AC TO TP 5E 5O 3 AC TP 8O 3C 3E 2 1
KE JC JE JP TE 4 JC JE JP 9C 8E 4 1
QC 7C 7P 4C 4P 3 KC QP JO 4C 4P 2 1
AE AO QO TC 8C 2 AE AO QO TC 8C 2 0
QE 9E 9P 6E 6O 3 QE 9E 9P 6E 6O 3 0

AE TP 9C 4E 4P 2 AE 9C 9O 4E 4P 3 2
KE 8C 8O 7C 7O 3 KE TC 8C 8O 7C 2 1
JC 6E 6P 2C 2E 3 KO JC 9P 7P 6P 1 1
QC QP JE JP 7E 3 AC KC QP JE JP 2 1
QE TO 9E 3C 3O 2 AO TE TO 3C 3O 3 2

QP JO JP 9C 8O 2 QP JO TP 9C 8O 5 2
AC TC TE 2C 2E 3 AC AE AP 2C 2E 7 2
KE 7O 7P 3C 3P 3 KE KO 7O 7P 6O 3 2
QC 9P 4C 4E 4O 4 9E 9P 4C 4E 4O 7 2
JE 9O 8E 5C 5P 2 QO JE 5C 5O 5P 4 2

KE QC 9C 9O 7O 2 KO QC 9C 9O 9P 4 2
AP QE JE TE 8E 1 AP QE TC TE 9E 2 2
AC AO QP 3E 3O 3 JO 5O 4O 3O 2O 6 2
AE QO TO TP 8O 2 AE QO TO 8C 8O 2 1
JP 8P 6C 6E 4C 2 8P 7P 6C 5C 4C 5 2

AP JC 2C 2E 2O 4 AP JC TP 2E 2O 2 1
JP TO 7O 4C 4O 2 QO JO JP 4C 4O 3 2
8C 8O 8P 6C 6E 7 8C 8O 8P 7C 7E 7 2
AO 9C 9P 3O 3P 3 AO 9O 9P 3O 3P 3 0
QP JE TC 9E 7P 1 AC QP TC 9E 7P 1 2

AE JO JP TO 9O 2 AE JO JP 2E 2O 3 2
AC QO JE 7E 6P 1 AC KO JE 9E 7E 1 2
QC 8C 8P 3C 3E 3 QC 8P 6O 3C 3E 2 1
AO AP 7C 7O 5C 3 AO AP QE 5C 5E 3 1
KE TE 8O 6C 5P 1 7P 5P 4P 3P 2P 6 2

KC KE QC QO 4O 3 AO KE QC 2C 2P 2 1
6E 5O 4C 3O 2O 5 JE 9O 6E 6O 5O 2 1
AC AP KO 7O 7P 3 AC AP TC 8C 8O 3 2
9P 8P 6P 5P 4P 6 9P 8P 6P 5P 4P 6 0
AE QE JP 6C 5C 1 JC JP TP 6C 5C 2 2

AE TC TP 2C 2E 3 KE QC TC TP 8O 2 1
QP JC 9O 8E 7P 1 QP JC 9O 6O 6P 2 2
KC QE JE 5E 5O 2 AO KO QE 5E 5O 2 2
7E 6E 5C 4C 3C 5 AC 9P 7E 4C 4O 2 1
AP JP TE 9E 4P 1 AP TE 9E 8C 7C 1 1

KO QO JE TO 9O 5 KO QO JE TO TP 2 1
QE JO 8O 4E 4P 2 QE JO TE 7E 7P 2 2
AP KE JC 8E 6O 1 AP KE 9C 6O 5E 1 1
JP TC 9E 8P 6P 1 AE JP TC 8P 5P 1 2
AO KC 9P 7C 5O 1 AC KC QP 7C 5O 1 2

AC AE QO TP 9P 2 AC AE QO 5E 5P 3 2
AO KE TC 7E 6E 1 TC 7E 6E 6P 5O 2 2
AP JE 4C 4E 4P 4 AP JE 7C 2C 2P 2 1
QP JP 8P 7P 3P 6 QE QP JP 8E 8P 3 1
JC JO TO 3C 3O 3 JC JO TO 9O 8O 2 1

AC QO TC 6C 4P 1 6C 5E 4P 3C 2E 5 2
AE JO 9C 7O 7P 2 AE JO 9C 9P 7P 2 2
KC JC 8O 8P 7C 2 KC JC TP 8O 7C 1 1
KO 8C 8E 6E 6O 3 KO QC JP 6E 6O 2 1
AO AP KE QP TE 2 AO AP KE QE QP 3 2

JC 9O 8P 7P 6O 1 AO JC TO 8P 6O 1 2
AE QC 8O 3O 3P 2 AE KC QC 7O 5O 1 1
AC QE JP 4E 4O 2 AC KE QE JP TC 5 2
AP KO JO 7E 5P 1 AP KO QO 7E 6E 1 2
QP JE TP 9E 6P 1 QP JE TE TP 9P 2 2

AC AP KO TP 6P 2 AC TP 7C 5E 5P 2 1
JP 8C 8E 8P 6E 4 JP 9C 8C 8E 8P 4 2
QE QO TC TE TO 7 AO QE QO TC 4C 2 1
JC 7E 7P 4O 4P 3 KE 7E 7P 4O 4P 3 2
AE QP 9P 6C 6O 2 QC QP 9O 6C 6O 3 2

JO TO 9O 6O 5O 6 QE JO TP 9E 9O 2 1
AC AO QO TC 9C 2 AO KO TC 4C 4P 2 1
AP KC JP 8O 7O 1 KC QP 8O 2E 2P 2 2
AE 7P 6E 3C 3E 2 AE 9P 8P 3C 3E 2 2
QC JC 8C 6C 5C 6 QC JC 8C 8E 7C 2 1

QE 5O 5P 3E 3P 3 AC QE 6P 5O 5P 2 1
TP 9O 8C 8O 6E 2 KC TP 9O 8E 8O 2 2
QP 9P 8P 7C 7P 2 QP 7C 7P 4O 4P 3 2
KO JO JP 9C 6O 2 KO QC QO JP 9C 2 2
AE AO TC 7E 7O 3 AE AP TC 7E 6C 2 1

AP QO JC JE 9E 2 QO JC 9E 3C 3O 2 1
KE KO JO 8E 6P 2 KE 8E 5E 4E 3E 6 2
AC QP 9P 7E 7O 2 AC AE 7C 7E 7O 7 2
KC QE 7P 6C 5O 1 AO KC QE TE 7P 1 2
TC TO TP 9O 8C 4 TO 9O 8C 8O 6O 2 1

AE KC KE QC 8P 2 AE KC QC 8O 8P 2 1
JP 7C 2E 2O 2P 4 5C 5E 2E 2O 2P 7 2
4C 4O 3C 3E 3O 7 AC 4C 4O 3C 3E 3 1
QP TC TE 7E 7P 3 TC 9C 8C 7E 6E 5 2
QO 9O 7O 6O 5O 6 9O 8E 7O 6O 5O 5 1

KE KO QE JP 4P 2 AO KO JP 2O 2P 2 1
QC JC TO TP 9P 2 QC JC JE TP 9P 2 2
TE 6E 6O 2C 2E 3 KC QP TE 6O 4O 1 1
AC AE JO 5C 5E 3 AC JO 5C 5E 5O 4 2
8C 8E 8P 7E 7P 7 8C 8E 8P 7C 7P 7 0

5C 4O 3C 2C AP 5 5C 4O 3P 2P AP 5 0
AO QP JP 9O 6P 1 AO JP 9E 9O 8E 2 2
AC JC 9C 8C 6C 6 9C 7C 7O 6C 6O 3 1
AE JE TE 7E 5E 6 AE KC JE 7E 7P 2 1
QE TP 9P 8P 6E 1 KE TP 9P 8P 6E 1 2

QP TE TO 4C 4P 3 AO QP JP 5O 5P 2 1
AC KO QC JE 8C 1 AC QC QE JE JO 3 2
JC 9E 8O 8P 7P 2 JC 8O 8P 3C 3O 3 2
7O 6O 5C 4O 3P 5 KE 7E 7O 2E 2O 3 1
AP TC TP 6C 6E 3 QO TC TP 6C 6E 3 1

KC TP 9C 9P 8C 2 AC TP 9C 9E 9P 4 2
TO 7C 6C 6P 5O 2 AE TO 8E 7C 5O 1 1
QE JC JO JP TC 4 JC JO JP 2C 2E 7 2
KO QC QO 9O 8O 2 KO QC QO 9O 6O 2 1
AP KE 7E 5C 5E 2 AP 8P 7P 5C 5E 2 1

AC AP 6C 6E 6P 7 AC 9C 8O 6E 6P 2 1
AO KE JO JP 7E 2 AO KE JO 4C 4P 2 1
QP TC 9E 3C 3O 2 KC 8E 8P 3C 3O 3 2
AE QC JC JE 7P 2 QC JC 9P 7P 4O 1 1
QE TP 7C 2E 2O 2 QE 9O 7C 5C 5O 2 2

KE JC 9P 4C 4E 2 AC KE JC 4C 4E 2 2
AO 9E 6E 2C 2P 2 9E 9O 6E 2O 2P 3 2
8C 7C 6P 5O 4O 5 8C 7C 6P 5O 4P 5 0
JO TC 9C 8E 7E 5 AE TC TP 9C 8E 2 1
QC QO JE 8P 7O 2 QO JE TE 7O 7P 2 1

AC AP JE JO 7P 3 AC JE JO 7E 7P 3 1
KE 8O 8P 5E 5O 3 KE QE 9P 5E 5O 2 1
AO KO QO TE 9E 1 AO KO TE 2C 2E 2 2
QP TP 9O 4C 4O 2 QP JP TP 4C 4O 2 2
TC TO 9C 7C 5C 2 TC 9C 7C 6C 5C 6 2

AC JC TP 9P 5P 1 AC JC TP 5C 5P 2 2
AO KE KO QC JO 2 AO KE QE 6O 6P 2 1
QP JP 8P 7O 7P 2 QP 8P 7O 5E 5O 2 1
KC 9C 8C 8E 6C 2 AE 9C 8C 8E 7C 2 2
AP 8O 7E 2E 2P 2 TC 7E 6E 2E 2P 2 1

AE JO TC TE 8C 2 AE TC TE 3C 3P 3 2
AC KO QC QO JC 2 AC KO QC QP TO 2 1
KC QE 6E 5E 5O 2 6E 5E 4E 3E 2C 5 2
AP JE 9E 9P 7E 2 AP JE 9E 9P 8E 2 2
KE JP TP 9C 7P 1 AO JP 9C 7P 6C 1 2

6E 6O 6P 4E 4O 7 KO TE TP 6E 6O 3 1
AE AP KE JE 7P 2 AE AO KE JE 9E 2 2
QE JP 7O 5C 4P 1 JP 9O 7O 4C 4P 2 2
QP JO 8C 8O 7E 2 QP JO 8O 7C 5P 1 1
AC KC QO TO 9C 1 KC QO TC TO 9C 2 2

AP JC JE TE 9C 2 AP JE TE 8P 6O 1 1
AE JP TP 6C 6P 2 TP 9P 8E 7P 6P 5 2
AC QC QP 7C 5O 2 AC QC QP JO TC 2 2
KC QE 8C 7O 5E 1 KC 3C 3O 2C 2E 3 2
QO 9E 7E 6E 5P 1 KE QO 9E 9O 7E 2 2

TP 9P 6C 6O 4C 2 AC TP 9O 6O 4C 1 1
TC 9E 8E 7C 7E 2 9E 8E 7C 7E 7O 4 2
JP TO 8C 8P 6P 2 KO TO 8C 8P 6P 2 2
AO AP JC 8O 7P 2 AP QP JC 9C 8O 1 1
AE QO JO 2E 2P 2 AE QC QO 2E 2P 3 2

JC 8O 8P 6C 5O 2 JC 6C 6P 4C 4E 3 2
KC 9O 9P 3C 3P 3 KC QP 9O 9P 6O 2 1
AC AE QO 5C 5P 3 5C 4O 3O 2C AE 5 2
JO TC 9C 8C 7C 5 JO TC TP 8C 8E 3 1
AP QC QE JP 9E 2 AP KO QC JP TE 5 2

JP TO 9P 7E 7O 2 AE JP TO 9P 8P 1 1
KC 8E 6O 6P 5P 2 JE 8E 6O 6P 5P 2 1
JO 9E 7P 5C 5E 2 TP 9E 7P 6C 6E 2 2
KE KO QE TE 9O 2 AC KE KO QP TE 2 2
AO 4C 4O 2C 2O 3 QO 8C 7C 4C 4O 2 1

AE JP 9P 7C 7E 2 QO JP 7C 7E 6C 2 1
AC KO QC TC 8P 1 AC TC 9C 8C 2C 6 2
AP KC JC 4O 4P 2 KC TP 9E 4O 4P 2 1
TE 9O 7P 5O 4C 1 TE 9O 7P 6P 5P 1 2
KE QE JE 8E 6E 6 KE QE JE 6E 5E 6 1

AE QE TP 4C 4O 2 AE QE TP 9C 8E 1 1
AO 9O 8O 3E 3O 2 AO QO 9O 8O 3O 6 2
AC KE KO 2C 2P 3 KE KO JP 6E 6P 3 2
KC QP JE 7E 6O 1 KC QP JE TE TO 2 2
AP JO 7P 6C 5C 1 AP JC JO 7O 7P 3 2

KO QO 9O 4O 3O 6 KO 9O 4O 3O 2O 6 1
QE 9E 8C 3C 3E 2 JP 9E 8C 3C 3E 2 1
QC 7C 6C 4C 2C 6 9C 7C 6C 4C 2C 6 1
TC TO 8E 8O 5E 3 TO 8E 8O 5E 4E 2 1
AE JE JO TE 7P 2 JE JO TE 7E 7P 3 2

AP QO JO TO 8E 1 AP QO JO 8E 7P 1 1
KE KO JP 8O 8P 3 KE QC JP 8P 7O 1 1
TP 9E 9O 9P 5C 4 JC TP 9E 9O 9P 4 2
AC KC TC 9C 2C 6 AC KC QE QP TC 2 1
AE AO TE 7C 7E 3 AE AO TE 4C 4E 3 1

KE 9O 8C 7E 7O 2 AO KE 8C 7E 7O 2 2
AC AP 9C 5C 5P 3 6O 5C 4P 3C 2C 5 2
AE JP TC TP 9E 2 AE JP TP 9E 8E 1 1
QE QP JE 8O 6P 2 QE QP JE TE 6P 2 2
QC QO JC JO TO 3 QC QO JC JO 7C 3 1

AC AP QC JP 7E 2 AC AP JE 8P 7E 2 1
KO 5E 5P 4C 4P 3 KC QO 7P 5E 5P 2 1
AE TE TO 9E 9P 3 AE QP TE TP 9E 2 1
KE 8C 7C 6C 6E 2 AO KE JO 8C 7C 1 1
QE 9C 9O 2E 2O 3 QE 4E 4O 2E 2O 3 1

TE 8P 7E 6C 6O 2 KO 8P 7E 3C 3E 2 1
TC TP 7C 6E 5P 2 AP JE TC 7C 6E 1 1
AC QP JC JP 7O 2 QE QP JC JP 7O 3 2
AO KC KE 5C 5O 3 AO KE QC 5C 5O 2 1
AE 9C 9O 7P 6P 2 9E 9O 8O 7P 6P 2 1

QC QO JC JE 7O 3 KE QO JC JE 9E 2 1
AO TC TE 8C 7C 2 AO KO TC 8C 8P 2 1
KC 9P 7E 7P 6P 2 KC 9C 9P 7E 6P 2 2
AP TP 8O 6O 5E 1 TP 8E 8O 3E 3P 3 2
AE JO TO 4E 4P 2 QE JO TO 4E 4P 2 1

KO TE 9E 5C 5P 2 KO QE TE 8C 8P 2 2
AC AP 9P 7E 7O 3 AC 7E 7O 4C 4P 3 1
9C 8E 7P 2C 2O 2 KE 9C 8E 7P 6C 1 1
KC JE 8O 7C 5O 1 AO KC TC 8O 7C 1 2
QC JC JO JP TO 4 QC JO TO 9O 6P 1 1

AC QC JC 9C 8C 6 KO QC JC TO 9C 5 1
TC 6C 6O 5C 5E 3 QP TC 7C 6C 6O 2 1
KC JP 8E 7O 7P 2 JE JP 8E 7O 7P 3 2
AE 9E 7E 4E 2E 6 AE 9E 9P 6P 4O 2 1
AO AP QE QO JO 3 AO QO JO 9O 8O 6 2

JC TO 9P 8C 7E 5 JC TC TO 8C 7E 2 1
AO KE KO QC 8P 2 AO KE KO 9E 8P 2 1
AC AE QO 4C 4P 3 AC AE QO 4C 4P 3 0
AP JE 9O 6E 6O 2 9O 6E 6O 2E 2P 3 2
QP TE TP 3C 3E 3 QP JP TE 9C 8O 5 2

KE QE 9P 3C 3E 2 KE JE 9P 3C 3E 2 1
AC TE 8C 5E 5P 2 AC TE 8C 5E 5P 2 0
QP JO TO 2C 2E 2 AO QP JO 2C 2E 2 2
QC QO JC JP 7E 3 QC JC JP TC TP 3 1
9E 8O 7O 5C 4C 1 KC 9E 8O 5C 5O 2 2

AC JC JP 6E 6O 3 AC TO TP 6E 6O 3 1
AE JO 8C 8O 7O 2 8C 8O 8P 3C 3P 7 2
QC QO 9O 8E 6P 2 QO 9O 8E 5C 5O 2 1
KE TE 9P 4O 4P 2 AP TE 9P 7C 6C 1 1
KO QP 9C 9E 4E 2 KC KO QP TC 9E 2 2

AE KC 9O 6E 6P 2 AE KC JC 3C 3P 2 1
AC 9C 7C 6C 2C 6 AC QE QO 2C 2E 3 1
AP KO 4C 4E 4O 4 AP QP 4C 4E 4O 4 1
8C 8E 8P 5E 5P 7 AO TO 8C 8P 5P 2 1
KE QC TC TP 9E 2 QC TC TP 9E 9P 3 2

6C 6E 6O 4E 4P 7 QO 8P 6C 6E 6O 4 1
AE 9C 8C 7C 5P 1 AE 9C 6P 3C 3O 2 2
AP JO JP 8E 8O 3 AP JO JP 7O 7P 3 1
QC JC TC TO TP 4 TO TP 9E 9O 9P 7 2
AC 3E 3P 2C 2P 3 AC KC KO QP 4O 2 1

AC KC JC JE 7E 2 JC JE 9P 7E 5E 2 1
QO TC 8C 7P 6P 1 AP TC 8C 2E 2O 2 2
AE QP JP TE TP 2 AE QC JP TE TP 2 0
KE QE 8E 6C 5O 1 QE 8E 5O 3C 3E 2 2
AO KO JO 8O 7O 6 AO KO 9O 8O 7O 6 1

9E 7E 3C 3E 3P 4 7E 3C 3E 2E 2P 3 1
AP QO TE 6C 6O 2 AC AP QO 6C 6O 3 2
KE KO QE 4E 4P 3 KE KO TC TP 9O 3 2
AO JP 8P 7O 6P 1 8P 7O 6P 5O 4O 5 2
QC QP JO 7C 7P 3 JO 8C 8O 7C 7P 3 1

AE QP TC 9C 7E 1 AC AE QP 9C 8E 2 2
QO 8P 6E 3O 3P 2 AO QO JO 8P 5E 1 1
KE QC JC TE 9E 5 KE QC TE 9E 9P 2 1
AP QE 9O 7C 4O 1 AP KO QE JE 7C 1 2
JP TP 8O 6O 6P 2 KC JP TP 8O 7O 1 1

AC AO TE TO 8P 3 AO TO 8P 4E 4P 2 1
AE QO JP 7C 7E 2 AE QO TC 9C 7C 1 1
JE 8E 8O 6E 6O 3 AP KC JE 8E 8O 2 1
KE KO QE JO 9O 2 KO JO 9E 9O 5E 2 1
6P 5C 4O 3E 2E 5 6P 5C 4O 3E 2E 5 0

JE TP 8C 8P 4C 2 QE TP 9O 8P 4C 1 1
AO KC JC 9P 7C 1 AE AO JC TE 9P 2 2
KE TC 9C 2E 2O 2 KE TC 9C 7O 6C 1 1
AP KO QC 5E 5P 2 AC AP QC 6E 6P 3 2
TO 8E 8O 7E 7P 3 TO 9E 8O 7P 6O 5 2

AC AE QC TP 4P 2 AC QC 8E 6P 4P 1 1
KO 4C 4E 2C 2P 3 KO JE 9C 6C 6O 2 1
AP TE 9O 7E 7O 2 TE 9O 8C 8O 7E 2 2
AO QE 9E 8P 7P 1 QE JP 9E 8P 7P 1 1
QP JC JO 9P 7C 2 JC JO TO 5C 5O 3 2

QO TC TE 9P 5C 2 AC TC TE 3C 3E 3 2
KO QP TO 4C 4E 2 KO QP JP TO 5E 1 1
9C 8C 6C 6E 6P 4 9C 8C 7C 6C 6O 2 1
AO AP KC QC JC 2 AP KC QC JC JO 2 1
AE KE TP 8O 7P 1 KE JE 9E 8O 7P 1 1

AC KE QE 8O 7P 1 AC KE JE 8O 7P 1 1
AE JP TC 9C 8C 1 AE JO 9C 8C 7O 1 1
JC 8E 7E 4C 4E 2 JC 8E 6C 4C 4E 2 1
TE 9E 8P 7C 6E 5 AP KC TE 9E 8P 1 1
AO QO TO 9O 5O 6 QO TO 9O 5O 4O 6 1

8E 7E 7P 3O 3P 3 8E 7E 6E 5O 4O 5 2
JE TO 8C 7C 6P 1 TC TO 8C 8P 7C 3 2
JC JP 9C 9O 9P 7 QC JP 9C 9E 9O 4 1
AO QO QP TE TP 3 AO QO QP 2E 2O 3 1
AC KE QE 5E 5P 2 AC AE KC KE JO 3 2

QC JC TE 9P 8C 5 QO TE 9P 2C 2E 2 1
KC KO TC TO 9C 3 AO KO TC TO 9C 2 1
QP JO JP 8P 6P 2 KE QP JO 7E 6P 1 1
AE TP 6C 4O 4P 2 AE TP 8O 3O 3P 2 1
AC AP 7C 6O 5E 2 7C 5E 5O 3C 3E 3 2

TE 9E 8E 7C 6E 5 TE 9E 8E 7E 6P 5 0
AC AO KE QE TC 2 AC AO KC 3E 3O 3 2
AE QC TO TP 4C 2 TO TP 9P 2C 2E 3 2
QP 7P 6O 5E 5P 2 QP 8C 6O 4E 4O 2 1
JE JP 9O 5C 5O 3 JO JP 9O 8O 8P 3 2

AP KO TE 9C 7P 1 AP 9C 9P 5E 5O 3 2
AC KC KE 6C 6E 3 AC KC KE QE TP 2 1
JE 8E 8O 7O 5P 2 JE TO 8E 8O 8P 4 2
AO JP TC 7C 6P 1 JP TC 6P 2C 2P 2 2
QP JC JO 9E 5C 2 QP JC JO 9O 5C 2 0

AO 9E 9O 7P 6E 2 JE 9E 6E 4E 3E 6 2
AC AE KC TC TO 3 AE TO TP 8O 8P 3 1
QO QP JO 2C 2P 3 QO JO 5E 2E 2P 2 1
KO 9C 7C 6C 6P 2 JP 9C 9P 7C 6C 2 2
AP TE 8C 8E 7E 2 QC JC TE 8E 7E 1 1

AC AE QE 8P 4C 2 AC AE QE JC TO 2 2
TC 9O 8O 5C 5E 2 TC 9O 8O 7E 6C 5 2
KC KO JE 9E 6P 2 JE JO JP 9E 6P 4 2
KE QO 9C 2E 2O 2 AO QO QP 2E 2O 3 2
AP TE 8E 3O 3P 2 QC TE 8E 3O 3P 2 1

TE TP 6C 6O 5O 3 JP TP 8C 6O 5O 1 1
KE QO JE 8P 6P 1 KE QO 8O 8P 7O 2 2
AC KO QP 3E 3O 2 KO QP TO 3C 3E 2 1
JO 9O 9P 7P 5P 2 AO 9O 9P 4C 4O 3 2
QC JC TC 9C 7C 6 QC JC TC 9C 7C 6 0

QP JC TP 8C 8P 2 QP JC TP 9C 6E 1 1
JP TC TE 5C 5O 3 JP 7O 7P 5C 5O 3 1
AP KC JO 7C 6C 1 AC AP KC JO 7C 2 2
KO QC 9P 4E 4P 2 AE KO 9P 4E 4P 2 2
AO 6O 4O 3O 2O 6 AO 6O 4O 3O 2O 6 0

AC QO JC TO 9O 1 QC QO JC TE TO 3 2
KC QE JP 9E 8E 1 KC KE JP 5O 5P 3 2
AE QP TC 2C 2E 2 QP JE TC 2C 2E 2 1
AO 6C 6P 3C 3E 3 AO TP 6C 6P 5C 2 1
AP 9P 8O 6E 6O 2 8O 7O 6O 3O 2O 6 2

AC AE 9C 9P 6O 3 AE 9C 9P 5C 5O 3 1
QP TE TP 2E 2O 3 QP TE TP 2E 2O 3 0
6C 5P 4C 3C 2C 5 7C 6C 5P 4C 3C 5 2
KE QC JE 7E 7O 2 JE JO TC 7E 7O 3 2
AP KC KO QO JC 2 AP KO QO 6P 5E 1 1

AP KE KO JO JP 3 KE KO QO JO JP 3 1
AE TP 4C 4E 4P 4 AE AO 4C 4E 4P 7 2
TE 8E 8P 5C 5E 3 TE 9O 8E 8P 7O 2 1
AC 8C 8O 5O 5P 3 AC 5O 5P 3E 3O 3 1
QP JE 9C 9P 7P 2 QP JE 6C 6O 6P 4 2

AC QE JO 8P 5O 1 AC QE JO 7O 5O 1 1
8E 7E 6E 5P 4P 5 8E 7E 6E 5P 4C 5 0
AE QO 9E 7P 6O 1 AE QO 9E 6C 6P 2 2
TE TP 9O 9P 8C 3 TE TP 9O 8O 7C 2 1
AO AP JE JP TO 3 AO AP KE QP TO 2 1

JE 3C 3E 2C 2E 3 JE JP TE 7C 5O 2 1
AC KO JO TP 9P 1 AC AO KO TC TP 3 2
JC 8O 6E 4E 4P 2 JC 8O 5C 4E 4O 2 1
QE QO 8P 6C 6O 3 QE QP 6C 6O 6P 7 2
AE AP 9C 8C 7O 2 AE KE 9C 8C 7O 1 1

QO QP 7E 7P 6P 3 QO QP 9C 6E 6P 3 1
KE JP 9O 8O 8P 2 KE JP 9O 8O 4P 1 1
AC AE AO TP 9P 4 AC AE AO AP TP 8 2
KC 9E 7C 4C 4E 2 9E 7C 5P 3C 3O 2 1
JC JE TC TE 5O 3 QC JC JE TC 8C 2 1

AC 7O 7P 2C 2P 3 TO TP 8P 7O 7P 3 2
QC JP TE 4E 4O 2 QC JP TC TE 5E 2 2
QP JE 9P 8E 5C 1 QP 9C 9P 4C 4P 3 2
AE KC QE JC 9E 1 AE KC QE JC 9E 1 0
AO KE JO 7E 6E 1 AO 7E 6E 2E 2O 2 2

QO TE TO 5E 5P 3 QO TE 7P 5E 4O 1 1
JC JE TC 9E 7C 2 JC TC 9C 8O 7C 5 2
AC AE QE JO TP 2 AC AE QC JO TP 2 0
KC KE KO 8E 8P 7 KC KE KO JP 8P 4 1
AP QP 7O 2C 2P 2 AO QP 7O 2O 2P 2 0

KC QE TP 9E 6O 1 TP 9E 8E 7O 6O 5 2
AC 6C 6P 4E 4O 3 AC QO JP TO 6C 1 1
KO QP JO 7C 7E 2 KO QP JO 8O 8P 2 2
AO AP 9O 7P 5C 2 8C 5C 4C 3C 2C 6 2
AE QC JC JE 9C 2 AE JC JE TC TE 3 2

QC QP TC 6C 5P 2 QC QP TC 3C 3E 3 2
KC JO 8O 7C 7O 2 KC JC JO 9C 8O 2 2
KO QO TO 9E 9O 2 KO QO 9E 7E 6P 1 1
AC 8C 4C 4O 4P 4 AE JP 4C 4O 4P 4 2
AP KE QE JE TE 5 KE QE JE TE 8E 6 2

AO JP TE 9O 6O 1 AO QC JP 4O 4P 2 2
KE TO 7E 7O 6P 2 KE JC TO 9C 7E 1 1
8E 7P 6C 5E 4E 5 AE KC QE JO 8E 1 1
AP 8O 8P 2E 2O 3 AP QP 9E 8O 8P 2 1
AC KO JE TP 9P 1 KO QO TP 5O 5P 2 2

KE JC 9P 8C 8O 2 AO 9P 8C 8E 8O 4 2
KO QO 7O 6O 4O 6 KO QO 7O 6O 5O 6 2
AP QC 9E 7E 6C 1 QC TC 9E 9O 7E 2 2
AE JO JP TO TP 3 AE KC QP JO TO 5 2
5P 4P 3C 2O AC 5 AC JE TE 8P 5P 1 1

AE KE KO JE JP 3 AE KC KE JE JP 3 0
AP TE 7O 6O 5P 1 AP QP 7P 5P 2P 6 2
JC 8C 5E 3E 3O 2 QC JC 8C 4C 4E 2 2
AC AO TP 6C 6P 3 AC 8O 6C 6P 5C 2 1
QE 9C 9E 9O 8P 4 9C 9E 9P 8P 6E 4 1

QE 8E 4E 3E 2E 6 AC QE 8E 3E 3P 2 1
AE KC QC 6E 6O 2 AE KC 9P 8C 6E 1 1
8O 8P 7C 7E 7O 7 JO TP 9O 8O 7C 5 1
KE QP JE TC 9E 5 AO KE TC TE TO 4 1
AP JC JP 4O 4P 3 AP KO QO JC JP 2 1

AE AP JC 8E 8P 3 AE JC 9P 3C 3P 2 1
QO JO TO 9E 8O 5 AC JO TO 2C 2P 2 1
KE KO QC TE TP 3 KO QC TE 2E 2O 2 1
7O 6P 5E 4C 3O 5 QE JE 9O 7O 6P 1 1
KC QP JP 8C 7C 1 8C 7C 6E 5C 4O 5 2

AC KC KE 9C 7P 2 AC KE JE 9C 8C 1 1
AO QE JP 6C 6E 2 AO JP 6E 6P 5C 2 1
KO 4C 4E 4O 4P 8 TP 8P 4C 4E 4O 4 1
QC JO 9E 9P 7C 2 QC TC TO 9E 9P 3 2
AE QO QP 9O 7O 2 AE QO JC 7O 5E 1 1

JE 6C 6P 5C 5E 3 JE JP 8O 6C 6P 3 2
QC QO QP JC 9E 4 AO QC QO QP 9E 4 2
QE 8P 7P 6O 5O 1 KE QE TP 6O 5O 1 2
AC KC JO TO 9P 1 KC TE TO 9O 9P 3 2
AP KO 9C 8C 4C 1 AP KO 8C 7E 4C 1 1

TE 8C 8O 5E 5O 3 TE 9O 8C 8P 6O 2 1
QC 9E 5C 4C 4P 2 5P 4C 3E 2C AC 5 2
AO QP JC 6P 4E 1 AO KE QP 6C 6P 2 2
AE QE JO 7C 7O 2 QO JO TO 7O 3O 6 2
KC KO TP 9P 7E 2 KC TC 9P 7E 6E 1 1

AC AP JC 7P 5E 2 5E 4P 3P 2C AP 5 2
AO QC QE 8E 8O 3 AO 8O 7O 4O 2O 6 2
KC 9E 9O 3C 3O 3 KC JE TE 3C 3O 2 1
AE 6C 6O 5O 5P 3 AE KE QO JO TC 5 2
9P 4C 4E 2E 2P 3 KO 9P 8P 6P 4E 1 1

QE JE 9P 2E 2O 2 QE JE TE 9O 8C 5 2
TO 7E 7O 6E 6P 3 TO 7E 7O 6E 6P 3 0
AE AO KE 9E 8P 2 AE AO 9E 8E 8P 3 2
AC JC 7C 5C 2C 6 AC JC TP 5C 5O 2 1
KC QC QP 6C 6O 3 KC QC TC 6C 4C 6 2

AC KC QC TC 3C 6 KC KO QC QP 9P 3 1
QO JO 9O 7O 2O 6 QO JO 9O 7O 2O 6 0
AP TO 6C 2E 2P 2 6C 5C 4O 3E 2P 5 2
TP 8C 8O 7P 6P 2 9E 8O 7P 6O 5P 5 2
QE JC 7C 4C 4E 2 8P 7C 6E 5O 4E 5 2

JE TO 8P 4O 4P 2 JE TC 8P 6E 6P 2 2
AP QE 8E 3E 3O 2 AP KE 9P 3E 3O 2 2
AO QC JP TP 9C 1 AE AO QC JC JP 3 2
5C 4C 3C 2C AC 9 AC KO TE 8O 5C 1 1
JO 9O 7O 6O 5O 6 KC JO 7C 7E 7O 4 1

TO 4O 4P 3C 3O 3 QP TO 9E 6C 6O 2 1
TE 6E 5E 4E 2E 6 AO TE TP 6E 5O 2 1
AP JE JP 7C 7E 3 AP JP 9C 7E 7O 2 1
KO QE TC 2C 2P 2 QE 8E 8O 2C 2P 3 2
AC KC QC JC 5C 6 AC QC QO JC JO 3 1

QO TC 9O 8O 6C 1 JO TC 8O 7E 6C 1 1
AP KE KO TE 7O 2 AE AP KE TE 7O 2 2
AC QE QP JE TO 2 AC QP JE 5O 5P 2 1
JC 6O 6P 2O 2P 3 AO JC JP 2O 2P 3 2
QC 8C 7C 3C 2C 6 QC 8C 8P 3C 3E 3 1

QC 9P 8P 3C 3E 2 QC 3C 3E 2E 2P 3 2
AC AP QP TC TP 3 TC TE TP 4E 4P 7 2
AO 7C 7O 4C 4O 3 KE 7C 7O 4C 4O 3 1
JC 9O 8C 3O 3P 2 JC 9O 8C 6C 6E 2 2
AE JE 8E 7E 5E 6 AE KC JO 8E 7E 1 1

AP JE JO 4E 4O 3 AP KC 9O 4E 4O 2 1
KO QE 8C 2E 2P 2 KO QO TO 2E 2P 2 2
KE 7E 7O 6E 6P 3 AE QP 7E 7O 6E 2 1
AC 6C 5C 4C 3C 6 JP TP 9C 8E 6C 1 1
JC TC TE 9E 7C 2 JC TE 9E 8P 6O 1 1

QC JC JP TC TE 3 QC JC JP TC TE 3 0
QE QO JE TP 9E 2 QE QO JE 9E 5E 2 1
AO KC QP 7E 6E 1 AE AO KE QP 7E 2 2
AC AP 6C 3C 3E 3 AC 3C 3E 2C 2E 3 1
TO 7C 7P 4C 4E 3 TO 9P 8C 8E 7P 2 1

AO 8O 6C 3E 3O 2 TE 8O 3C 3E 3O 4 2
KE 9C 9P 8C 8E 3 AP KE QC 9C 9P 2 1
QE JC JP 4E 4P 3 AE JC JO JP TC 4 2
KC 9E 9O 7E 7P 3 KC TO 9O 5O 5P 2 1
JE TP 8P 2O 2P 2 QP JE 2C 2O 2P 4 2

6E 5E 4C 3P 2O 5 9C 8E 5E 4E 4P 2 1
AC QO JC JO JP 4 AE QO QP JC JO 3 1
KC QC JE 2C 2P 2 KC KO JE 2C 2P 3 2
AP KE TE 9E 6P 1 KE TE 8C 5C 5P 2 2
AO QE 9O 9P 6C 2 AO QE 9P 3E 3O 2 1

KE QE 9E 5E 3E 6 5E 4E 3E 2C AC 5 1
AO JO 9O 5O 3O 6 AO JE TE 9C 9O 2 1
QO QP TC 8E 8O 3 QO QP TC TO 8C 3 2
7O 6O 5C 4C 3P 5 7O 6O 5C 4O 3P 5 0
KO 7C 7P 6C 6E 3 9P 8P 7P 6P 4P 6 2

AC KC TE 9O 9P 2 AC TE TP 9O 9P 3 2
KE QE JE 2E 2P 2 KE QE JC 2E 2P 2 0
AO JP 9C 6P 5E 1 AO JP 7P 6P 5P 1 1
TO 8O 6C 3C 3O 2 QP TO 8O 8P 4E 2 2
AE KO JO 5C 5O 2 AE QC JO 8C 7C 1 1

QE JE JO 4C 4O 3 QE JE JO 7P 5O 2 1
KE QP JC 9E 7C 1 KE QP JC TO 9E 5 2
AC AO AP QC 6E 4 AO AP QC TE 8C 2 1
KC 9P 8E 8P 6O 2 KC 9P 8E 8P 7O 2 2
KO JP TP 9C 9O 2 AE KO QO JP TP 5 2

AO KC TE 9O 7E 1 AE AO QE TE 9O 2 2
AP TC 8C 7O 4P 1 AP JE TC 7C 7O 2 2
TO 5E 5O 4E 4O 3 7P 6C 5E 4E 3E 5 2
JC JP TP 9C 9E 3 JC 9C 9E 8E 8O 3 1
5P 4C 3O 2P AC 5 QC QO JO 5P 4C 2 1

AE AO TP 8O 7O 2 AE KE 8O 3E 3P 2 1
AP QP 8P 4P 2P 6 AC AP QP 2O 2P 3 1
9C 4E 4O 3C 3O 3 KO JP 5O 4E 4O 2 1
QC JE JO TO 9O 2 QE JE JO TO 9O 2 0
TC TE 9P 6C 6P 3 TC 9P 8E 7P 6C 5 2

AE KE TE 7C 4P 1 AE TE 8O 2C 2P 2 2
AO QE JC JE TO 2 AO KC JC TO 9P 1 1
7E 6O 5O 4C 3E 5 4C 4E 4O 3C 3E 7 2
KO JO 8P 5E 5P 2 KO QC QP JO 8P 2 2
AP 9C 9O 8C 8E 3 AP QO 9C 9O 8E 2 1

KO QE QO 6E 6P 3 AC QE 9P 6E 6P 2 1
JE JP 9C 7C 7E 3 JP TC 9C 7C 7E 2 1
QP 7P 6C 6O 5C 2 AO QP JC 7P 6C 1 1
QC TO TP 9O 8O 2 AP TO TP 3E 3O 3 2
AE KC 9E 8E 8P 2 AE 8E 8P 4E 4P 3 2

QO 5C 5O 4E 4P 3 QO JO TC 4E 4P 2 1
AC QC JE TP 8E 1 QC JE TP 9C 8E 5 2
AP QE 9P 8C 7C 1 AP QE JP 8C 8P 2 2
AE KC 7O 6E 5E 1 KE QP 7O 6E 5E 1 1
KO TO 7P 6P 5P 1 KO JC TO 8O 7P 1 2

8E 7C 5O 4O 4P 2 JE 7C 7O 4O 4P 3 2
AO KC KE TO 9O 2 AO KC KE 9O 8O 2 1
9C 8C 7E 6C 5C 5 9C 8P 7E 6C 5C 5 0
AE QE QO TE 9P 2 QO TC TE 3E 3O 3 2
AC KO QC 2C 2P 2 AC AP QC 2C 2P 3 2

KE QE 9C 6C 6P 2 QE QO TC 6C 6P 3 2
JC TP 9O 8C 7C 5 TP 9O 7C 6E 6O 2 1
QC JP 7E 7O 7P 4 KC JP 9P 7E 7O 2 1
AE KO JE 8E 8O 2 KO JE JO 8E 8O 3 2
AC AO QP 2C 2P 3 AC AO AP TO 9E 4 2

AC KC TP 9C 7P 1 AC KC 9C 7C 3C 6 2
8E 7E 6E 5C 4C 5 AO JO 8E 8P 7E 2 1
KO QO JP 5E 5P 2 AP KO QO JP 8C 1 1
KE QC QP 9E 9P 3 KE QC JC TC 9P 5 2
QE TE 4E 3E 2E 6 AE QE 4E 3E 2E 6 2

AO TO 9O 5E 5P 2 AO TC TO 9O 7C 2 2
QP JE 8C 7P 6C 1 KC QP JE 8C 8P 2 2
JO 9P 8E 8O 7E 2 JC JO 9P 4E 4O 3 2
AE QC QO 9C 6E 2 AC AE QC 6E 5O 2 2
KO TE TP 9E 4C 2 JP TE 9E 3C 3E 2 1

AE AP JP 9P 6C 2 JP TP 9P 2C 2E 2 1
8C 7C 7P 6O 5E 2 QE 8O 7C 7P 5E 2 2
KO QP 9C 3C 3P 2 5P 4C 3P 2O AC 5 2
KC TC TO 7E 6E 2 KC QC JC TO 7E 1 1
JE TE 9E 8P 7O 5 JE TE 9E 8E 7O 5 0

AE 3C 3E 2O 2P 3 6E 5E 4C 3C 2O 5 2
KE TC 8O 7P 5P 1 AO KE TC 8O 7E 1 2
AC QE 9E 9O 7O 2 QE JP 9E 9O 8E 2 1
KC JC TE TO 9P 2 KC JE TE TO 9P 2 0
AP KO QO JO 8P 1 AP KO QP 8P 7C 1 1

AO TC TE 7E 7O 3 AO QP 9E 7E 7O 2 1
QE 6C 5C 5E 5P 4 QE 6C 6P 5E 5P 3 1
AE AP QC 7C 7P 3 AE AP KC KO 7C 3 2
5O 4C 3E 2O AC 5 5O 4C 3E 2O AC 5 0
JC 8E 8O 6O 4O 2 JC 6E 6O 3C 3O 3 2

AE AP QE JE 9P 2 AE AP JE JO TE 3 2
AC 9O 6P 4C 4E 2 AC KC 9O 4C 4E 2 2
QC JP 6E 5C 5E 2 JC JP TP 5C 5E 3 2
AO 8E 8P 7E 7P 3 AO KE QP 9E 8P 1 1
QO TO 8O 7O 2O 6 QO TO 8O 7O 4O 6 2

AP KC QC QP JP 2 KC QP JP 9O 7C 1 1
AC 9P 7P 3C 3P 2 9E 7P 6O 3C 3P 2 1
8C 7O 6C 5E 4C 5 KO JE 8C 7O 5E 1 1
AO TC TP 9C 7E 2 TC 9C 8P 7E 6P 5 2
KE TE TO 5O 5P 3 AE KE TE TO 8O 2 1

KC KE TO 8E 8O 3 KC TO 9O 2E 2P 2 1
KO QO JO 4O 2O 6 AP KO QO JO 9C 1 1
QC QE TC TE 5E 3 QE TC TE 5E 5O 3 1
JP TP 9P 8P 5P 6 AO JP TP 6O 6P 2 1
QP JC 9E 6E 4E 1 AC 9E 6E 3C 3E 2 2

AE 9C 8C 4C 4O 2 AE JC 9C 2C 2O 2 1
KC QC JE JO JP 4 KC JO JP 5C 5P 3 1
AO QE QO QP 9E 4 AC AO KE QO 9E 2 1
AP 6E 6P 3C 3E 3 6E 6O 6P 5E 5O 7 2
KO TE TP 8E 7C 2 KO TE TP 9O 7C 2 2

KE QO TE 9P 8O 1 KE QO 9P 8O 6P 1 1
JE JP 9O 6E 5P 2 JE TP 9O 2C 2E 2 1
QP JC TC 3E 3P 2 AE QP JC TC 8P 1 1
AO QE JO 7E 5O 1 5O 4C 3C 2O AC 5 2
QC 9C 8C 6C 6O 2 QC 9C 9E 8C 7C 2 2

QE 8C 8E 3C 3P 3 JC 8C 8E 5C 5O 3 2
AP 9E 9O 6C 6P 3 AC AP QC TC TE 3 2
AE KC QO JE TP 5 KC KE QO TO TP 3 1
AO JO 7C 4C 4E 2 AO JO 8O 7C 6O 1 1
KO 4O 4P 2O 2P 3 KO 7O 6E 4O 4P 2 1

TE 8E 7E 5E 4E 6 TE 8E 8O 2O 2P 3 1
KC QC 9E 3O 3P 2 KC KE 8C 3O 3P 3 2
AC AE AP 6C 6E 7 AC AE 9P 6C 6E 3 1
AO QE TP 9C 5O 1 AO QE JE TP 9C 1 2
QO JC JO TC TO 3 QO JO TO 9O 7O 6 2

AP 8P 7P 5P 2P 6 AP KE JO 6C 6E 2 1
AO QC 9P 6O 4E 1 AO JP 9P 7O 6O 1 1
9O 4O 4P 2C 2E 3 9O 8O 7C 5O 4P 1 1
KC KO TO TP 6P 3 KC KO QO TP 9C 2 1
AC JC TC 8C 5C 6 JC TC 8C 5C 4C 6 1

AC TE TO 8E 8P 3 AC 8E 8P 7E 7P 3 1
AO KC KE JE JP 3 AO KC QE JP TP 5 2
JC 8C 4C 3C 2C 6 QP 3C 3O 2O 2P 3 1
9C 8O 7O 5C 5O 2 9O 8O 7O 5O 4O 6 2
AE AP KO QO TC 2 AE AP KO QC 6O 2 1

5C 4O 3P 2P AE 5 6P 5O 4O 3P 2P 5 2
QE JC TC 8P 7C 1 QE JC 9E 8P 7C 1 1
JP TP 9P 8E 7O 5 JP 8E 7O 7P 6C 2 1
AC QC QP 8C 8O 3 KE QC 8C 8O 5E 2 1
AO TE 9C 9O 7E 2 AO JE TE 9O 7E 1 1

TE 9E 8E 7E 6E 9 AP JC JE 9E 9P 3 1
AE TO 9O 8C 8O 2 AE QE TO 8C 8O 2 2
AO JO 4O 3O 2O 6 5E 4O 3O 2O AO 5 1
AC QP TC TP 9C 2 AC KO QO QP 9C 2 2
QC JP 7O 6O 6P 2 7O 6O 5O 4P 3C 5 2

KE QP TE TO 8O 2 AO KE QP TE TO 2 2
AC KC JE 8C 8E 2 AC JE 9C 9O 8C 2 2
AE QC JC JP TC 2 AE QC QE 2C 2E 3 2
9E 6E 6O 4E 4O 3 6E 5E 4E 3E 2O 5 2
AP KO QO 7E 5O 1 AP KO QO JO 7O 1 2

KE QC TC 9E 9O 2 KO QC 9C 9E 9O 4 2
AC AE AP KC JC 4 AC AE AP QP 9P 4 1
TP 8C 7C 6O 6P 2 TP 6O 6P 2C 2E 3 2
QE JE TO 8O 7P 1 QE TE TO 2O 2P 3 2
AO JO JP 3C 3E 3 5E 5P 3C 3E 3O 7 2

JC 6C 6E 6O 6P 8 JC JO 6E 6O 6P 7 1
AE KO 9E 7P 5E 1 AE KO QC 7O 7P 2 2
JE JP TP 8O 5P 2 JE JP 8O 3E 3O 3 2
QE TE 9O 8P 5O 1 AO 9O 5O 4O 2O 6 2
AP QP 9P 4P 2P 6 AP QO QP TO 7C 2 1

QE JC JO TP 9O 2 KE QE JO TP 9O 5 2
AO JP 9E 9P 7C 2 AC JP 9E 9P 6C 2 1
QP TC 9C 2C 2O 2 QP 8C 8P 2C 2O 3 2
KC KO QC QO JE 3 KC KO QC JE 7E 2 1
TO 7O 6O 4O 3O 6 TO 7O 6O 4O 3O 6 0

JE JO TC 9C 6O 2 JE TC 9O 8O 6O 1 1
AO AP KE JP 6E 2 AO KE QE JP 7O 1 1
AC KC QP 2C 2O 2 AC TE 8P 2C 2O 2 1
JC TO 9E 3C 3O 2 QO 9E 8E 3C 3O 2 2
AE KO QC 7C 6C 1 AE KO 7C 4O 4P 2 2

AC 8C 8P 2C 2O 3 AC AE TO 8C 8P 3 2
QE QP JO 6P 4C 2 6E 5P 4C 3C 2E 5 2
AP QO JE TE 9C 1 AP QO TE 7C 7E 2 2
AO KE KO 9E 8E 2 AO 9E 8E 5E 5O 2 1
JP TP 9P 8O 7O 5 JP TP 8O 7O 6O 1 1

AC KO TC TE 9P 2 AC KO TC 9C 9P 2 1
KE QC JC 8P 7P 1 QC 8P 7P 2C 2E 2 2
AP QP 3C 3E 3O 4 QP 8O 3C 3E 3O 4 1
AO QO JP 6C 5E 1 AO QO 8E 7C 6C 1 1
AE 9E 8C 6E 6O 2 AE KC TO 6E 6O 2 2

AE KC JE 5C 5O 2 AE KC JE 9C 7O 1 1
AC AO TC 3E 3O 3 3C 3E 3O 2C 2E 7 2
AP JC JO TO 9O 2 JC TO 9O 8C 7C 5 2
KO QO 8O 2O 2P 2 KO QC 8O 6E 5E 1 1
TE 8E 8P 7E 7P 3 QE TE 8E 8P 7E 2 1

TO 6C 6E 5E 5P 3 KE TO 7C 5E 5P 2 1
AP QP JC JO TC 2 AP QO JO TC 7E 1 1
9E 8C 7O 3C 3O 2 9E 8E 7O 6O 5O 5 2
AE KO QC 2E 2P 2 AE KC KO 2E 2P 3 2
AC QE JE TE TP 2 AC JE JP 9C 9P 3 2

AC QO QP 3E 3O 3 QO JO TO 5O 3O 6 2
QE 7C 7O 4E 4O 3 AO QE 8E 7C 7O 2 1
AP KO 8C 2E 2P 2 AP KO 2E 2O 2P 4 2
JP TE 9C 9E 7P 2 JP 9C 9E 7P 6P 2 1
KE JE TP 9P 6E 1 KE JC TP 9P 8P 1 2

JE TE 8E 4C 4P 2 JC JE 8E 5C 5E 3 2
AC 9E 9P 8C 8O 3 9E 9O 9P 8C 8O 7 2
KE QC QE QO TC 4 KE QC QO TC 9C 2 1
AE KC JP 7O 6P 1 AE KC JP TP 8P 1 2
5O 4O 3O 2O AO 9 5O 4O 3O 2O AO 9 0

AP JC JE 7O 6E 2 KE JC JE JP 7O 4 2
QE JO TE 9O 8C 5 QE 8C 8O 5O 5P 3 1
KC 8P 7C 7P 6C 2 7C 7P 6C 6O 6P 7 2
AC AO QC QP TO 3 AC AO QC QP TO 3 0
KO QO 8E 5C 4P 1 AE KO QO 2E 2P 2 2

AE KC QO JE JO 2 AE KC JC JE JO 4 2
8O 8P 6C 6E 6O 7 TC TP 6C 6E 6O 7 2
TE 4C 4P 3E 3P 3 QE 4C 4P 3E 3P 3 2
QC 9O 7C 4E 4O 2 KE QC 9O 7C 4O 1 1
AP 7O 7P 5C 5P 3 AP 7O 7P 5C 5O 3 0

QO TP 9E 4C 4P 2 QO TP 9E 9O 8P 2 2
AC AE QP TO 9P 2 AC QP TO 5O 5P 2 1
JC TC 9C 8C 2C 6 JC 9C 8C 3C 2C 6 1
AO KC KO QC JP 2 KC KO JP 8O 7P 2 1
AP 8E 7C 7E 5E 2 8E 7E 6E 3E 2E 6 2

AP TP 8E 7E 6O 1 AE AP 9O 8E 7E 2 2
AC AO JC TC TO 3 AC KO JC TC 9C 1 1
JO 8O 5O 4O 3O 6 JO JP TE 7C 5O 2 1
QC 9E 9P 7O 6C 2 KE QC QO 9E 7O 2 2
QE JE 8C 3E 3P 2 KC QE QP 8C 5P 2 2

QO QP JP 6O 6P 3 QP JP 6P 5P 4P 6 2
AC AP JE 7C 7O 3 AP JE 9E 7C 7O 2 1
TE 8C 8P 6E 4C 2 KO 8C 8P 6E 5C 2 2
QE JC JO TC 9P 2 AO QE JO TC 9P 1 1
AE KE 9C 4E 4O 2 AE KC KE 4E 4O 3 2

QC QE JC TO 9O 2 AC QC QE JC 5P 2 2
5E 4C 3C 2C AE 5 JE 7C 5O 2C 2E 2 1
AP QO 6C 6O 6P 4 AP TP 8O 6C 6P 2 1
KE KO JO 4E 4P 3 KE 8C 6E 4E 4P 2 1
AO QP 9C 9E 9P 4 QP JP 9P 8P 7P 6 2

AC AO 8C 8O 8P 7 AC AO 9E 8C 8P 3 1
AP TE 9O 9P 6C 2 TE 9P 8E 6C 6P 2 1
KO JP TP 9C 6O 1 QP TO TP 9C 6O 2 2
5C 5P 2C 2O 2P 7 JO 5C 5P 2O 2P 3 1
AE KC QC JC TC 5 AE KC QC 7E 7P 2 1

KE KO 8P 4O 4P 3 KE QP 8P 7C 6P 1 1
AP JE 9O 8E 6O 1 5P 4C 3C 2P AP 5 2
AC QO 8O 7O 7P 2 AC QE QO 7E 7P 3 2
JP TC 9C 9P 8C 2 JP TC TP 9C 8C 2 2
AE AO KC TE TO 3 AE KC QC JC TE 5 2

TC 9C 9E 6P 5P 2 QO JO 9C 9E 6P 2 2
AC AE KE 3C 3O 3 AC JC 8C 5C 3C 6 2
KO JP TO 8P 7P 1 AO KC KO JP TO 2 2
AP QC QP JE 9O 2 QP JE 9O 9P 6E 2 1
QE 4C 4P 2C 2O 3 QE TP 8E 8O 7E 2 1

9O 8P 7C 6O 5E 5 QP 7C 7P 5E 5P 3 1
9P 8O 7O 6P 5O 5 AC 9P 8O 6P 5O 1 1
AE KC JP TP 5C 1 KC 5C 4C 3C 2C 6 2
KE KO JC TC TO 3 KE JC TC TO 9C 2 1
AO JO 8E 4E 4O 2 AO QC QO 8E 7E 2 2

AE AO QO 3E 3P 3 AO QO TO 3E 3P 2 1
QP 9O 8E 8O 6O 2 AC 9C 9O 8E 8O 3 2
TE 6C 6E 2C 2O 3 TC TE 6C 6E 4E 3 2
JC 7E 7P 5C 5P 3 JC JO 7C 7E 7P 7 2
KE KO QC QE JE 3 KC KE KO QE JE 4 2

AC AO KE JP TO 2 AC AO JP 9C 6E 2 1
JC TC 9P 5P 4O 1 QE TC TP 9P 5P 2 2
AE KO JE 5C 5O 2 AE KO TE 9O 7E 1 1
KC QO QP JO 8O 2 KC QC QO QP JO 4 2
8E 3C 3P 2C 2E 3 AP 3C 3P 2C 2E 3 2

AP 7E 7O 3C 3P 3 AP JE 7O 2C 2P 2 1
QP JP TO 9P 8E 5 KO QP TO 9P 8O 1 1
AC QC 5C 5E 5P 4 QC JC 8C 5C 5P 2 1
KC TE TP 8P 6P 2 KC QO TE TP 8P 2 2
QE 9E 6E 3E 2E 6 AE QE 9E 6E 3E 6 2

TE 9P 6O 4O 4P 2 TE 6E 6O 4O 4P 3 2
KC QP JE TC 9C 5 QP JE JO TC TP 3 1
AC KE QE QO JC 2 AO KE QE QO 7E 2 1
9O 6C 6P 4C 4E 3 AP TO 7C 6C 6P 2 1
KO 3O 3P 2E 2P 3 QC 3O 3P 2E 2P 3 1

QE TC 9P 8P 6O 1 QE JP TC 9C 8P 5 2
AP QP JO 6P 5C 1 QP JO 2E 2O 2P 4 2
AO KC 8C 4E 4O 2 AO KC 8C 5E 5P 2 2
AC KE JE TE TP 2 KE TE 9E 8E 7E 6 2
QC QO 3C 3O 3P 7 AE QC JC 3C 3P 2 1

6E 5P 4P 3E 2O 5 TO 7C 6E 4C 4P 2 1
AO JO 9O 6O 3O 6 AO 9C 9E 9O 8C 4 1
KE KO QO 5C 5O 3 KE KO TE 5C 5O 3 1
QE 8O 8P 4E 4O 3 QC QE JE 8O 8P 3 2
AP QP JP TP 2P 6 AC QP JP TC TP 2 1

7E 6E 5E 4C 3O 5 QP TC 6E 4C 4O 2 1
AC AE TE 9E 7C 2 AC AE TE 8E 7C 2 1
JE 9P 8O 5C 5P 2 8O 5C 5P 3C 3P 3 2
KO QE QO 9O 6C 2 QC QO JC 9O 6C 2 1
AO AP KC KE JO 3 AO AP JO TO 9C 2 1

QE QO 9P 7E 7O 3 QE 9P 8P 7E 7O 2 1
QC TC 9C 4C 2C 6 QC 9C 4E 4O 4P 4 1
AC AE QP JP 6O 2 AC KC QP JP TP 5 2
KE KO JC JE TE 3 JC JE TE 8C 8E 3 1
AO AP 7C 6E 6P 3 AO 7C 6P 2E 2O 2 1

AC AE KE 5C 5P 3 AC AE TC 5C 5P 3 1
AO JC JE 2C 2P 3 KC QC JC JE JP 4 2
AP TO 9P 2E 2O 2 AP QE TO 2E 2O 2 2
9E 4E 4O 3E 3P 3 4C 4E 4O 3E 3O 7 2
TE TP 9C 7C 7O 3 TP 9C 8C 7O 6E 5 2

AC AP KO QO JO 2 AP KO QE QO JO 2 1
JC TC 8E 3O 3P 2 JC TC 8C 3O 3P 2 0
6C 5O 4C 3E 2O 5 QP TO 9E 6C 4C 1 1
QC 7C 7O 5E 5P 3 QC TE 8O 8P 7C 2 1
KC KE JE 6O 6P 3 KC JE TP 9C 9P 2 1

QE JC TO 7E 7O 2 AP JC 8E 7E 7O 2 2
AC JE JO 2C 2P 3 JO 3C 3O 2C 2P 3 1
AE KE QO TE 9E 1 AE KE TE 7C 7P 2 2
AO 8O 6O 5O 4O 6 QC QP 8O 6O 5O 2 1
TC 9P 8C 5E 5P 2 9P 8P 6P 5P 4P 6 2

AO JO TC 9E 7C 1 AO TC 9E 5C 5E 2 2
AC JC 8E 6C 6E 2 AC QC 8E 6C 6E 2 2
KC QE QO 2C 2E 3 KC QE TE 8C 7E 1 1
KE KO JE TP 9C 2 AE KE JE TP 6O 1 1
AP TO 9O 9P 8O 2 AP TO 9O 7O 7P 2 1

JE 9O 8C 6P 4C 1 JE 9O 7O 6P 5C 1 1
AE KO QP JP 8P 1 AE KO 9P 8P 4E 1 1
AC AO KE QO 6C 2 AC AO KE QE QO 3 2
9E 8E 7C 7E 6O 2 AP TP 8E 7C 7E 2 2
KC JC TC TO 9C 2 QC JC TC 9C 8O 5 2

AC QE TE 8E 4P 1 QE JE TE 4C 4P 2 2
QO TO 7O 3E 3O 2 KE 7O 6P 3E 3O 2 2
JC TC 9O 8O 7C 5 JC TC 9O 8O 7C 5 0
AE KC QC QP 9C 2 AE KC 9C 8C 7P 1 1
AO 9E 6E 5O 5P 2 AO 7E 5E 5O 5P 4 2

AO 6C 6O 2E 2P 3 AO JC 9P 8P 6O 1 1
JE TP 9E 8C 7C 5 JE TP 9E 8C 7E 5 0
QE TE 9C 4O 4P 2 QE JO 9C 7O 5O 1 1
AC KE QP JP 7P 1 AC KE QP TO 7P 1 1
QO 8E 8O 5C 5P 3 KO 9O 8E 8O 6P 2 1

AP 9P 8P 4P 3P 6 AP JC JE 9P 8P 2 1
JP 6E 6P 2E 2P 3 JP 7P 6P 5P 2P 6 2
KE QE QP 9C 8C 2 KE QP 9C 8C 7C 1 1
AC QO TC TP 7O 2 AC AO KO QO TP 2 2
KC QC 8E 4E 4O 2 KC QC 8E 4C 4E 2 0

KO 8O 7C 5C 5O 2 KO 8O 6O 5O 2O 6 2
AP QE QO 6E 5E 2 AC QE QO TC 5E 2 2
AE KE QC 9O 6C 1 AE KE QC 9O 7O 1 2
TO 9P 8C 7P 6P 5 AO JC TO 9P 7P 1 1
KC QP 9C 3C 3E 2 KC QP JP 3C 3E 2 2

AP 8E 8P 5C 5P 3 AP 9P 7O 5C 5P 2 1
KE 7C 6E 4C 4O 2 AC KO 7C 4C 4O 2 2
QC JC JO TC TE 3 QC JC JO TC TE 3 0
QE JP 8O 7P 6P 1 QE JE JP 6O 6P 3 2
KC QO TP 9O 4E 1 AE AO TP 9O 4E 2 2

KO 9C 7C 7E 6P 2 AE KO 9C 7C 7E 2 2
AC QP JC TO TP 2 QP JC TC TO TP 4 2
KC JP TE 8P 6E 1 KC 8E 8P 2E 2O 3 2
AP QC JO 5C 5O 2 AP QC JO 4C 4E 2 1
AO KE QE 6C 6O 2 KE QE JE 9E 5E 6 2

AC KC KO 7C 7E 3 AC KC KE KO TC 4 2
9C 9O 9P 4C 4E 7 9C 9O 2C 2O 2P 7 1
JC 8E 8O 4O 4P 3 JC TP 9E 4O 4P 2 1
AP QC TE TO 6C 2 AP QC QO JO 6C 2 2
AE AO QE 8C 6P 2 AE QE 6P 5O 5P 2 1

JC 9C 7C 5C 4C 6 AO JC TE TP 9C 2 1
JE JO 8C 8P 6E 3 JE 8C 8P 6C 6E 3 1
QC QO QP 9P 7E 4 QC QE QO TC 9P 4 2
AC AE KC KE JP 3 AC AE KE 7P 6O 2 1
KO TO 9O 8O 7O 6 AP KO TO 9O 4E 1 1

KO TP 8O 5E 5O 2 KO JO 8O 5E 5O 2 2
TO 9O 8C 7E 6P 5 QO TO 9O 9P 8E 2 1
AC 9C 6E 3O 3P 2 AC AP TC 3O 3P 3 2
QP JP 8P 5P 4C 1 JP 8P 7P 6C 4C 1 1
AE QC JC TE 9E 1 AE QC QE TE 5C 2 2

AE KO JO 9C 8E 1 KC KO JO 9O 8E 2 2
TP 9P 6P 5P 2P 6 JE TP 9E 8O 6P 1 1
AC QE TE 8P 7P 1 QE TE 8P 7P 4C 1 1
AP KE JP 5C 5O 2 AO KE QC 5C 5O 2 2
TO 8C 7C 6C 6E 2 QP TO 8C 7C 6C 1 1

AO QC JC 8C 8P 2 QC JC 9C 8C 5C 6 2
KC 9E 9P 7C 6C 2 KC KE 9E 9P 7C 3 2
QO JE 7E 3E 3P 2 AC AE QO 3E 3P 3 2
8E 4E 4P 2C 2P 3 AP KO 8E 4E 4P 2 1
QE JO TE 5O 5P 2 JO 9O 5O 3O 2O 6 2

JC 9C 8C 7P 6P 1 JC TC 8C 7P 6O 1 2
AE KC TE 9P 6C 1 AE KC QC 9E 9P 2 2
AO 8P 7C 7E 7O 4 5O 4P 3E 2E AO 5 2
AP QE JP 8E 8O 2 AP QE JE JP 8O 2 2
KE JO TP 9O 5E 1 JO TO TP 5C 5E 3 2

7P 6C 5C 4O 3O 5 AC AP JP 7P 6C 2 1
JO 9O 9P 2C 2P 3 JO 9O 9P 8P 7O 2 1
AO QP TO TP 7E 2 AO KO TP 9E 7E 1 1
QE TE 8E 8O 6P 2 QE QO TE 8E 4C 2 2
KE JC TC 9C 7C 1 JC JE TC 9C 8C 2 2

JC JE TO 8P 6C 2 JC JE 8P 4C 4O 3 2
8E 7E 7P 6E 6P 3 8E 7E 6E 5E 4E 9 2
AP KE QE TE 9E 1 AP KE QC QE 8C 2 2
AC KC 9C 9O 7O 2 AO KC 9C 9O 7O 2 0
QO JO TC TP 9P 2 QO TC TP 9P 8O 2 1

AO QE QP 9P 7C 2 AO QE QP 9P 7P 2 0
KC 9C 8O 7E 6O 1 KC KE TP 8O 7E 2 2
JC JO 8C 5C 5E 3 AE JO 7O 5C 5E 2 1
TC TO 8P 3C 3O 3 QC TO 8P 3C 3O 2 1
AC KO QO JE TE 5 AC KO QO JP TE 5 0

QE 6C 6E 4E 4O 3 QE 9O 8O 8P 6C 2 1
AE KE JO 9C 8C 1 JO TO 9C 8C 7C 5 2
AC QP 9P 8E 6O 1 9P 8E 7E 6O 5P 5 2
KC JC TC 3C 2C 6 AP KC QC QO 9E 2 1
AO TP 7O 6P 5C 1 AO JE TE TP 7O 2 2

AP KO TO 8C 7C 1 AC AP KO 4C 4O 3 2
AO QP 9C 4E 4P 2 QO QP JE 4E 4P 3 2
QC TE 7P 3O 3P 2 QC 7P 6P 5E 5O 2 2
KC TC TP 6C 6O 3 KC JP TC TP 9P 2 1
KE JC 8O 7O 5C 1 AE JC 8O 3C 3E 2 2

KC KE QC 3O 3P 3 JO 9O 4O 3O 2O 6 2
AC AE TE 9P 7P 2 AC AE 7P 6E 6P 3 2
AP QP 8P 7C 6C 1 AP QP 8P 7C 5O 1 1
AO TP 7E 5E 5P 2 JE 5E 5P 3C 3E 3 2
QE JC 9E 8C 8E 2 QE JC JP 9E 8C 2 2

KC QO 6C 6P 5P 2 KC 6C 6P 5C 5P 3 2
AE AO AP 7O 7P 7 AE AO QP TE 8E 2 1
JE JO 9C 3C 3O 3 QE 6E 6O 3C 3O 3 1
AC TC TP 9E 9P 3 KO QC TC TP 9P 2 1
8C 8O 8P 2C 2O 7 KE JP 9O 2C 2O 2 1

KC QO JP 7E 7P 2 JP 7E 7P 3E 3P 3 2
AC AP 8C 5C 5E 3 AC AP 8C 7O 6C 2 1
KE QP 9E 6E 5O 1 KE QP 9E 4O 4P 2 2
AE JE TO 9P 8P 1 AE JE 9P 4C 4E 2 2
QC QE JC TE 9C 2 QC QE JC TC TE 3 2

AO KC QE QP TC 2 AC AE AO QE QP 7 2
9P 3C 3P 2C 2P 3 TO 9P 5C 3C 3P 2 1
KE JE TP 7E 7O 2 JE TP 8P 5O 5P 2 1
9C 9O 8E 3E 3O 3 9C 9O 7C 3E 3O 3 1
KO QC JC JP 9E 2 KO JP 9E 6P 5E 1 1

AE QE JC 8C 7P 1 AE AP QE 8C 6E 2 2
QO 9P 8P 5O 5P 2 9E 8P 7O 6P 5O 5 2
AC TE TP 2C 2E 3 AC KO QP 2C 2E 2 1
6O 5C 4C 3O 2P 5 6C 5C 4C 3O 2P 5 0
KC KE QC TC 8O 2 KE TC 9C 8O 7C 1 1

TP 9E 7E 6E 4P 1 QC TP 9E 6C 6E 2 2
AE AP QE 5C 5E 3 AO AP QE 5C 5E 3 0
KE JE TE 8E 2E 6 AC KE JE TE 8P 1 1
JP TO 9P 8C 7O 5 JP TO 8C 3C 3E 2 1
KO QO QP 9C 8O 2 KO QO QP JO 9C 2 2

JP TO TP 9O 5O 2 AE JP TO TP 9O 2 2
AC QP JE 6C 5C 1 AC JE 6O 3C 3E 2 2
KO 9C 9P 8C 8P 3 KO TC 9P 7E 7O 2 1
QC 8E 8O 4O 4P 3 QC JC JO 8E 8O 3 2
AO KC KE QE 7P 2 KE QE TE 6E 2E 6 2

AC QO QP TC 7E 2 AC KO QC QP TC 2 2
AP JC TE 6O 5E 1 AP JC TE 2C 2O 2 2
AE 9C 7P 6E 6P 2 AE KE 9C 7P 6P 1 1
KC 8O 8P 3C 3E 3 AO KC 9E 8E 8O 2 1
QE JE JP 5C 5O 3 QE JE JP TO TP 3 2

QE TO 8E 3C 3P 2 AE TO 6C 3C 3P 2 2
KE JP TE 9E 4O 1 KE KO TE 9E 7C 2 2
9P 8C 7P 6E 5P 5 JO 8C 8O 7O 7P 3 1
AP 8P 6O 6P 5O 2 AP QO 9O 8P 6P 1 1
AO JC JE TP 7E 2 AC AO JE 7E 5C 2 2

AC KE QP 4C 4O 2 AC AO QP 4C 4O 3 2
TO 9E 8E 2C 2O 2 TO 9E 9O 2C 2O 3 2
KC QE 7P 6O 5P 1 KC QE TE 3C 3O 2 2
AE QO JE 8P 6P 1 AE QO JE JO 8P 2 2
KO JP TC 7C 6C 1 AP JP TC 9P 7C 1 2

AO KE QP 6C 6P 2 6C 6P 5C 5E 5P 7 2
AE TO TP 9C 8C 2 JO TP 9C 9P 8C 2 1
KC QC TC 7C 4C 6 KC QC QO JC 8O 2 1
JE 6E 4E 3E 2E 6 JE 7P 6E 3E 3P 2 1
AC QE 9E 2C 2O 2 9E 9O 8E 2C 2O 3 2

JC 9E 8E 3E 3P 2 AC 9E 3E 3O 3P 4 2
TC 6C 5C 3C 2C 6 TC 6C 5C 3C 2C 6 0
KC KE QC TO 8P 2 AE KE TO 8P 5O 1 1
JE TE 7E 5E 4E 6 JE TE 7E 5E 4E 6 0
AP KO QE QO 9P 2 AO AP KO QO 9P 2 2

AO QO JC JE 6O 2 AC AO QE QO JC 3 2
KE TC TO 8C 6E 2 KE QC TO 9E 8C 1 1
AP KO 8O 8P 7E 2 AP KO JO 7E 7O 2 1
KC TE 9O 3O 3P 2 KC TE 8E 3O 3P 2 1
JP TP 7P 5P 4P 6 JP TP 9P 7P 6P 6 2

8O 7E 6P 5O 4P 5 AO QC QP JC 8O 2 1
AC JE JO 8C 8P 3 AC KC JE 8C 8P 2 1
KE TP 9C 9P 5E 2 TP 9E 9P 8E 5E 2 1
AE QE TO 3C 3O 2 KO TO 9O 7O 3O 6 2
AP JP TE 6C 6E 2 AP QO JP TE 7C 1 1

KC 7C 6C 4C 2C 6 AC 9P 6C 4C 4O 2 1
AO JO TO 2E 2P 2 AO JO TO 5O 2O 6 2
AE QC JC 6E 6O 2 AE QO JC TC 8C 1 1
AP KE KO TE 9O 2 AP KO 9O 8O 7O 1 1
QE JE 7E 7P 6P 2 QE JE 9E 8E 7P 1 1

AC AE QO TC TE 3 AE JC TC TE 9P 2 1
AP QC QE TP 7O 2 AP 6C 6P 4C 4E 3 2
KC KE QP 2C 2O 3 KC KE TO 9C 9O 3 2
KO JE 8C 7P 5C 1 KO JE 8C 7P 5C 1 0
AO 8E 8P 7C 7E 3 9E 8E 7E 6E 5E 9 2

QE QO 7O 7P 6E 3 QE 9E 8E 6E 5E 6 2
QP 9C 9O 5O 4P 2 AP TE 9C 9O 4P 2 2
AC AE KO TP 8P 2 AC AE KO TP 8P 2 0
KC 4C 4O 3E 3O 3 KC 8C 5C 4C 3C 6 2
KE JC JE JP TC 4 KE QC JC 6C 6O 2 1

AP QC TE 4C 4E 2 QC TE 9E 4C 4O 2 1
AE QE JO 9O 5O 1 AE KC QE 9O 6O 1 2
QO JC 8O 6C 5P 1 9C 8O 7O 6C 5P 5 2
JE TO 9P 8P 7P 5 KO JE 9P 8P 7P 1 1
KE QP TC TP 8C 2 KE JP TC 8C 7E 1 1

AE AO KO QP 6P 2 AE QP JP 6O 6P 2 1
QE JC JO TC 6C 2 QE JC JO TC 9O 2 2
AC AP QO 7C 7P 3 AC QO TE TP 7C 2 1
5C 5E 5O 4C 4O 7 KE 9E 9P 5C 5O 3 1
KC JE TO 3C 3P 2 KC 8E 8O 3C 3P 3 2

AC QO TC 7E 5E 1 9E 7E 5E 3E 2E 6 2
JE TE 8E 6E 6P 2 KC JE JP TE 8E 2 2
QE 9C 8P 7P 6O 1 KE QP 9C 8P 7P 1 2
JC TO 5C 3C 3O 2 AO KO TO 3O 2O 6 2
8C 7C 6C 5O 4C 5 TP 9P 8C 7C 6C 5 2

AC AE TC TO 9C 3 AE TC TO 9C 7C 2 1
JC 8P 7E 6E 6O 2 8C 7E 6E 5C 4P 5 2
AP QC QO 3E 3O 3 AP KC QO 2C 2E 2 1
QE JE TP 9E 8O 5 QE TE TP 8O 7O 2 1
AO KO JO 9O 2O 6 AO KE JO 6P 5P 1 1

QC JE JP TO 8P 2 QE JE JP TE TO 3 2
KO QP 9O 7P 6O 1 AC QP 9O 7P 6O 1 2
KE QO 8O 4C 4E 2 KE QO JO 8O 7O 1 1
TC 7E 6C 5C 5P 2 AO 9E 7E 6C 5P 1 1
AP TP 8E 7C 6P 1 TP 6P 4P 3P 2P 6 2

AC AP QO JO JP 3 AC AP KC QO QP 3 2
KE KO QC 9P 8P 2 KE KO QC 8E 8P 3 2
AE QE 6E 3C 3P 2 5P 4O 3C 2P AE 5 2
9C 8C 7C 5C 4C 6 TO 9C 8C 7C 7P 2 1
AO JC TC 5E 5O 2 9E 5E 4E 3E 2E 6 2

KC JE TE 7C 5O 1 KC JE TE 9E 8C 1 2
KE QO TC 8O 8P 2 QO TC 8O 8P 7O 2 1
AO JC JP 3C 3P 3 AO QE JP 3C 3P 2 1
TP 9C 9P 5C 5P 3 TP 9C 9P 6C 5C 2 1
QC TO 7E 6E 4O 1 AE 7E 6E 3E 2E 6 2

AP 8P 7P 6P 4E 1 8P 7P 6P 4E 4P 2 2
QP 9E 8E 5E 5O 2 AO KO QP 9E 8E 1 1
KE QE JE 3C 3E 2 KE QE JE TE 7E 6 2
7C 6O 5C 4O 3P 5 AC 9O 7C 7O 6O 2 1
QC JC TC 9C 6C 6 QC JC TO 9C 8O 5 1

AE KE KO 9P 8P 2 KE KO 9E 9O 9P 7 2
AP JO JP TP 9C 2 AP QC JO JP TO 2 2
6E 5P 4O 3O 2C 5 8C 7C 6E 5E 4O 5 2
AC TC 8O 3C 3P 2 QE TC 8O 3C 3P 2 1
KC QO QP 4E 4P 3 KC JC 7E 4E 4P 2 1

AE KC QC JC TC 5 AE KC QC 3E 3O 2 1
KO QE JO 3C 3P 2 KO QE QO 3C 3P 3 2
AP 5E 5O 2E 2P 3 TO 5E 5O 4E 4P 3 2
TE TP 9E 7E 6C 2 TP 9P 7E 5C 5P 2 1
AC KE 9C 6O 6P 2 AC KE JE 6O 6P 2 2

AE QC 7E 7O 6E 2 AE QC 9P 7E 7O 2 2
JC JO JP 2E 2O 7 JE JO JP 9E 8E 4 1
AO QE QP TE 5O 2 5O 4E 3O 2C AO 5 2
KE 8C 6O 6P 5P 2 AC KE KO 6O 6P 3 2
QO TO 9O 8O 7P 1 KC QO TO TP 7P 2 2

AE KO TE 9E 8C 1 AE AP KC KO 9E 3 2
QE QP 2C 2E 2P 7 QE QP TC 8E 8O 3 1
TP 9P 6P 5P 3P 6 TP 9P 8P 5P 3P 6 2
QC JP 9C 9O 6E 2 JC JE JP 9O 6E 4 2
AC JO 7E 7O 5C 2 AC KE JO 7E 5E 1 1

AE AO TO 9O 8P 2 AE TO 8E 8P 7P 2 1
KC KO QC 2C 2E 3 KC KO 9P 4E 4O 3 2
AC TP 8C 7C 5O 1 AC AP TP 7C 5O 2 2
9C 8O 7O 6O 5E 5 JO 9C 9E 8O 7O 2 1
QE QO 6C 6E 6P 7 QE QO JE 6C 6P 3 1

AE QE TE 4E 2E 6 AO QE TE 5O 5P 2 1
TC TP 7C 5E 4C 2 AC 7C 4C 3C 2C 6 2
QP JP 9O 4O 4P 2 QP JP 9C 9O 7P 2 2
AP KE QC 8C 8O 2 AP 8C 8O 7O 6C 2 1
JE TO 9E 8E 7E 5 JE 9E 8E 7E 6E 6 2

AO QE QP 9C 9P 3 AO KE QE QO TP 2 1
KO TC 5E 2O 2P 2 QC TC 5E 3C 3E 2 2
AE KC JC 3O 3P 2 AE 8P 6E 3O 3P 2 1
AP JP 8O 6C 5O 1 9O 8O 7E 6C 5O 5 2
JO TE 9E 8C 7O 5 JO TE 9E 8C 7O 5 0

AC TO 9E 2O 2P 2 AC AO 9E 7P 6O 2 2
AE KC QP 9O 8P 1 QP JO 9O 8P 7O 1 1
QE QO 8E 5C 5E 3 QE QO 8E 8O 5C 3 2
6P 5P 4E 3E 2E 5 AP QC 6C 6P 5P 2 1
TP 9C 8C 7C 6E 5 TP 9C 9P 7E 6E 2 1

AP QP JP 7C 7P 2 AP QC JP TE 8C 1 1
AC 9C 7O 6C 6E 2 TO 9C 8P 7O 6C 5 2
JC TC 8O 4E 4P 2 QE JC 9O 4E 4P 2 2
AE KC QO 9E 5P 1 AE KC QO JO 7E 1 2
KE KO 3E 3O 3P 7 KE 9P 8E 3E 3P 2 1

TO 8O 7O 4O 3O 6 AC TO 8O 4O 4P 2 1
QC TE 9E 7C 5P 1 QC QE JE 7C 5P 2 2
JO 9O 6C 4C 4E 2 JC JO 9O 8P 6C 2 2
JP TP 9C 8C 7E 5 AE KC JP 6O 6P 2 1
AO AP KO QP TC 2 AO AP KO QP 9P 2 1

AP KO JO 5E 5O 2 AP KO QO JO 8O 1 1
KE JE 9O 8P 7E 1 JC JE 9O 7E 6E 2 2
AO QE 9E 8C 8E 2 AO QE JP 8C 5C 1 1
QC TE TO 9P 6C 2 QC QP TO TP 9P 3 2
AE 7C 7O 6O 6P 3 AE KC 7O 6O 6P 2 1

JC TC 7E 4C 4P 2 JC 4E 4P 2C 2O 3 2
AE QP JO 3E 3O 2 AC QP JO 3E 3O 2 0
QO 6O 6P 5O 5P 3 QO 8E 5C 5O 5P 4 2
AO AP KE JE 9O 2 AO AP KO 9O 7C 2 1
QE TE TP 9E 4O 2 QE TE 9E 8O 6E 1 1

QP 8P 6C 4E 4O 2 JE 8E 8P 4E 4O 3 2
AO JP 2E 2O 2P 4 AO KE JP 2E 2O 2 1
QC JC TE 5E 5P 2 JC TE 5E 5O 5P 4 2
AC KO QO TO TP 2 AE TO TP 6E 6P 3 2
AP KC 3C 3E 3P 4 AP KC JO 3C 3P 2 1

AO AP KO 7C 7P 3 AO AP KE 7C 7P 3 0
JC TC TP 9P 4C 2 JC TC 9C 8C 4C 6 2
AE JO 5C 5O 5P 4 AE 5O 5P 2E 2P 3 1
AC QC QO JE 6P 2 QO JE JP TO 6P 2 1
KC 8E 7E 7O 6E 2 QP 8E 7E 7O 6E 2 1

KE QE TE 8P 6O 1 QE 8P 6O 4E 4P 2 2
AP QC 9O 7P 6P 1 AP KO TO 9O 7P 1 2
AC KC 9E 9P 5C 2 AC AE TC 9E 9P 3 2
QO JO JP 6C 6E 3 QO JP TP 6C 6E 2 1
AO QP JC 8E 7E 1 AO QP JC JE 7C 2 2

KE QP JP TP 4C 1 QP JP 8P 6P 2P 6 2
AC AE JE TC 9O 2 AE JE 9O 8O 6C 1 1
AP 7C 7E 4E 4O 3 AP KC 7C 7E 5C 2 1
AO JC TO 9C 8C 1 AO JC TE TO 9C 2 2
QC JO 9E 8E 7O 1 QC JO 9E 8E 7O 1 0

AE 9E 9O 7O 7P 3 AE JO 9E 7O 7P 2 1
AC AP KE 8C 4E 2 AC 8C 7C 3C 2C 6 2
TC TO 8P 7E 6O 2 QP TC 8P 7E 6O 1 1
AO 9C 9P 5C 5P 3 AO KO JC 9P 8O 1 1
KC 3E 3P 2E 2O 3 KC QO TP 2E 2O 2 1

KC QC QE JC JP 3 KC KE QE JC JP 3 2
AO JO TC 8O 4O 1 AO 4O 4P 3C 3O 3 2
TE 8P 7E 5P 4C 1 8P 7E 7P 2E 2O 3 2
AC AE 9P 7C 6P 2 9P 8E 7C 6P 5C 5 2
QP TP 8C 6E 6O 2 KO QP TP 8C 7O 1 1

AO 9E 6P 3C 3E 2 9C 9E 8C 3C 3E 3 2
QE JE 7P 4C 4E 2 KO QE 7P 4C 4E 2 2
KC KE 7O 3O 3P 3 AP KC TE 7O 5C 1 1
JO TC 9P 8P 7C 5 AC TC 9P 8O 7C 1 1
AE QC JC 7E 6C 1 QC QO QP JC 7E 4 2

AC QC JE 3C 3E 2 QC 8C 6C 3C 2C 6 2
JC TP 9C 4C 4O 2 QP JC TP 3O 3P 2 1
KE KO 7C 7O 6O 3 KE KO QE 5E 5P 3 1
AE KC QO JO TC 5 AE KC QO TO 9O 1 1
AO 9E 9P 8P 7P 2 AO AP 9E 9P 6E 3 2

KE QO JO TO 5P 1 QO TO 9E 5C 5P 2 2
JP TE TP 8C 8P 3 JP TP 8C 7C 7P 2 1
AC QP 9P 3C 3O 2 AC QP 9P 3C 3O 2 0
QC JC TC 9C 2C 6 QC JC TC 9O 5O 1 1
AE AO KC JE 7O 2 AE KO JE 7O 6O 1 1

JE 9E 6O 2C 2E 2 JE 6O 6P 2C 2E 3 2
7O 6C 5E 4E 3E 5 AO QO 7C 4E 4P 2 1
AP KC TO 3O 3P 2 KC 9P 8O 3O 3P 2 1
AC QP JO JP TP 2 QP JO TP 9O 8E 5 2
AE KO TE 9C 8C 1 TE 9C 8C 8P 7P 2 2

KC 8O 8P 6C 6O 3 KC 8O 8P 6C 6O 3 0
AC QC 9C 7C 5C 6 AE QC QP 5C 5P 3 1
AO JC TC 3E 3P 2 KE 3E 3P 2E 2O 3 2
TP 7O 7P 5E 4O 2 7O 7P 6E 4E 4O 3 2
QE JE TE 9E 7E 6 QE JE TE 9E 8E 9 2

AO QC 8P 6C 5O 1 AC AO 8P 6C 5O 2 2
JP TO 8C 6O 4C 1 JP 8C 8E 2E 2O 3 2
AE TP 9C 7C 7E 2 AE JE TP 7C 7E 2 2
KE QE JO TE 9E 5 KE QE JO TC TE 2 1
AP KC QO 3E 3O 2 AP JC 8O 3E 3O 2 1

8C 8E 7P 6C 5P 2 KO 8C 8E 6C 6E 3 2
AP 9O 8O 4E 4P 2 AP 9O 7O 2C 2O 2 1
AC QC TO 7C 5E 1 AC QC QP JC 5E 2 2
KC JO JP TC 8P 2 KC JO JP TC 7E 2 1
AE TE TP 9E 9P 3 AE QO TP 9P 6P 1 1

AO JC 8E 4C 4P 2 AO TP 8E 7E 5E 1 1
JE JO 9E 9O 6P 3 JP 9E 9O 6C 6P 3 1
AC QC QE TC TE 3 AC QC QE 3E 3O 3 1
7P 6E 6O 5C 5O 3 KC 6E 6O 5C 5O 3 2
AE QO QP 8C 8P 3 QO QP 9P 7C 7O 3 1

8C 7C 6C 5E 4P 5 8C 7C 6C 5E 4O 5 0
KO 9C 9P 2E 2O 3 AP 9C 9P 2E 2O 3 2
KE QP 3E 3O 3P 4 QC QP 9E 3E 3O 3 1
KC 9O 6O 6P 5O 2 9O 8P 7P 6O 5O 5 2
AE AO QE JP TP 2 AO JE JP TE TP 3 2

AE QO JC 7P 6O 1 AE QO 7P 6O 6P 2 2
KE TO 9O 3C 3P 2 KE TO 9O 4C 4P 2 2
QC TP 9P 7O 4E 1 QC 9P 8P 7E 4E 1 1
AP JO JP 9C 9E 3 AP QP JP 9C 9E 2 1
AC KC QE TC TE 2 KC TC TE 8C 8E 3 2

TC TO 9E 8E 7E 2 TC TO 9E 8E 6E 2 1
JO TE 9O 4O 4P 2 JC TE 9O 4O 4P 2 0
AE AO KC QC QO 3 AE KC QC QO JP 2 1
JE 9P 7P 2E 2P 2 AP KO 9P 2E 2P 2 2
AC QP TP 5C 5E 2 AC 8C 7C 5C 3C 6 2

AC QE 6P 5C 5O 2 AC QE TE 5C 5O 2 2
KE QC JO TC TP 2 KE QC TC 7O 6C 1 1
KO QO 8C 2C 2E 2 KO QO JC 2E 2O 2 2
AO AP JE 9C 8E 2 AO AP JE 8E 8P 3 2
AE JP TO 9O 9P 2 AE KC JP TO 9O 1 1

KE JO 8P 6O 6P 2 KE JO 6C 6E 6P 4 2
QC 9O 9P 8C 8E 3 AO QC QO 9P 8C 2 1
AC KO JP TP 4C 1 AC KO QP 3C 3O 2 2
AE KC JC TC TO 2 AE TC TE 9C 9E 3 2
JE 7E 5E 4E 3E 6 QE 7E 5E 4E 3E 6 2

7P 6C 5C 4E 3P 5 AC AO 7P 5E 5O 3 1
KC TO 9C 8O 6E 1 KC 9C 4C 3C 2C 6 2
AE QE JO 4O 4P 2 AE JO TP 4O 4P 2 1
KE QC JC JE TE 2 KE TC TE 2E 2O 3 2
QO JP 9O 7E 7O 2 JP 9O 7E 7O 6O 2 1

KO QC TE 9O 8E 1 KO QC JC JE 9O 2 2
JO JP 9P 3C 3E 3 KC JO JP TO 9P 2 1
AE AP QO 3O 3P 3 AC AP TP 3O 3P 3 1
TC 9C 8C 6C 2C 6 TC 9C 9E 7C 7E 3 1
KE 5E 5P 4O 4P 3 KE QE QP 4E 4O 3 2

AC AP JP TC TE 3 AP JE TC TE 6C 2 1
KO QE QO TP 8C 2 QO QP TP 8C 7C 2 1
AO TO 6O 3C 3P 2 AO KE JO 3C 3P 2 2
8P 6E 6P 4C 4O 3 8P 7E 6E 6P 4O 2 1
JC 9E 9P 5C 5O 3 JC 9C 9E 9P 8E 4 2

KC TC TP 8C 8O 3 AO TC TP 8O 8P 3 2
TO 8E 6C 6O 4P 2 TO 9C 8E 6O 5C 1 1
KE QP JO 3C 3O 2 KE QP JC 7O 6E 1 1
QC 9E 7C 2E 2P 2 QC TE 7C 2E 2P 2 2
AE AP KO QO 9O 2 AE AP JE 9O 7P 2 1

AO QC TC TE TO 4 AO JE TC TO 9O 2 1
AC QP 9P 2C 2E 2 KC 9P 2C 2E 2O 4 2
7C 6C 5C 4C 3C 9 KE JO 8O 7C 7E 2 1
QO JC TP 9C 8C 5 KO QE JC 8C 8E 2 1
AE 9E 7O 6O 6P 2 7O 6O 5O 4O 3O 9 2

KO JC 8P 7C 7P 2 KO QC 8P 7C 7P 2 2
AE AP 9P 8C 6O 2 AE AP KC 5C 5E 3 2
JP TP 9C 9E 9O 4 QE JP 9C 9E 4P 2 1
AC QP TC 6C 6E 2 AC TC TE 6C 6E 3 2
AO JE TO 2C 2O 2 AO 4C 4O 2C 2O 3 2

AC KE 8C 2C 2O 2 AC KC KE 2C 2O 3 2
AE TO 9P 7P 6P 1 9P 7P 6P 5P 4P 6 2
JC JO TP 6C 6E 3 JO 9C 7O 6C 6E 2 1
AO KO QC TC 8P 1 KO QC QO 3C 3E 3 2
AP QP JP TE 8O 1 QP JP TE 9E 9O 2 2

KO 7C 7P 6E 4O 2 KC 7C 7P 6E 6P 3 2
AO 9P 7E 3C 3E 2 AO 9E 9P 3C 3E 3 2
JE TC TE 9C 7O 2 JE TE 9C 8C 8O 2 1
AP QE TO 5C 5E 2 QE 5C 5E 4C 4E 3 2
AE QC JC JO TP 2 AE QC QO TP 8P 2 2

KE QO JC JE TC 2 AP QO JC JE TC 2 2
AC AE AO KC QC 4 AC AE AO KC QC 4 0
KO TP 6O 2E 2P 2 6O 5P 4E 3E 2E 5 2
7E 6P 5E 4C 3P 5 QE TE 9E 8E 6P 1 1
QP 8O 8P 7O 7P 3 9O 8O 7O 5O 2O 6 2

AO QC TO 9P 5O 1 AO 5O 5P 2E 2P 3 2
TP 8C 7P 4C 4O 2 TP 8C 7P 3E 3O 2 1
6O 5E 4E 3P 2C 5 AP KC JP 8P 5E 1 1
AC AE QE QP JC 3 AC AE QP 7E 7O 3 1
QO 9C 9E 8E 6C 2 QO 9C 9E 8E 8O 3 2

KO QO TP 8C 8E 2 KO QO JO TE 8E 1 1
KC QE 9C 5O 4C 1 AP QE TC 9C 5O 1 2
AE JE 5E 4E 2E 6 KE JE 5E 4E 2E 6 1
AC AO 7E 6E 6O 3 7E 6E 5C 4P 3C 5 2
9E 8O 7O 2C 2O 2 QC 9E 9O 8O 7O 2 2

AC KC TO 6E 6O 2 TO 9O 8C 7C 6O 5 2
QE QO JC JO 8E 3 KE QC QE QO JO 4 2
TC 9C 6C 5C 2C 6 TC 6C 5C 3C 2C 6 1
AE JE 9P 7O 7P 2 JE 9P 7O 7P 5E 2 1
AP KO TE TP 9E 2 AO AP KO 2O 2P 3 2

QO JO TC TE 9E 2 TC 9E 8C 7E 6C 5 2
AP JC JP 8O 8P 3 AP QE QP JC JP 3 2
TP 7C 5P 2E 2P 2 KC TP 8E 5P 4E 1 1
QC JE TO 7O 6P 1 AC JE TO 7O 7P 2 2
AE AO 9C 9P 5C 3 AE AO KE 9C 5C 2 1

QC QO JC TC 8C 2 QC JC TC 6E 6O 2 1
9O 8E 7E 7O 7P 4 TE 9O 8E 7E 6P 5 2
AP QE JE TO 8P 1 AP QE TO 8P 7C 1 1
AO KE KO 4C 4P 3 AO KO JO 3O 3P 2 1
QP JP 2C 2E 2O 4 QP JP TP 2C 2E 2 1

AP QC JC JP 6C 2 AO AP QC JP 5C 2 2
KC 9O 8C 2C 2O 2 KC QE 9O 8C 7C 1 1
AE QP 9C 6O 6P 2 9C 6O 6P 4C 4P 3 2
JO TC TO 9P 7O 2 JO TC 9P 8P 7O 5 2
AC KO 8O 6E 5O 1 KO TE 8O 6E 5O 1 1

AE KC TE 9P 6O 1 AE KC JO TE 6O 1 2
QO JE 8C 5C 5E 2 QC QO JE 8C 5E 2 2
KE KO QE 5O 5P 3 KE KO TP 5O 5P 3 1
AP TC 7O 2C 2E 2 AO TC 7E 7O 4O 2 2
AC 9E 9O 7C 7P 3 AC 7C 7P 6E 6P 3 1

KE 9E 9P 6C 6E 3 KE 9E 9P 3C 3O 3 1
QO QP JP 9O 7E 2 QP JP TP 7E 7P 2 1
QE TO 8E 4E 4P 2 AO QE TO 4E 4P 2 2
AC JO 6P 5O 5P 2 AC JO 6P 5E 5O 2 0
AP TE 9C 8C 8O 2 TC TE 8C 8O 8P 7 2

AC JC 8C 8E 6O 2 AC JC JE TP 8C 2 2
9O 8O 7C 6P 5P 5 QP JP 9O 5E 5P 2 1
KO JO 9C 2C 2P 2 KO QE JO TO 4C 1 1
KC TC 9P 7P 6C 1 KC KE QC TC 9P 2 2
AE TE 9E 7E 6E 6 TE 9E 7E 6E 3E 6 1

QC QP 8P 6C 5P 2 AE QC QP 6C 5C 2 2
AC QO JP 7C 6E 1 QO JP 7C 7P 6E 2 2
JC TC 9P 6O 6P 2 JC TC 9C 8C 6P 1 1
KC 7E 5E 4E 4P 2 KC TP 7E 7O 5E 2 2
KE QE JE TE 8E 6 KE QE JE TE 9E 9 2

AE JE TC TO 7E 2 JE TC TO 3E 3P 3 2
KE QE QO JO TE 2 KE QE QO JO 8E 2 1
AO KO QP JP 8O 1 KO QC QP JP 8O 2 2
9E 9P 7C 6C 5C 2 9O 9P 7C 6C 6P 3 2
AP KC JC 8C 8P 2 AC KC JC TP 9C 1 1

JC TO TP 7O 6O 2 QO TO 7O 6O 3O 6 2
AP QC 3C 3E 3P 4 AP KO QE 3E 3P 2 1
AE KC JO 5O 5P 2 AE 5O 5P 4O 4P 3 2
KE 8C 8O 8P 6P 4 KE 9E 8C 8O 8P 4 2
JE TC 9C 6C 6E 2 JE TC TE 9C 9P 3 2

AE JE TE 9E 3E 6 AE JE TE 9E 5E 6 2
QE JC 8E 7E 6P 1 KE QE JC TC 8E 1 2
AO QC TP 9P 7P 1 QC TP 9P 4C 4E 2 2
AC 9O 6C 5C 5O 2 9O 5O 4O 3O 2O 6 2
QO QP JP 7O 6E 2 QO QP JO 7O 6O 2 0

9O 8P 7E 6E 5E 5 AP 9C 9O 5E 5O 3 1
QE TC 8E 2C 2O 2 QE QO TC 2C 2P 3 2
JP TE 9E 3E 3O 2 AE JP TE 9E 7C 1 1
AC JC JE JO TO 4 AC KC JC JE JO 4 2
AO KE QP TP 8C 1 AO KE KO QP TP 2 2

QP TC 8C 7C 4P 1 QP JE 8C 7P 4P 1 2
AE KO 9C 9O 7E 2 AE KO QO 9C 6C 1 1
AC AO JC 8E 5P 2 AC AO QC 5O 5P 3 2
QE 9E 5E 4E 3E 6 QE 9E 5E 4E 3E 6 0
AP TE 9P 8O 6E 1 AP KE 9P 8O 8P 2 2

AP TP 9P 7C 7E 2 TP 9P 7C 6C 4C 1 1
QE JE TE 9E 8C 5 QE JE TE 9E 8E 9 2
AE AO 5E 5O 5P 7 AE AO KE 5E 5P 3 1
QO JP 9C 8O 6E 1 AC QO 9C 8O 5C 1 2
QP JO TO 9O 6O 1 QP JO TC TO 9O 2 2

AP KE QE JP TO 5 AO AP KE QP TO 2 1
AC AE KO 8O 7C 2 AE 9O 8O 7C 7O 2 1
KC QC JO TC 9C 5 QC QO JO TC 5O 2 1
8E 4C 4O 3C 3O 3 8E 6P 4C 4O 4P 4 2
JC TP 9E 7P 6O 1 JC TP 9E 9P 8P 2 2

9P 8C 8O 7P 6P 2 9O 9P 8C 8O 7P 3 2
QE JP TC 9C 7O 1 KE JP TC TP 7O 2 2
AC KC QC JE TO 5 AC AE KC JC JE 3 1
QP JO 8P 2E 2P 2 JO 8P 2C 2E 2P 4 2
AO AP KO 3C 3O 3 AP KO QO 5C 5O 2 1

AC AO JC JE TE 3 AC AO QC QP JC 3 2
KC 5C 4C 3C 2C 6 JP TO 5C 5E 4C 2 1
QE QO TC 8C 7C 2 AP QE QO JO TC 2 2
AE KE TP 3E 3P 2 KE TP 7E 3E 3P 2 1
KO 8E 8P 4E 4O 3 KO 9O 6O 4O 3O 6 2

QO 8C 8E 3C 3E 3 QO 8C 8P 3C 3E 3 0
AE QC TP 2C 2E 2 AE KO QC 2C 2E 2 2
AP 9C 9O 4E 4O 3 AP TC TO 9C 9P 3 2
AC KC JC JO JP 4 AC KC QP JC JO 2 1
KE QE JE TE 6E 6 AO QE JE TE 8O 1 1

QP JE 9P 4C 4P 2 JE 9P 8E 8O 5P 2 2
AP KE TC 9E 9O 2 AP KE JP 9O 8P 1 1
QC JO TO 2E 2O 2 QE JO TO 2C 2E 2 0
AC AO TE 9C 8C 2 AO KC 9C 8C 6C 1 1
KO QO JC 7E 6E 1 AE 7E 6E 5E 3E 6 2

AO KC KO JO TC 2 KC KO JC JO 7C 3 2
AC AP 8C 6C 6P 3 AP 8C 6C 6O 6P 4 2
QE 9P 7P 3C 3E 2 9C 9P 7P 3C 3E 3 2
QC 8E 8O 4E 4P 3 TO 9E 8E 8O 8P 4 2
AE QP JP TE TP 2 QP TE TP 2E 2P 3 2

QE JE TE 9O 8E 5 JE TO 9C 9O 8E 2 1
KC KE 9E 3O 3P 3 KC KE 9E 7E 6O 2 1
QP JP 9P 6P 4P 6 AO QP JO JP 9P 2 1
5E 4C 3C 2O AE 5 5E 4E 3C 2O AE 5 0
AC QO 8O 8P 6C 2 AC QO 8O 8P 5O 2 1

JE 8C 8E 7C 6E 2 KE JE 8E 6E 4C 1 1
AO 9C 9E 8P 6C 2 9C 9E 8O 8P 6C 3 2
KC QE JC TE 7E 1 QE JC TC TE 9O 2 2
AE JO JP TO 4P 2 AE QC JO 4E 4P 2 1
KO QO QP 5E 5O 3 KO QP TP 6P 5O 1 1

QC TC 8C 7C 2C 6 TC 9C 8C 4C 2C 6 1
KC QP JC TO 9E 5 AC KC KO QP 9E 2 1
AE JP 7P 5C 5O 2 AE QE JE JP 7P 2 2
JO TP 6C 6O 6P 4 JO TP 8P 6C 6O 2 1
AO AP KE TE 9P 2 AP KE QO TE 9P 1 1

AP TP 4P 3P 2P 6 AC AP QC TP 8E 2 1
AE AO 5P 3C 3E 3 AE AO TO 8P 5P 2 1
QP JP 9P 7C 7P 2 7C 6C 5C 4C 3O 5 2
KC JC TC TE 8C 2 KC JC JO TC 9C 2 2
KE JE 9E 7E 6E 6 9E 7E 6E 5E 4E 6 1

JC 7O 7P 4C 4P 3 AE 7O 7P 4C 4P 3 2
AC 9C 8P 6O 6P 2 AC 9C 9O 9P 8P 4 2
KE JP TP 7C 6C 1 JP 8E 7C 6C 5C 1 1
AO KO QP JO TE 5 AO AP KC QP JO 2 1
QE QO TC 8C 6E 2 QE TC 8C 3C 3P 2 1

AP TO TP 3E 3O 3 AP QC 3E 3O 3P 4 2
KC KO QP 2C 2O 3 KE KO QP 2C 2O 3 0
AC AE AO 7C 6O 4 AE AO QE 7C 6O 2 1
8E 7E 6E 5E 4E 9 JC TC 8C 8E 7E 2 1
QO JO TE 9E 8O 5 QO JO 9O 8O 7O 6 2

AP KE QE 7P 6P 1 KE QE JE 5E 4E 6 2
AO KO QO 8O 4O 6 KO QC QO JC 8O 2 1
AC TE 7E 6C 4P 1 AC JP TE 7E 6C 1 2
AE TP 5C 5O 5P 4 AE KC TP 5C 5O 2 1
QP TO 9O 6E 6O 2 TO 9O 8P 7C 6E 5 2

AO KC JO 5E 5P 2 AO KC KE TP 7O 2 2
AP QE QP 9C 9E 3 AP QE QP 9E 8E 2 1
AC QO JP TC 7P 1 QO JP TE 7P 6C 1 1
JE 9P 3C 3O 3P 4 JE 9P 8O 8P 6O 2 1
JC 8C 5C 4C 2C 6 KO JC TO 8C 5C 1 1

JO TC 8C 7C 7E 2 AC JO 9O 7C 7E 2 2
AE KC JE TE 9E 1 KC JE TE 9E 7O 1 1
AO KE JC 3E 3O 2 AO KE QE 8E 8O 2 2
QP 9C 6E 2C 2O 2 QC QO QP 9C 6E 4 2
AP 4C 4P 3C 3P 3 AP 4C 4P 3C 3P 3 0

AP QC QO 3C 3E 3 QC TE 7P 3C 3E 2 1
AO KO QE TC 5E 1 AO KO QE 5E 5O 2 2
JE 9E 8E 6P 4E 1 JE JP 9E 8C 4E 2 2
8P 4C 4P 2C 2O 3 KE TO 6O 2C 2O 2 1
QP JC 9P 8O 7O 1 AC KC QP 9P 8O 1 2

JC TO 4C 4O 4P 4 QE JC TO 4O 4P 2 1
AO KO 9E 5E 5O 2 AO 9C 9E 5E 5O 3 2
AP TE 9P 6P 5P 1 AC AP JP 9P 5P 2 2
KE 7C 7P 6C 6E 3 KE QP JE 6C 6E 2 1
AE TC 8C 7O 6O 1 AE KC QC 7O 6O 1 2

KC JP TO 2O 2P 2 KC QE JP 8P 5O 1 1
JC JO 9C 7E 7O 3 KE JC JO 9C 7E 2 1
AE AO AP QC 8C 4 AO AP QC 9O 6O 2 1
JE 9E 9P 3E 3O 3 9E 8O 7C 3E 3O 2 1
AC QO QP TE TP 3 QO QP TE TP 8E 3 1

-1 0.00E+00
1 1.67E-01
2 4.22E-01
3 2.18E-01
4 3.96E-02
5 6.38E-02
6 6.50E-02
7 1.94E-02
8 1.20E-03
9 4.40E-03
10 0.00E+00

0 105
1 1163
2 1232
