1 AP KE JE 8P 7P 1
W AP KE JE 8P 7P 1 1

1 AC AO QC 9O 6C 2
2 AC AO 9O 7O 6C 2
4 AC AO AP KE 9O 4
W AC AO AP KE 9O 4 4

1 5.00E-01
2 0.00E+00
3 0.00E+00
4 5.00E-01
5 0.00E+00
6 0.00E+00
7 0.00E+00
8 0.00E+00
9 0.00E+00
10 0.00E+00

1 1.00
4 1.00
2 0.00
3 0.00
5 0.00
6 0.00
7 0.00
8 0.00
