TE 5O 5P 3E 3O 3
AO AP KE KO QC 3
KC JO 8C 8E 7E 2
QE 9P 7O 6E 6O 2
AE TO 9E 8O 6C 1
AC TC 9O 8P 7P 1
QO QP JC JP TP 3

8P 7E 6O 5C 4P 5
AC KO JC JP 8E 2
AE 9P 3C 3O 3P 4
AO 9O 8C 6E 6P 2
QE QP 9E 7C 6C 2
KC QC TC TE 9C 2
QO JE JO TO 8O 2

-1 0.00E+00
1 1.43E-01
2 5.00E-01
3 2.14E-01
4 7.14E-02
5 7.14E-02
6 0.00E+00
7 0.00E+00
8 0.00E+00
9 0.00E+00
10 0.00E+00
