AC KE JE 7C 5O 1 AC JE TE 9C 7C 1 1
QC JC 8C 6C 3C 6 KC QC JC 8C 6C 6 2
AE QE TC 4C 4O 2 AE 6P 4C 4O 4P 4 2
AO 9E 8O 8P 7E 2 AO 8O 8P 7E 6E 2 1
KO QO JO TO 9O 9 KO QO JO TO 9O 9 0

AC TO 8P 7C 7P 2 AC KE TO 7C 7P 2 2
QC 9O 9P 2E 2O 3 QC TC 9O 8E 7E 1 1
AO 3E 3O 2C 2P 3 AP 3E 3O 2C 2P 3 0
AE QO QP JO 8C 2 AE KC QO JO 9E 1 1
JC 9C 8O 6E 6P 2 KO 6E 6P 4C 4E 3 2

-1 0.00E+00
1 2.00E-01
2 3.50E-01
3 2.00E-01
4 5.00E-02
5 0.00E+00
6 1.00E-01
7 0.00E+00
8 0.00E+00
9 1.00E-01
10 0.00E+00

0 2
1 4
2 4
