AC AE TE 3O 3P 3 AC AE JP TE 8E 2 1
KE TC 9E 2C 2E 2 TC 9E 9O 2C 2E 3 2
AO AP KC QE 8C 2 AP KC 8C 6E 6P 2 1
JC JE 9C 8O 6C 2 KO JC JE JO 9C 4 2
QC QO 5C 5E 4P 3 QC QO TO 6O 4P 2 1

KO QP JO TE 6C 1 KO QO QP TE TP 3 2
AO JE 8E 6O 5C 1 AO JE JP 6O 5C 2 2
KE JC 9C 8C 5O 1 AC KE 9C 8C 7C 1 2
KC QC TC 9E 8O 1 KC 9E 8O 7E 7O 2 2
AE AP 9O 7P 6E 2 AP QE 9O 7P 6E 1 1

-1 0.00E+00
1 3.00E-01
2 4.50E-01
3 2.00E-01
4 5.00E-02
5 0.00E+00
6 0.00E+00
7 0.00E+00
8 0.00E+00
9 0.00E+00
10 0.00E+00

0 0
1 4
2 6
