KE TC TO 9E 9O 3 TC TE TO 9E 9O 7 2
KC KO JE TP 6O 2 AP KO JC JE TP 2 1
AO QC JP 9P 6C 1 AO QE 9P 7P 6C 1 1
QO JO 7C 4E 4P 2 JO 7C 7O 4E 4P 3 2
AC QP 7E 6P 5P 1 AC QP 8P 7E 6E 1 2

AP JC JO 8C 8P 3 AP JC TC 8C 8P 2 1
AE AO QC TO TP 3 AE AO KC KE JP 3 2
JE 8E 7E 5E 3E 6 JE 9E 8E 5E 3E 6 2
6E 5C 4O 3O 2O 5 AC 6E 6O 4E 4O 3 1
QE QO QP 7O 4C 4 KO QE 7C 7O 4C 2 1

-1 0.00E+00
1 2.00E-01
2 2.50E-01
3 3.00E-01
4 5.00E-02
5 5.00E-02
6 1.00E-01
7 5.00E-02
8 0.00E+00
9 0.00E+00
10 0.00E+00

0 0
1 5
2 5
