1 QO 9E 5C 2C 2E 2
2 QO QP 9E 6O 5C 2
W QO QP 9E 6O 5C 2 2

1 JE 8E 8P 7C 7O 3
2 JE 8E 8P 7O 5O 2
3 JE JO 9E 8E 8P 3
W JE JO 9E 8E 8P 3 3

1 0.00E+00
2 5.00E-01
3 5.00E-01
4 0.00E+00
5 0.00E+00
6 0.00E+00
7 0.00E+00
8 0.00E+00
9 0.00E+00
10 0.00E+00

2 1.00
3 1.00
1 0.00
4 0.00
5 0.00
6 0.00
7 0.00
8 0.00
