QC JE TE 8O 6C 1
KO QO TC 9C 9O 2
AO 9E 9P 5E 5O 3
KC KE QE TP 8E 2
AP JC JP 7E 7O 3
AE QP JO 7P 6P 1
AC 8C 8P 2C 2E 3

AE JE 8E 7E 6E 6
AC 8C 8O 8P 7C 4
QE TP 9C 2C 2E 2
QO JO TC TO 9P 2
7O 6O 5C 4E 3C 5
AO KE QC JC TE 5
KC QP JP 5O 4O 1

-1 0.00E+00
1 2.14E-01
2 2.86E-01
3 2.14E-01
4 7.14E-02
5 1.43E-01
6 7.14E-02
7 0.00E+00
8 0.00E+00
9 0.00E+00
10 0.00E+00
