1 AO 9E 9P 5O 5P 3
2 AO QC JE 9E 9P 2
4 AO 9C 9E 9P 8O 4
5 AO KO QO 5O 4O 6
W AO KO QO 5O 4O 6 5

1 AE QE 7E 3E 2E 6
2 QE JE 6E 3E 2E 6
W AE QE 7E 3E 2E 6 1

1 0.00E+00
2 0.00E+00
3 0.00E+00
4 0.00E+00
5 0.00E+00
6 1.00E+00
7 0.00E+00
8 0.00E+00
9 0.00E+00
10 0.00E+00

1 1.00
5 1.00
2 0.00
3 0.00
4 0.00
6 0.00
7 0.00
8 0.00
