1 AO QE 6E 3C 3P 2
W AO QE 6E 3C 3P 2 1

1 JC 7C 5C 3C 2C 6
2 JC 7C 5C 3C 2C 6
3 JC 7C 5C 3C 2C 6
4 7C 6C 5C 4C 3C 9
5 JC 7C 5C 3C 2C 6
6 JC 7C 5C 3C 2C 6
W 7C 6C 5C 4C 3C 9 4

1 0.00E+00
2 5.00E-01
3 0.00E+00
4 0.00E+00
5 0.00E+00
6 0.00E+00
7 0.00E+00
8 0.00E+00
9 5.00E-01
10 0.00E+00

1 1.00
4 1.00
2 0.00
3 0.00
5 0.00
6 0.00
7 0.00
8 0.00
