1 KC 8C 8E 5O 5P 3
2 KC JO 9C 8C 8E 2
W KC 8C 8E 5O 5P 3 1

1 5C 5E 3C 3O 3P 7
2 KE 7E 3C 3O 3P 4
3 8P 6O 3C 3O 3P 4
4 4O 4P 3C 3O 3P 7
7 5E 5P 3C 3O 3P 7
W 5C 5E 3C 3O 3P 7 1 7

1 0.00E+00
2 0.00E+00
3 5.00E-01
4 0.00E+00
5 0.00E+00
6 0.00E+00
7 5.00E-01
8 0.00E+00
9 0.00E+00
10 0.00E+00

1 1.50
7 0.50
2 0.00
3 0.00
4 0.00
5 0.00
6 0.00
8 0.00
