KC KE QE JC TO 2 KC KE JC TO TP 3 2
JP 9O 7E 5C 5O 2 QC JP 9O 5C 5O 2 2
AC AE AP QP TE 4 AC AP JO TE 8O 2 1
KO TC 8E 3C 3P 2 KO QO TC 3C 3P 2 2
JE 9C 9E 8C 7O 2 AO 9C 8C 4C 4P 2 1

KC JP 9C 9E 7E 2 AC JP 9C 7E 6O 1 1
7P 6C 5C 4C 3C 5 6C 5C 4C 3C 2E 5 1
KO TC TE 8C 5E 2 KO TC TE 8C 7C 2 2
AE KE QO 4O 4P 2 AE AP KE QC QO 3 2
AO JE TO 7O 5P 1 AO JE TO 8E 8O 2 2

-1 0.00E+00
1 1.00E-01
2 6.50E-01
3 1.00E-01
4 5.00E-02
5 1.00E-01
6 0.00E+00
7 0.00E+00
8 0.00E+00
9 0.00E+00
10 0.00E+00

0 0
1 4
2 6
