KE TC TE 9E 9O 3
AP KC JC JE TO 2
KO QC QE JP TP 2
AO 9P 7P 6C 5O 1
QO JO 8O 4E 4P 2
QP 7C 7E 6E 6P 3
AC 8C 5C 4C 2C 6

JC JO TC 8P 4P 2
AE AP KC KE QC 3
AO JP TO 9P 7E 1
JE 9E 8E 5E 3E 6
7P 6E 6O 4E 4O 3
AC QO QP 7C 7O 3
QE TE 9O 8O 5O 1

-1 0.00E+00
1 2.14E-01
2 2.86E-01
3 3.57E-01
4 0.00E+00
5 0.00E+00
6 1.43E-01
7 0.00E+00
8 0.00E+00
9 0.00E+00
10 0.00E+00
