8E 8O 5E 2E 2P 3
AO KO QC QE JP 2
AC AE KE 8P 6E 2
QP JE TC TE 9E 2
TO 9O 5O 4O 2O 6
QO JC JO TP 7O 2
9P 7C 7P 6C 6P 3

KC QP TC 6C 6P 2
9C 9E 9P 8C 8P 7
AC JE JP TE TO 3
KO QE QO 5P 4O 2
AE KE TP 5C 5O 2
AO AP 8E 6O 5E 2
JO 8O 7C 7E 7O 4

-1 0.00E+00
1 0.00E+00
2 5.71E-01
3 2.14E-01
4 7.14E-02
5 0.00E+00
6 7.14E-02
7 7.14E-02
8 0.00E+00
9 0.00E+00
10 0.00E+00
