5E 4E 3C 2P AO 5 AO 8E 8O 2E 2P 3 1
AC AE KE KO JP 3 AC AE KE QC 4P 2 1
QP JE TC 9E 8P 5 JE TE 9E 7E 3E 6 2
9O 6O 5O 4O 3O 6 TO 6O 5O 4O 2O 6 2
QO JO TP 7O 7P 2 QO JC 7O 7P 6P 2 1

KC QP TC 9E 8C 1 KC QP TC 9E 8C 1 0
AC TE TO 9C 9P 3 AC QC JC TE TO 2 1
QO JP 7P 5P 4O 1 QE QO JE 5P 4O 2 2
AE KE KO 5C 5O 3 KE 5C 5O 3C 3E 3 1
AO AP 8E 7C 7O 3 AO AP 7C 7O 6O 3 1

-1 0.00E+00
1 1.50E-01
2 2.50E-01
3 3.50E-01
4 0.00E+00
5 1.00E-01
6 1.50E-01
7 0.00E+00
8 0.00E+00
9 0.00E+00
10 0.00E+00

0 1
1 6
2 3
