1 AC KC QP 7O 6P 1
2 QP 8P 7O 6E 6P 2
3 QP 3C 3P 2C 2O 3
W QP 3C 3P 2C 2O 3 3

1 0.00E+00
2 0.00E+00
3 1.00E+00
4 0.00E+00
5 0.00E+00
6 0.00E+00
7 0.00E+00
8 0.00E+00
9 0.00E+00
10 0.00E+00

3 1.00
1 0.00
2 0.00
4 0.00
5 0.00
6 0.00
7 0.00
8 0.00
