AC KC 8P 6E 4C 1
QE QO JE JO TP 3
AP KO QP 7O 6P 1
JC TC 9C 8C 7C 9
JP TE 9O 9P 8E 2
AO KE QC 7E 7P 2
5O 4E 3E 2E AE 5

-1 0.00E+00
1 2.86E-01
2 2.86E-01
3 1.43E-01
4 0.00E+00
5 1.43E-01
6 0.00E+00
7 0.00E+00
8 0.00E+00
9 1.43E-01
10 0.00E+00
