AE KE 8P 7E 6C 1 AE 8P 7E 7P 5C 2 2
QO JE 9E 9O 7O 2 AP QO JE 9O 7O 1 1
AO QE TE 5E 5O 2 QE 8C 8O 5E 5O 3 2
KO JO TC TO TP 4 KO QP TC TP 7C 2 1
AC JP 9C 6P 4O 1 AC JC JP 9C 6P 2 2

-1 0.00E+00
1 3.00E-01
2 5.00E-01
3 1.00E-01
4 1.00E-01
5 0.00E+00
6 0.00E+00
7 0.00E+00
8 0.00E+00
9 0.00E+00
10 0.00E+00

0 0
1 2
2 3
