1
2
2
2
1

2
2
1
1
1

2
1
2
2
1

1
1
2
2
1

2
2
2
2
2

1
2
2
2
2

2
1
1
1
2

-1 0.00E+00
1 4.43E-01
2 4.29E-01
3 7.14E-02
4 2.86E-02
5 0.00E+00
6 2.86E-02
7 0.00E+00
8 0.00E+00
9 0.00E+00
10 0.00E+00

0 0
1 14
2 21
