KE QO QP JE JP 3
QC JO 8C 8O 7P 2
AC AE KC 2C 2E 3
AO TO 9O 3E 3O 2
KO TC TP 9P 8E 2
AP JC TE 8P 7O 1
6C 6E 5C 5E 5P 7

AP QE JE 8O 5C 1
JO JP 9O 2O 2P 3
AC AE QC QP TO 3
AO KE QO 5O 5P 2
KO TC 8P 6O 6P 2
TP 9E 8C 7P 6E 5
KC JC TE 9C 8E 1

AC KE JE TC 5O 1
AP TE 8C 8O 8P 4
AO KO JC 2C 2P 2
QC QE QO 6C 6E 7
AE KC 8E 7C 7P 2
7E 6P 5E 4O 3O 5
JO TO 9O 7O 6O 6

AC KC 8P 6E 4C 1
QE QO JE JO TP 3
AP KO QP 7O 6P 1
JC TC 9C 8C 7C 9
JP TE 9O 9P 8E 2
AO KE QC 7E 7P 2
5O 4E 3E 2E AE 5

AE KE 8P 7E 7P 2
AP 4E 4P 2C 2E 3
AO QO 9O 8O 7O 6
QE TO 9P 5E 5O 2
KO QP JO TC 7C 1
JP TP 6P 3P 2P 6
AC KC QC 3E 3O 2

KE QC QE QP TO 4
AC AE KC 7O 5O 2
JC JO 8C 8E 8O 7
AP QO JP TE 4P 1
AO JE 6C 2O 2P 2
7C 7P 6E 6P 5C 3
TC 9C 9P 8P 7E 2

AC KE TO 7C 7P 2
KC QO TE 5E 5O 2
QP 9C 8C 7E 7O 2
AP KO TP 8E 8O 2
JE JO JP 8P 6P 4
QE JC TC 3C 3E 2
AE AO 2E 2O 2P 7

-1 0.00E+00
1 1.63E-01
2 4.08E-01
3 1.43E-01
4 6.12E-02
5 6.12E-02
6 6.12E-02
7 8.16E-02
8 0.00E+00
9 2.04E-02
10 0.00E+00
