KO JE 9O 5C 5O 2
AC AP QP 9P 8P 2
QC TE TP 2O 2P 3
7C 6C 5P 4P 3C 5
KE QE 9C 7O 7P 2
KC JC JO TC TO 3
AE 8E 5E 4E 2E 6

-1 0.00E+00
1 0.00E+00
2 4.29E-01
3 2.86E-01
4 0.00E+00
5 1.43E-01
6 1.43E-01
7 0.00E+00
8 0.00E+00
9 0.00E+00
10 0.00E+00
