1 9O 5O 5P 4O 4P 3
2 5E 5O 5P 4O 4P 7
3 KE 5O 5P 4O 4P 3
4 9O 5O 4O 3O 2O 6
W 5E 5O 5P 4O 4P 7 2

1 0.00E+00
2 0.00E+00
3 0.00E+00
4 0.00E+00
5 0.00E+00
6 0.00E+00
7 1.00E+00
8 0.00E+00
9 0.00E+00
10 0.00E+00

2 1.00
1 0.00
3 0.00
4 0.00
5 0.00
6 0.00
7 0.00
8 0.00
