1 AC QO 9C 9O 6P 2
W AC QO 9C 9O 6P 2 1

1 0.00E+00
2 1.00E+00
3 0.00E+00
4 0.00E+00
5 0.00E+00
6 0.00E+00
7 0.00E+00
8 0.00E+00
9 0.00E+00
10 0.00E+00

1 1.00
2 0.00
3 0.00
4 0.00
5 0.00
6 0.00
7 0.00
8 0.00
