TO 8P 4C 4E 4O 4 AC TO 8P 4C 4E 2 1
JO 7C 7O 6O 6P 3 AP JO 8E 7C 7O 2 1
QO TC 9C 5C 5P 2 TC 9C 6C 5C 5P 2 1
KE KO QP 9O 9P 3 KE KO QP 9E 9P 3 0
AO QE JC TP 4P 1 AO QE JC JE TP 2 2

-1 0.00E+00
1 1.00E-01
2 5.00E-01
3 3.00E-01
4 1.00E-01
5 0.00E+00
6 0.00E+00
7 0.00E+00
8 0.00E+00
9 0.00E+00
10 0.00E+00

0 1
1 3
2 1
