6P 5P 4P 3O 2P 5
JO TO 9O 3C 3P 2
AC QP JP TP 9C 1
QO 7C 7E 5C 5O 3
AP KO JC TC 9E 1
AE KC QC 9P 8P 1
KE QE JE 5E 4E 6

-1 0.00E+00
1 4.29E-01
2 1.43E-01
3 1.43E-01
4 0.00E+00
5 1.43E-01
6 1.43E-01
7 0.00E+00
8 0.00E+00
9 0.00E+00
10 0.00E+00
