AC 6C 6O 3C 3E 3
JC JP TE 9E 8E 2
AP 9P 7C 7O 5O 2
QC JO TP 9C 7P 1
KC KE KO JE 8C 4
5E 4E 3P 2C AE 5
AO QE 8O 8P 7E 2

-1 0.00E+00
1 1.43E-01
2 4.29E-01
3 1.43E-01
4 1.43E-01
5 1.43E-01
6 0.00E+00
7 0.00E+00
8 0.00E+00
9 0.00E+00
10 0.00E+00
