QC 8C 8O 7E 7P 3
AC QE JC TC 9O 1
AO KE JE TO 9E 1
QP 9C 7C 3C 3O 2
AE KC QO 8P 5C 1
AP 6C 6E 5E 5O 3
KO JO TP 8E 7O 1

-1 0.00E+00
1 5.71E-01
2 1.43E-01
3 2.86E-01
4 0.00E+00
5 0.00E+00
6 0.00E+00
7 0.00E+00
8 0.00E+00
9 0.00E+00
10 0.00E+00
