1 JP 5C 5O 3C 3O 3
2 QP 5C 5O 3C 3O 3
3 AE AO 8O 5C 5O 3
5 5C 5O 5P 3C 3O 7
W 5C 5O 5P 3C 3O 7 5

1 0.00E+00
2 0.00E+00
3 0.00E+00
4 0.00E+00
5 0.00E+00
6 0.00E+00
7 1.00E+00
8 0.00E+00
9 0.00E+00
10 0.00E+00

5 1.00
1 0.00
2 0.00
3 0.00
4 0.00
6 0.00
7 0.00
8 0.00
