KO QO JP 9O 9P 2 KO JP TO 9P 8P 1 1
AC JO TE 8C 7O 1 AC JO TE 2C 2E 2 2
AP QE TP 6C 6P 2 AP QE TC TP 9C 2 2
KE QP 9E 3C 3E 2 QP 9E 8E 3C 3E 2 1
AE KC 7C 5C 5E 2 AE KC QC JC 6E 1 1

-1 0.00E+00
1 3.00E-01
2 7.00E-01
3 0.00E+00
4 0.00E+00
5 0.00E+00
6 0.00E+00
7 0.00E+00
8 0.00E+00
9 0.00E+00
10 0.00E+00

0 0
1 3
2 2
