-1
KC QC TC TO 8O 2
JO 6C 6P 3O 3P 3
AE JP 8C 7E 4O 1
KE QP 9C 8P 5E 1
AC AO QE JE 9E 2
5P 4P 3C 2C AP 5

-1 1.43E-01
1 2.86E-01
2 2.86E-01
3 1.43E-01
4 0.00E+00
5 1.43E-01
6 0.00E+00
7 0.00E+00
8 0.00E+00
9 0.00E+00
10 0.00E+00
