KO TE 9O 8C 6O 1
KC QC JE 5E 5O 2
KE JP TC TO 9C 2
AC QO QP 5C 5P 3
AP 7P 6P 3P 2P 6
TP 8P 7E 3C 3E 2
-1

-1 1.43E-01
1 1.43E-01
2 4.29E-01
3 1.43E-01
4 0.00E+00
5 0.00E+00
6 1.43E-01
7 0.00E+00
8 0.00E+00
9 0.00E+00
10 0.00E+00
