-1
-1
AC KO TE 6C 6E 2 KO QE TE 3C 3E 2 1
KE 5C 5E 4C 4E 3 KE QO TP 4C 4E 2 1
AO 8O 7O 3O 2O 6 TO 8O 7O 4O 3O 6 1

-1 4.00E-01
1 0.00E+00
2 3.00E-01
3 1.00E-01
4 0.00E+00
5 0.00E+00
6 2.00E-01
7 0.00E+00
8 0.00E+00
9 0.00E+00
10 0.00E+00

0 2
1 3
2 0
