QP 9O 9P 6O 6P 3 QP 9P 6C 6E 6P 4 2
JO 9C 8O 3C 3E 2 JO 9C 3E 3O 3P 4 2
AO KC KE 9C 9E 3 KE 9C 9E 9O 9P 8 2
KO KP QO QP 7C 3 KE KO QO QP 7C 3 0
KE QP JO TO 9C 5 KE JO TE 9C 7E 1 1
7C 6P 5O 4O 3P 5 9E 7P 5O 4O 4P 2 1
9C 9O 9P 6C 6P 7 KO 9C 9O 9P 6O 4 1
KC QC JC TE TO 2 KC QC TC TO TP 4 2
AE KO QO 5O 5P 2 KO QO 3C 3E 3P 4 2
QO JO TO 9O 7O 6 JO 9O 8O 7O 4O 6 1
