KC 9C 8C 7C 3C 6 AC QE 9C 7C 5P 1 1
QP JC 8C 7C 6C 1 QP JC TC 8O 7C 1 2
AC 4C 4P 3C 3P 3 AC KE JP 6O 5C 1 1
AE KC QO 7C 5O 1 KC QO 7C 6O 4C 1 1
KE 8E 8O 2E 2P 3 KE TP 9O 8E 8O 2 1
JO JP TP 8E 7E 2 9O 8E 7E 6E 5C 5 2
QO 8C 8E 7C 5O 2 8C 8E 7C 4C 4O 3 2
AE AO 8P 7C 6C 2 AO JE 9O 7C 6C 1 1
AE 8C 8P 7O 6O 2 AC AE 8P 7O 6O 2 2
AC AO TO 9C 5O 2 AC TE TO 9C 9P 3 2
