KO QO 9O 8O 2O 6 KE KO QO 7O 7P 3 1
QC QE QO TP 7O 4 QC QE QO QP 7O 8 2
TE 7E 5E 4E 3E 6 TE 7E 6E 4E 3E 6 2
KP JC JO 8O 8P 3 KP QO JC JO JP 4 2
AC AE AO 4E 4O 7 AC AP JO 4E 4O 3 1
6C 6E 6O 6P 5P 8 8P 7O 6C 5P 4O 5 1
TO 7O 7P 2C 2E 3 7E 7O 7P 2C 2E 7 2
QO TO 8O 6O 3O 6 AE QO TO 9E 7E 1 1
9C 9O 8C 8O 8P 7 9C 9O 8E 8O 8P 7 0
KO 8C 8E 8O 8P 8 AC KO 8C 8E 8P 4 1
