KO QO 8O 7O 6O 6 KO QO JO 8O 7O 6 2
AC QC JO 7O 4P 1 AC QC JO 9C 7O 1 2
AE QC QO 9E 7E 2 KC QC QO 9E 7E 2 1
KE 6E 6P 3C 3O 3 KE QO JC 3C 3O 2 1
AP TC TE 7O 7P 3 AP QO TE 7P 6O 1 1
KE QC 9O 8C 8O 2 KE QC QP 8C 8O 3 2
KO JO JP TP 8O 2 QC JO JP TP 8O 2 1
KO QO TC 6E 6O 2 KO QO TO 6E 6O 2 0
QE TO 8P 6O 5O 1 TO 8P 7O 6O 5O 1 1
7O 6E 5P 4C 3C 5 7O 3C 3E 2E 2O 3 1
