KC QC QO JE JO 3 QC JE TE 9E 8E 5 2
JC JP TC 9C 8C 2 QC JC JP 8C 4E 2 2
7O 6C 5C 4C 3O 5 QP 8C 6C 6O 4C 2 1
TC TE TO 7O 7P 7 JE TC TO TP 8E 4 1
AP KO TP 4E 4P 2 KC KO TP 4O 4P 3 2
TE TO TP 3O 3P 7 JP TC TE TO TP 8 2
TO 9E 8E 7C 6P 5 QP 9O 8E 7C 6P 1 1
8O 7O 6E 5C 4C 5 AO QO 9P 7O 6E 1 1
KC QC QO QP JE 4 QC QE QP 3E 3P 7 2
QC TO 8E 7C 5P 1 QC JC TO 8E 7C 1 2
