6C 5C 4E 3C 2O 5 5C 5E 5P 4E 4P 7 2
KE QE JE 9E 8E 6 KE QE JE TE 8E 6 2
QO JC 9E 6E 6P 2 QO JC TE 9E 7P 1 1
AE AP TO 8C 7P 2 AE AP TO 5C 5E 3 2
9E 8E 7O 6O 5O 5 9C 9E 7O 6O 5O 2 1
KE QO JE TC 9E 5 QE QO TC TE 9E 3 1
AE KC QE TE TP 2 KC TE TO TP 7E 4 2
6E 6P 2C 2E 2O 7 QE JO 8O 2C 2O 2 1
AC AO AP 9E 9P 7 AE AO KP 9E 9P 3 1
KE KO KP 7P 5O 4 AE KE KO 7O 7P 3 1
