QP 8O 7C 3E 3P 2 QP 8O 3C 3E 3P 4 2
JC JO TE 9P 5P 2 JC JO JP 9P 5P 4 2
JO TE 4E 4O 4P 4 7P 6P 5P 4P 3P 9 2
QO 9E 9O 8C 8O 3 QO 9O 8O 7O 3O 6 2
KP QC QP JC JP 3 QC JC JP TP 9P 2 1
QP JP TP 6O 6P 2 JP TP 6C 6E 6O 4 2
JO TE 9E 8C 7O 5 AP JC JO 8C 7O 2 1
KE JO TC TE 9O 2 QO JO 9O 8O 7O 6 2
5E 5O 4C 4E 4P 7 8C 7E 6E 5O 4C 5 1
KP TE 8C 2E 2P 2 KP 8C 5O 2E 2P 2 1
